ISO-10303-21;
HEADER;
FILE_DESCRIPTION (( 'STEP AP203' ),
    '1' );
FILE_NAME ('Button.STEP',
    '2019-02-20T04:21:37',
    ( '' ),
    ( '' ),
    'SwSTEP 2.0',
    'SolidWorks 2018',
    '' );
FILE_SCHEMA (( 'CONFIG_CONTROL_DESIGN' ));
ENDSEC;

DATA;
#1 = PLANE ( 'NONE',  #209 ) ;
#2 = PLANE ( 'NONE',  #109 ) ;
#3 = AXIS2_PLACEMENT_3D ( 'NONE', #1055, #943, #592 ) ;
#4 = FACE_BOUND ( 'NONE', #214, .T. ) ;
#5 = CARTESIAN_POINT ( 'NONE',  ( -3.899999999999999023, 1.084202172485504434E-16, -2.099999999999999645 ) ) ;
#6 = LINE ( 'NONE', #368, #935 ) ;
#7 = LINE ( 'NONE', #501, #306 ) ;
#8 = CARTESIAN_POINT ( 'NONE',  ( -2.976894763515928410, 1.900000000000002354, 3.645644643538298688E-16 ) ) ;
#9 = CARTESIAN_POINT ( 'NONE',  ( -4.199999999999999289, 0.0000000000000000000, 0.0000000000000000000 ) ) ;
#10 = EDGE_CURVE ( 'NONE', #66, #379, #424, .T. ) ;
#11 = CARTESIAN_POINT ( 'NONE',  ( -4.199999999999999289, 0.2999999999999998224, 2.099999999999999645 ) ) ;
#12 = ORIENTED_EDGE ( 'NONE', *, *, #787, .F. ) ;
#13 = ORIENTED_EDGE ( 'NONE', *, *, #839, .T. ) ;
#14 = ORIENTED_EDGE ( 'NONE', *, *, #142, .T. ) ;
#15 = DIRECTION ( 'NONE',  ( -0.4539488471837126449, -0.8910277459992916871, 5.559270026801644321E-17 ) ) ;
#16 = AXIS2_PLACEMENT_3D ( 'NONE', #509, #795, #31 ) ;
#17 = CARTESIAN_POINT ( 'NONE',  ( 0.0000000000000000000, 1.899999999999999689, 3.000000000000000444 ) ) ;
#18 = APPLICATION_PROTOCOL_DEFINITION ( 'international standard', 'config_control_design', 1994, #295 ) ;
#20 = CLOSED_SHELL ( 'NONE', ( #662, #674, #625, #439 ) ) ;
#19 = VECTOR ( 'NONE', #578, 1000.000000000000000 ) ;
#21 = SHAPE_DEFINITION_REPRESENTATION ( #982, #82 ) ;
#22 = VERTEX_POINT ( 'NONE', #459 ) ;
#23 = APPROVAL ( #1133, 'UNSPECIFIED' ) ;
#24 = VECTOR ( 'NONE', #426, 1000.000000000000000 ) ;
#25 = DIRECTION ( 'NONE',  ( -0.0000000000000000000, -1.000000000000000000, -0.0000000000000000000 ) ) ;
#26 = EDGE_LOOP ( 'NONE', ( #1146, #1071, #388, #963 ) ) ;
#27 = EDGE_CURVE ( 'NONE', #66, #1150, #293, .T. ) ;
#28 = EDGE_LOOP ( 'NONE', ( #1199, #1126, #627, #92, #976 ) ) ;
#29 = EDGE_CURVE ( 'NONE', #707, #248, #40, .T. ) ;
#30 = ORIENTED_EDGE ( 'NONE', *, *, #220, .T. ) ;
#31 = DIRECTION ( 'NONE',  ( 0.0000000000000000000, -0.0000000000000000000, 1.000000000000000000 ) ) ;
#32 = CARTESIAN_POINT ( 'NONE',  ( 4.200000000000000178, 0.3000000000000000444, -2.899999999999999467 ) ) ;
#33 = CARTESIAN_POINT ( 'NONE',  ( 3.900000000000000799, 0.0000000000000000000, 3.899999999999999911 ) ) ;
#34 = VECTOR ( 'NONE', #198, 1000.000000000000000 ) ;
#35 = LINE ( 'NONE', #117, #717 ) ;
#36 = CIRCLE ( 'NONE', #825, 2.976894763515928410 ) ;
#37 = CONICAL_SURFACE ( 'NONE', #927, 1.749999999999999334, 0.4711921508389076974 ) ;
#38 = CARTESIAN_POINT ( 'NONE',  ( 0.0000000000000000000, 2.899999999999999911, 0.0000000000000000000 ) ) ;
#39 = AXIS2_PLACEMENT_3D ( 'NONE', #638, #358, #1009 ) ;
#40 = LINE ( 'NONE', #936, #262 ) ;
#41 = CARTESIAN_POINT ( 'NONE',  ( -3.899999999999999023, 0.0000000000000000000, -3.899999999999999911 ) ) ;
#42 = EDGE_LOOP ( 'NONE', ( #120, #981, #1017, #980 ) ) ;
#43 = CARTESIAN_POINT ( 'NONE',  ( -3.899999999999999023, 0.0000000000000000000, -3.899999999999999911 ) ) ;
#44 = ORIENTED_EDGE ( 'NONE', *, *, #1159, .F. ) ;
#45 = AXIS2_PLACEMENT_3D ( 'NONE', #107, #654, #200 ) ;
#46 = DIRECTION ( 'NONE',  ( 0.0000000000000000000, -5.042800802258160365E-16, -1.000000000000000000 ) ) ;
#47 = ADVANCED_FACE ( 'NONE', ( #369 ), #1014, .F. ) ;
#48 = CARTESIAN_POINT ( 'NONE',  ( 3.673940397442060361E-16, 1.899999999999999689, -3.000000000000000444 ) ) ;
#49 = LINE ( 'NONE', #972, #916 ) ;
#50 = DIRECTION ( 'NONE',  ( 0.0000000000000000000, -3.388131789017200370E-16, -1.000000000000000000 ) ) ;
#51 = LINE ( 'NONE', #464, #583 ) ;
#52 = ORIENTED_EDGE ( 'NONE', *, *, #27, .T. ) ;
#53 = EDGE_LOOP ( 'NONE', ( #964, #931, #515, #768 ) ) ;
#54 = DIRECTION ( 'NONE',  ( 0.0000000000000000000, -0.0000000000000000000, -1.000000000000000000 ) ) ;
#55 = VECTOR ( 'NONE', #50, 1000.000000000000000 ) ;
#56 = LOCAL_TIME ( 22, 21, 37.00000000000000000, #790 ) ;
#57 = CARTESIAN_POINT ( 'NONE',  ( 0.0000000000000000000, 1.899999999999999689, 0.0000000000000000000 ) ) ;
#58 = EDGE_CURVE ( 'NONE', #888, #114, #540, .T. ) ;
#59 = ORIENTED_EDGE ( 'NONE', *, *, #665, .T. ) ;
#60 = EDGE_CURVE ( 'NONE', #884, #379, #664, .T. ) ;
#61 = LINE ( 'NONE', #807, #1195 ) ;
#62 = DIRECTION ( 'NONE',  ( 1.000000000000000000, -4.956352788505165240E-16, 0.0000000000000000000 ) ) ;
#63 = ADVANCED_FACE ( 'NONE', ( #693 ), #272, .F. ) ;
#64 = VECTOR ( 'NONE', #841, 1000.000000000000000 ) ;
#65 = CARTESIAN_POINT ( 'NONE',  ( 2.143131898507868297E-16, 1.899999999999999689, 1.750000000000000000 ) ) ;
#66 = VERTEX_POINT ( 'NONE', #743 ) ;
#67 = CARTESIAN_POINT ( 'NONE',  ( 6.632264504582832992E-16, 4.308194849477209765, 0.0000000000000000000 ) ) ;
#68 = LINE ( 'NONE', #460, #785 ) ;
#69 = CARTESIAN_POINT ( 'NONE',  ( 4.200000000000000178, 0.3000000000000000999, 2.100000000000000089 ) ) ;
#70 = AXIS2_PLACEMENT_3D ( 'NONE', #322, #411, #698 ) ;
#71 = EDGE_LOOP ( 'NONE', ( #482, #872, #791, #59 ) ) ;
#72 = ORIENTED_EDGE ( 'NONE', *, *, #139, .T. ) ;
#73 = VECTOR ( 'NONE', #998, 1000.000000000000000 ) ;
#74 = EDGE_CURVE ( 'NONE', #803, #1062, #191, .T. ) ;
#75 = DIRECTION ( 'NONE',  ( 0.0000000000000000000, 0.0000000000000000000, -1.000000000000000000 ) ) ;
#76 = EDGE_CURVE ( 'NONE', #613, #775, #1156, .T. ) ;
#77 = CARTESIAN_POINT ( 'NONE',  ( -3.899999999999999023, 2.899999999999999911, -3.899999999999999911 ) ) ;
#78 = VERTEX_POINT ( 'NONE', #566 ) ;
#79 = EDGE_CURVE ( 'NONE', #814, #888, #328, .T. ) ;
#80 = VECTOR ( 'NONE', #739, 1000.000000000000000 ) ;
#81 = CARTESIAN_POINT ( 'NONE',  ( 0.0000000000000000000, 1.899999999999999689, 0.0000000000000000000 ) ) ;
#82 = ADVANCED_BREP_SHAPE_REPRESENTATION ( 'Button', ( #604, #829, #364 ), #466 ) ;
#84 = VERTEX_POINT ( 'NONE', #376 ) ;
#83 = FACE_OUTER_BOUND ( 'NONE', #949, .T. ) ;
#85 = VERTEX_POINT ( 'NONE', #371 ) ;
#86 = VECTOR ( 'NONE', #116, 1000.000000000000000 ) ;
#87 = DIRECTION ( 'NONE',  ( 1.000000000000000000, -0.0000000000000000000, 0.0000000000000000000 ) ) ;
#88 = LINE ( 'NONE', #492, #451 ) ;
#89 = CARTESIAN_POINT ( 'NONE',  ( -3.899999999999999023, 0.0000000000000000000, 3.899999999999999911 ) ) ;
#90 = DIRECTION ( 'NONE',  ( -0.0000000000000000000, 0.0000000000000000000, 1.000000000000000000 ) ) ;
#91 = ADVANCED_FACE ( 'NONE', ( #800 ), #830, .F. ) ;
#92 = ORIENTED_EDGE ( 'NONE', *, *, #1201, .F. ) ;
#93 = CARTESIAN_POINT ( 'NONE',  ( -4.199999999999999289, 0.2999999999999999889, -2.899999999999999911 ) ) ;
#94 = EDGE_CURVE ( 'NONE', #812, #403, #241, .T. ) ;
#95 = DIRECTION ( 'NONE',  ( 0.0000000000000000000, 0.0000000000000000000, -1.000000000000000000 ) ) ;
#96 = EDGE_LOOP ( 'NONE', ( #315, #133, #430, #1064 ) ) ;
#97 = EDGE_CURVE ( 'NONE', #870, #248, #1010, .T. ) ;
#98 = LINE ( 'NONE', #284, #225 ) ;
#99 = CARTESIAN_POINT ( 'NONE',  ( 0.0000000000000000000, 5.500000000000000000, 0.0000000000000000000 ) ) ;
#100 = CARTESIAN_POINT ( 'NONE',  ( 4.200000000000000178, -4.000000000000000000, 2.899999999999999911 ) ) ;
#102 = EDGE_LOOP ( 'NONE', ( #607, #428, #454, #630 ) ) ;
#101 = VECTOR ( 'NONE', #429, 1000.000000000000000 ) ;
#103 = FACE_OUTER_BOUND ( 'NONE', #297, .T. ) ;
#104 = VECTOR ( 'NONE', #642, 1000.000000000000000 ) ;
#105 = DIRECTION ( 'NONE',  ( 1.000000000000000000, 0.0000000000000000000, -1.224646799147353207E-16 ) ) ;
#106 = LINE ( 'NONE', #134, #122 ) ;
#107 = CARTESIAN_POINT ( 'NONE',  ( -4.199999999999999289, 0.2999999999999998224, 2.099999999999999645 ) ) ;
#108 = ORIENTED_EDGE ( 'NONE', *, *, #58, .F. ) ;
#109 = AXIS2_PLACEMENT_3D ( 'NONE', #755, #1219, #1211 ) ;
#110 = CARTESIAN_POINT ( 'NONE',  ( 4.200000000000000178, -4.000000000000000000, 2.899999999999999911 ) ) ;
#111 = AXIS2_PLACEMENT_3D ( 'NONE', #811, #906, #550 ) ;
#112 = DIRECTION ( 'NONE',  ( 0.0000000000000000000, 0.0000000000000000000, 1.000000000000000000 ) ) ;
#113 = APPROVAL_ROLE ( '' ) ;
#114 = VERTEX_POINT ( 'NONE', #850 ) ;
#115 = DIRECTION ( 'NONE',  ( 0.0000000000000000000, 0.0000000000000000000, -1.000000000000000000 ) ) ;
#116 = DIRECTION ( 'NONE',  ( 1.000000000000000000, -0.0000000000000000000, -0.0000000000000000000 ) ) ;
#117 = CARTESIAN_POINT ( 'NONE',  ( 4.200000000000000178, 0.3000000000000000999, 2.899999999999999911 ) ) ;
#118 = CC_DESIGN_PERSON_AND_ORGANIZATION_ASSIGNMENT ( #801, #779, ( #601 ) ) ;
#119 = PERSON_AND_ORGANIZATION ( #176, #700 ) ;
#120 = ORIENTED_EDGE ( 'NONE', *, *, #1012, .T. ) ;
#121 = ORIENTED_EDGE ( 'NONE', *, *, #1099, .T. ) ;
#122 = VECTOR ( 'NONE', #1068, 1000.000000000000000 ) ;
#123 = LINE ( 'NONE', #296, #332 ) ;
#124 = DIRECTION ( 'NONE',  ( -1.000000000000000000, 0.0000000000000000000, -0.0000000000000000000 ) ) ;
#125 = EDGE_CURVE ( 'NONE', #410, #1178, #772, .T. ) ;
#126 = EDGE_CURVE ( 'NONE', #255, #319, #548, .T. ) ;
#127 = DIRECTION ( 'NONE',  ( 0.0000000000000000000, 0.0000000000000000000, -1.000000000000000000 ) ) ;
#128 = ORIENTED_EDGE ( 'NONE', *, *, #902, .F. ) ;
#129 = ORIENTED_EDGE ( 'NONE', *, *, #126, .T. ) ;
#130 = ORIENTED_EDGE ( 'NONE', *, *, #10, .F. ) ;
#131 = LINE ( 'NONE', #1204, #226 ) ;
#132 = VECTOR ( 'NONE', #934, 1000.000000000000000 ) ;
#133 = ORIENTED_EDGE ( 'NONE', *, *, #197, .T. ) ;
#134 = CARTESIAN_POINT ( 'NONE',  ( 3.900000000000000799, 0.3000000000000000999, 2.100000000000000089 ) ) ;
#135 = VECTOR ( 'NONE', #528, 1000.000000000000000 ) ;
#136 = AXIS2_PLACEMENT_3D ( 'NONE', #351, #1004, #446 ) ;
#137 = CARTESIAN_POINT ( 'NONE',  ( 3.900000000000000799, -4.000000000000000000, 2.899999999999999911 ) ) ;
#138 = EDGE_CURVE ( 'NONE', #22, #465, #1203, .T. ) ;
#139 = EDGE_CURVE ( 'NONE', #354, #999, #131, .T. ) ;
#140 = ORIENTED_EDGE ( 'NONE', *, *, #126, .F. ) ;
#141 = DIRECTION ( 'NONE',  ( 1.000000000000000000, 0.0000000000000000000, 0.0000000000000000000 ) ) ;
#142 = EDGE_CURVE ( 'NONE', #85, #599, #1164, .T. ) ;
#144 = ORIENTED_EDGE ( 'NONE', *, *, #323, .F. ) ;
#143 = LINE ( 'NONE', #192, #273 ) ;
#145 = VERTEX_POINT ( 'NONE', #5 ) ;
#146 = LINE ( 'NONE', #452, #692 ) ;
#147 = FACE_OUTER_BOUND ( 'NONE', #314, .T. ) ;
#148 = DIRECTION ( 'NONE',  ( -0.0000000000000000000, -1.000000000000000000, -0.0000000000000000000 ) ) ;
#149 = CARTESIAN_POINT ( 'NONE',  ( 4.200000000000000178, 0.3000000000000000999, 2.899999999999999911 ) ) ;
#150 = AXIS2_PLACEMENT_3D ( 'NONE', #67, #1084, #546 ) ;
#151 = DIRECTION ( 'NONE',  ( 1.000000000000000000, -0.0000000000000000000, -0.0000000000000000000 ) ) ;
#152 = ORIENTED_EDGE ( 'NONE', *, *, #27, .F. ) ;
#153 = DIRECTION ( 'NONE',  ( 0.0000000000000000000, -1.000000000000000000, 0.0000000000000000000 ) ) ;
#154 = ADVANCED_FACE ( 'NONE', ( #103 ), #207, .F. ) ;
#155 = ORIENTED_EDGE ( 'NONE', *, *, #311, .F. ) ;
#156 = ORIENTED_EDGE ( 'NONE', *, *, #973, .T. ) ;
#157 = APPROVAL ( #1131, 'UNSPECIFIED' ) ;
#158 = DIRECTION ( 'NONE',  ( -0.0000000000000000000, 1.000000000000000000, -3.025680481354896416E-16 ) ) ;
#159 = ORIENTED_EDGE ( 'NONE', *, *, #609, .T. ) ;
#160 = EDGE_CURVE ( 'NONE', #530, #681, #1065, .T. ) ;
#161 = CARTESIAN_POINT ( 'NONE',  ( 4.200000000000000178, 0.3000000000000000999, 2.100000000000000089 ) ) ;
#162 = CALENDAR_DATE ( 2019, 19, 2 ) ;
#163 = AXIS2_PLACEMENT_3D ( 'NONE', #267, #87, #467 ) ;
#164 = VERTEX_POINT ( 'NONE', #479 ) ;
#165 = LINE ( 'NONE', #69, #661 ) ;
#166 = CARTESIAN_POINT ( 'NONE',  ( 3.900000000000000799, 0.2999999999999999334, -2.899999999999999911 ) ) ;
#167 = CARTESIAN_POINT ( 'NONE',  ( 3.673940397442060361E-16, 2.899999999999999911, -3.000000000000000444 ) ) ;
#168 = CARTESIAN_POINT ( 'NONE',  ( 6.632264504582832992E-16, 4.308194849477209765, 0.0000000000000000000 ) ) ;
#169 = AXIS2_PLACEMENT_3D ( 'NONE', #186, #1024, #105 ) ;
#170 = AXIS2_PLACEMENT_3D ( 'NONE', #641, #1190, #920 ) ;
#171 = LOCAL_TIME ( 22, 21, 37.00000000000000000, #584 ) ;
#172 = CARTESIAN_POINT ( 'NONE',  ( 3.900000000000000799, 0.0000000000000000000, 3.899999999999999911 ) ) ;
#173 = ORIENTED_EDGE ( 'NONE', *, *, #974, .T. ) ;
#174 = VECTOR ( 'NONE', #915, 1000.000000000000000 ) ;
#175 = SPHERICAL_SURFACE ( 'NONE', #1094, 2.976894763515928410 ) ;
#176 = PERSON ( 'UNSPECIFIED', 'UNSPECIFIED', 'UNSPECIFIED', ('UNSPECIFIED'), ('UNSPECIFIED'), ('UNSPECIFIED') ) ;
#177 = DIRECTION ( 'NONE',  ( -0.0000000000000000000, -0.0000000000000000000, 1.000000000000000000 ) ) ;
#178 = VECTOR ( 'NONE', #545, 1000.000000000000000 ) ;
#179 = ORIENTED_EDGE ( 'NONE', *, *, #346, .T. ) ;
#180 = DIRECTION ( 'NONE',  ( 0.0000000000000000000, 0.0000000000000000000, 1.000000000000000000 ) ) ;
#181 = EDGE_CURVE ( 'NONE', #145, #577, #1123, .T. ) ;
#182 = ORIENTED_EDGE ( 'NONE', *, *, #665, .F. ) ;
#183 = DIRECTION ( 'NONE',  ( 0.0000000000000000000, -1.000000000000000000, 0.0000000000000000000 ) ) ;
#184 = CARTESIAN_POINT ( 'NONE',  ( -4.199999999999999289, -4.000000000000000000, 2.900000000000002132 ) ) ;
#185 = ADVANCED_FACE ( 'NONE', ( #1013 ), #396, .F. ) ;
#186 = CARTESIAN_POINT ( 'NONE',  ( 0.0000000000000000000, 1.899999999999999911, 0.0000000000000000000 ) ) ;
#187 = ORIENTED_EDGE ( 'NONE', *, *, #686, .F. ) ;
#188 = PERSON_AND_ORGANIZATION ( #176, #700 ) ;
#189 = ORIENTED_EDGE ( 'NONE', *, *, #453, .F. ) ;
#190 = FACE_OUTER_BOUND ( 'NONE', #437, .T. ) ;
#191 = LINE ( 'NONE', #749, #558 ) ;
#192 = CARTESIAN_POINT ( 'NONE',  ( 4.200000000000000178, -4.000000000000000000, -2.099999999999999201 ) ) ;
#193 = ORIENTED_EDGE ( 'NONE', *, *, #1081, .F. ) ;
#194 = CARTESIAN_POINT ( 'NONE',  ( -3.899999999999999023, 0.0000000000000000000, 3.899999999999999911 ) ) ;
#195 = ADVANCED_FACE ( 'NONE', ( #83 ), #939, .F. ) ;
#196 = EDGE_CURVE ( 'NONE', #22, #644, #851, .T. ) ;
#197 = EDGE_CURVE ( 'NONE', #809, #1165, #435, .T. ) ;
#198 = DIRECTION ( 'NONE',  ( -0.0000000000000000000, -0.0000000000000000000, 1.000000000000000000 ) ) ;
#199 = CALENDAR_DATE ( 2019, 19, 2 ) ;
#200 = DIRECTION ( 'NONE',  ( 0.0000000000000000000, -1.000000000000000000, 1.008560160451632098E-16 ) ) ;
#201 = FACE_OUTER_BOUND ( 'NONE', #517, .T. ) ;
#202 = APPLICATION_PROTOCOL_DEFINITION ( 'international standard', 'config_control_design', 1994, #300 ) ;
#203 = VECTOR ( 'NONE', #554, 1000.000000000000000 ) ;
#204 = EDGE_CURVE ( 'NONE', #329, #563, #506, .T. ) ;
#205 = VECTOR ( 'NONE', #370, 1000.000000000000000 ) ;
#206 = ORIENTED_EDGE ( 'NONE', *, *, #220, .F. ) ;
#207 = PLANE ( 'NONE',  #946 ) ;
#208 = EDGE_LOOP ( 'NONE', ( #864, #676 ) ) ;
#209 = AXIS2_PLACEMENT_3D ( 'NONE', #574, #1023, #862 ) ;
#210 = ORIENTED_EDGE ( 'NONE', *, *, #414, .T. ) ;
#211 = CARTESIAN_POINT ( 'NONE',  ( 6.632264504582832992E-16, 4.308194849477209765, 0.0000000000000000000 ) ) ;
#212 = PERSON_AND_ORGANIZATION_ROLE ( 'design_supplier' ) ;
#213 = CC_DESIGN_APPROVAL ( #157, ( #601 ) ) ;
#214 = EDGE_LOOP ( 'NONE', ( #263, #1181 ) ) ;
#215 = PERSON_AND_ORGANIZATION ( #176, #700 ) ;
#216 = ORIENTED_EDGE ( 'NONE', *, *, #374, .F. ) ;
#217 = VECTOR ( 'NONE', #971, 1000.000000000000000 ) ;
#218 = CARTESIAN_POINT ( 'NONE',  ( 3.900000000000000799, 0.2999999999999999334, -2.099999999999998757 ) ) ;
#219 = CARTESIAN_POINT ( 'NONE',  ( 3.900000000000000799, 2.899999999999999911, 3.899999999999999911 ) ) ;
#220 = EDGE_CURVE ( 'NONE', #803, #812, #143, .T. ) ;
#221 = EDGE_CURVE ( 'NONE', #403, #336, #618, .T. ) ;
#222 = EDGE_LOOP ( 'NONE', ( #695, #477, #855, #1189, #72 ) ) ;
#223 = PLANE ( 'NONE',  #757 ) ;
#224 = CARTESIAN_POINT ( 'NONE',  ( -1.749999999999998890, 4.308194849477210653, 2.894388271023083370E-16 ) ) ;
#225 = VECTOR ( 'NONE', #950, 1000.000000000000000 ) ;
#226 = VECTOR ( 'NONE', #378, 1000.000000000000000 ) ;
#227 = VECTOR ( 'NONE', #828, 1000.000000000000000 ) ;
#228 = ORIENTED_EDGE ( 'NONE', *, *, #160, .T. ) ;
#229 = DIRECTION ( 'NONE',  ( 0.0000000000000000000, 1.000000000000000000, 0.0000000000000000000 ) ) ;
#230 = PRODUCT_DEFINITION ( 'UNKNOWN', '', #894, #945 ) ;
#231 = LINE ( 'NONE', #547, #873 ) ;
#232 = VECTOR ( 'NONE', #440, 1000.000000000000000 ) ;
#233 = AXIS2_PLACEMENT_3D ( 'NONE', #81, #268, #275 ) ;
#234 = CARTESIAN_POINT ( 'NONE',  ( -3.899999999999999023, 2.899999999999999911, -3.899999999999999911 ) ) ;
#235 = EDGE_LOOP ( 'NONE', ( #1175, #1118, #569, #789 ) ) ;
#236 = CARTESIAN_POINT ( 'NONE',  ( -4.199999999999999289, -4.000000000000000000, -2.899999999999999467 ) ) ;
#237 = PLANE ( 'NONE',  #617 ) ;
#238 = VERTEX_POINT ( 'NONE', #1134 ) ;
#239 = ADVANCED_FACE ( 'NONE', ( #494 ), #1143, .F. ) ;
#240 = PLANE ( 'NONE',  #905 ) ;
#241 = LINE ( 'NONE', #656, #80 ) ;
#242 = EDGE_CURVE ( 'NONE', #644, #1026, #480, .T. ) ;
#243 = EDGE_CURVE ( 'NONE', #1208, #436, #98, .T. ) ;
#244 = ORIENTED_EDGE ( 'NONE', *, *, #76, .T. ) ;
#245 = LINE ( 'NONE', #1031, #690 ) ;
#246 = CARTESIAN_POINT ( 'NONE',  ( 4.200000000000000178, 0.3000000000000000444, -2.099999999999999201 ) ) ;
#247 = DIRECTION ( 'NONE',  ( 0.0000000000000000000, -1.000000000000000000, 1.008560160451632221E-16 ) ) ;
#248 = VERTEX_POINT ( 'NONE', #1198 ) ;
#249 = LINE ( 'NONE', #985, #309 ) ;
#250 = CARTESIAN_POINT ( 'NONE',  ( 4.200000000000000178, -4.000000000000000000, -2.099999999999999201 ) ) ;
#251 = DIRECTION ( 'NONE',  ( -0.0000000000000000000, 1.000000000000000000, -0.0000000000000000000 ) ) ;
#252 = DIRECTION ( 'NONE',  ( 0.0000000000000000000, -1.000000000000000000, 0.0000000000000000000 ) ) ;
#253 = EDGE_LOOP ( 'NONE', ( #1077, #940, #216, #1160 ) ) ;
#254 = EDGE_LOOP ( 'NONE', ( #633, #489, #778, #121 ) ) ;
#255 = VERTEX_POINT ( 'NONE', #1101 ) ;
#256 = AXIS2_PLACEMENT_3D ( 'NONE', #504, #229, #1158 ) ;
#257 = EDGE_CURVE ( 'NONE', #436, #781, #742, .T. ) ;
#258 = DIRECTION ( 'NONE',  ( 0.0000000000000000000, -3.388131789017200370E-16, -1.000000000000000000 ) ) ;
#259 = FACE_OUTER_BOUND ( 'NONE', #835, .T. ) ;
#260 = FACE_OUTER_BOUND ( 'NONE', #1047, .T. ) ;
#261 = CARTESIAN_POINT ( 'NONE',  ( -4.199999999999999289, -4.000000000000000000, -2.899999999999999467 ) ) ;
#262 = VECTOR ( 'NONE', #649, 1000.000000000000000 ) ;
#263 = ORIENTED_EDGE ( 'NONE', *, *, #1099, .F. ) ;
#264 = CARTESIAN_POINT ( 'NONE',  ( -4.199999999999999289, 0.0000000000000000000, 0.0000000000000000000 ) ) ;
#265 = EDGE_CURVE ( 'NONE', #707, #78, #1103, .T. ) ;
#266 = ORIENTED_EDGE ( 'NONE', *, *, #311, .T. ) ;
#267 = CARTESIAN_POINT ( 'NONE',  ( -3.899999999999999023, 2.899999999999999911, 3.899999999999999911 ) ) ;
#268 = DIRECTION ( 'NONE',  ( -0.0000000000000000000, 1.000000000000000000, -0.0000000000000000000 ) ) ;
#269 = AXIS2_PLACEMENT_3D ( 'NONE', #525, #252, #631 ) ;
#270 = CARTESIAN_POINT ( 'NONE',  ( -3.899999999999999023, 0.0000000000000000000, 3.899999999999999911 ) ) ;
#271 = CALENDAR_DATE ( 2019, 19, 2 ) ;
#272 = PLANE ( 'NONE',  #163 ) ;
#273 = VECTOR ( 'NONE', #856, 1000.000000000000000 ) ;
#274 = LINE ( 'NONE', #469, #1192 ) ;
#275 = DIRECTION ( 'NONE',  ( 0.0000000000000000000, 0.0000000000000000000, 1.000000000000000000 ) ) ;
#276 = LINE ( 'NONE', #706, #588 ) ;
#277 = DIRECTION ( 'NONE',  ( 0.0000000000000000000, 0.0000000000000000000, -1.000000000000000000 ) ) ;
#278 = DIRECTION ( 'NONE',  ( 0.0000000000000000000, 0.0000000000000000000, 1.000000000000000000 ) ) ;
#279 = EDGE_LOOP ( 'NONE', ( #462, #597, #783, #30 ) ) ;
#280 = EDGE_CURVE ( 'NONE', #319, #354, #51, .T. ) ;
#281 = ORIENTED_EDGE ( 'NONE', *, *, #373, .T. ) ;
#282 = CARTESIAN_POINT ( 'NONE',  ( 4.200000000000000178, 0.0000000000000000000, 0.0000000000000000000 ) ) ;
#283 = EDGE_CURVE ( 'NONE', #781, #812, #68, .T. ) ;
#284 = CARTESIAN_POINT ( 'NONE',  ( 4.200000000000000178, 0.3000000000000000444, -2.099999999999999201 ) ) ;
#285 = DIRECTION ( 'NONE',  ( 1.000000000000000000, 0.0000000000000000000, 0.0000000000000000000 ) ) ;
#286 = ADVANCED_FACE ( 'NONE', ( #521 ), #487, .F. ) ;
#287 = LINE ( 'NONE', #261, #104 ) ;
#288 = ORIENTED_EDGE ( 'NONE', *, *, #729, .T. ) ;
#289 = LINE ( 'NONE', #1110, #227 ) ;
#290 = VECTOR ( 'NONE', #408, 1000.000000000000000 ) ;
#291 = CARTESIAN_POINT ( 'NONE',  ( -3.899999999999999023, 0.0000000000000000000, 3.899999999999999911 ) ) ;
#292 = APPROVAL_STATUS ( 'not_yet_approved' ) ;
#293 = LINE ( 'NONE', #270, #334 ) ;
#294 = AXIS2_PLACEMENT_3D ( 'NONE', #264, #926, #1196 ) ;
#295 = APPLICATION_CONTEXT ( 'configuration controlled 3d designs of mechanical parts and assemblies' ) ;
#296 = CARTESIAN_POINT ( 'NONE',  ( -3.899999999999999023, 2.899999999999999911, 3.899999999999999911 ) ) ;
#297 = EDGE_LOOP ( 'NONE', ( #910, #13, #1053, #635, #281 ) ) ;
#298 = DIRECTION ( 'NONE',  ( 0.0000000000000000000, 0.0000000000000000000, -1.000000000000000000 ) ) ;
#299 = ADVANCED_FACE ( 'NONE', ( #869 ), #505, .F. ) ;
#300 = APPLICATION_CONTEXT ( 'configuration controlled 3d designs of mechanical parts and assemblies' ) ;
#301 = CC_DESIGN_PERSON_AND_ORGANIZATION_ASSIGNMENT ( #119, #212, ( #894 ) ) ;
#302 = DIRECTION ( 'NONE',  ( -0.0000000000000000000, 1.000000000000000000, 0.0000000000000000000 ) ) ;
#303 = LINE ( 'NONE', #723, #580 ) ;
#304 = CARTESIAN_POINT ( 'NONE',  ( 3.900000000000000799, 2.899999999999999911, 3.899999999999999911 ) ) ;
#305 = VERTEX_POINT ( 'NONE', #32 ) ;
#306 = VECTOR ( 'NONE', #1140, 1000.000000000000000 ) ;
#307 = APPROVAL_PERSON_ORGANIZATION ( #215, #23, #682 ) ;
#308 = DIRECTION ( 'NONE',  ( 0.0000000000000000000, 0.0000000000000000000, 1.000000000000000000 ) ) ;
#309 = VECTOR ( 'NONE', #356, 1000.000000000000000 ) ;
#310 = EDGE_CURVE ( 'NONE', #1208, #803, #493, .T. ) ;
#311 = EDGE_CURVE ( 'NONE', #255, #599, #834, .T. ) ;
#312 = CIRCLE ( 'NONE', #1030, 2.976894763515928410 ) ;
#313 = DATE_TIME_ROLE ( 'creation_date' ) ;
#314 = EDGE_LOOP ( 'NONE', ( #802, #347, #551, #443 ) ) ;
#315 = ORIENTED_EDGE ( 'NONE', *, *, #398, .F. ) ;
#316 = DIRECTION ( 'NONE',  ( 0.0000000000000000000, 1.000000000000000000, -0.0000000000000000000 ) ) ;
#317 = CARTESIAN_POINT ( 'NONE',  ( 4.200000000000000178, -4.000000000000000000, -2.099999999999999201 ) ) ;
#318 = DIRECTION ( 'NONE',  ( -1.000000000000000000, 0.0000000000000000000, 0.0000000000000000000 ) ) ;
#319 = VERTEX_POINT ( 'NONE', #709 ) ;
#320 = EDGE_LOOP ( 'NONE', ( #983, #847, #386, #957 ) ) ;
#321 = LINE ( 'NONE', #89, #1182 ) ;
#322 = CARTESIAN_POINT ( 'NONE',  ( 0.0000000000000000000, 5.500000000000000000, 0.0000000000000000000 ) ) ;
#323 = EDGE_CURVE ( 'NONE', #336, #881, #49, .T. ) ;
#324 = ORIENTED_EDGE ( 'NONE', *, *, #858, .T. ) ;
#325 = CARTESIAN_POINT ( 'NONE',  ( 3.900000000000000799, 0.0000000000000000000, -2.099999999999998757 ) ) ;
#326 = CARTESIAN_POINT ( 'NONE',  ( 4.200000000000000178, 0.3000000000000000999, 2.899999999999999911 ) ) ;
#327 = EDGE_CURVE ( 'NONE', #1178, #1165, #312, .T. ) ;
#328 = LINE ( 'NONE', #172, #989 ) ;
#329 = VERTEX_POINT ( 'NONE', #48 ) ;
#330 = EDGE_LOOP ( 'NONE', ( #14, #155, #614, #508 ) ) ;
#331 = CIRCLE ( 'NONE', #798, 1.749999999999999334 ) ;
#332 = VECTOR ( 'NONE', #1086, 1000.000000000000000 ) ;
#333 = AXIS2_PLACEMENT_3D ( 'NONE', #875, #401, #407 ) ;
#334 = VECTOR ( 'NONE', #833, 1000.000000000000000 ) ;
#335 = DIRECTION ( 'NONE',  ( -1.000000000000000000, -0.0000000000000000000, -0.0000000000000000000 ) ) ;
#336 = VERTEX_POINT ( 'NONE', #511 ) ;
#337 = ORIENTED_EDGE ( 'NONE', *, *, #342, .F. ) ;
#338 = AXIS2_PLACEMENT_3D ( 'NONE', #461, #947, #278 ) ;
#339 = DIRECTION ( 'NONE',  ( -2.754039817842239723E-16, -1.000000000000000000, -0.0000000000000000000 ) ) ;
#340 = VERTEX_POINT ( 'NONE', #527 ) ;
#341 = CARTESIAN_POINT ( 'NONE',  ( -3.899999999999999023, 0.2999999999999998224, 2.099999999999999645 ) ) ;
#342 = EDGE_CURVE ( 'NONE', #1157, #1197, #694, .T. ) ;
#343 = CARTESIAN_POINT ( 'NONE',  ( 0.0000000000000000000, 5.500000000000000000, 0.0000000000000000000 ) ) ;
#344 = ADVANCED_FACE ( 'NONE', ( #576 ), #441, .F. ) ;
#345 = DIRECTION ( 'NONE',  ( -1.000000000000000000, -0.0000000000000000000, -0.0000000000000000000 ) ) ;
#346 = EDGE_CURVE ( 'NONE', #759, #66, #303, .T. ) ;
#347 = ORIENTED_EDGE ( 'NONE', *, *, #221, .F. ) ;
#348 = CARTESIAN_POINT ( 'NONE',  ( -3.899999999999999023, 0.0000000000000000000, 3.899999999999999911 ) ) ;
#349 = APPROVAL_DATE_TIME ( #536, #23 ) ;
#350 = VECTOR ( 'NONE', #1155, 1000.000000000000000 ) ;
#351 = CARTESIAN_POINT ( 'NONE',  ( 0.0000000000000000000, 1.899999999999999911, 0.0000000000000000000 ) ) ;
#352 = DIRECTION ( 'NONE',  ( -0.0000000000000000000, 1.000000000000000000, -5.042800802258160365E-16 ) ) ;
#353 = ORIENTED_EDGE ( 'NONE', *, *, #534, .T. ) ;
#354 = VERTEX_POINT ( 'NONE', #913 ) ;
#355 = DIRECTION ( 'NONE',  ( -2.754039817842239723E-16, -1.000000000000000000, -0.0000000000000000000 ) ) ;
#356 = DIRECTION ( 'NONE',  ( 1.000000000000000000, -0.0000000000000000000, -0.0000000000000000000 ) ) ;
#357 = DIRECTION ( 'NONE',  ( -0.0000000000000000000, -0.0000000000000000000, 1.000000000000000000 ) ) ;
#358 = DIRECTION ( 'NONE',  ( 1.000000000000000000, 0.0000000000000000000, 0.0000000000000000000 ) ) ;
#359 = DATE_AND_TIME ( #199, #549 ) ;
#361 = ORIENTED_EDGE ( 'NONE', *, *, #726, .T. ) ;
#360 = VECTOR ( 'NONE', #384, 1000.000000000000000 ) ;
#362 = ORIENTED_EDGE ( 'NONE', *, *, #629, .T. ) ;
#363 = VECTOR ( 'NONE', #153, 1000.000000000000000 ) ;
#364 = AXIS2_PLACEMENT_3D ( 'NONE', #1049, #308, #392 ) ;
#365 = CARTESIAN_POINT ( 'NONE',  ( 3.900000000000000799, 0.0000000000000000000, 3.899999999999999911 ) ) ;
#366 = LINE ( 'NONE', #425, #55 ) ;
#367 = DIRECTION ( 'NONE',  ( -0.0000000000000000000, -1.000000000000000000, -0.0000000000000000000 ) ) ;
#368 = CARTESIAN_POINT ( 'NONE',  ( -3.899999999999999023, 0.0000000000000000000, 3.899999999999999911 ) ) ;
#369 = FACE_OUTER_BOUND ( 'NONE', #253, .T. ) ;
#370 = DIRECTION ( 'NONE',  ( -0.0000000000000000000, 1.000000000000000000, -5.042800802258160365E-16 ) ) ;
#371 = CARTESIAN_POINT ( 'NONE',  ( -3.899999999999999023, -4.000000000000000000, -2.899999999999999467 ) ) ;
#372 = ORIENTED_EDGE ( 'NONE', *, *, #686, .T. ) ;
#373 = EDGE_CURVE ( 'NONE', #1197, #238, #538, .T. ) ;
#374 = EDGE_CURVE ( 'NONE', #340, #660, #703, .T. ) ;
#375 = ORIENTED_EDGE ( 'NONE', *, *, #470, .T. ) ;
#376 = CARTESIAN_POINT ( 'NONE',  ( 3.900000000000000799, 2.899999999999999911, 3.899999999999999911 ) ) ;
#377 = ORIENTED_EDGE ( 'NONE', *, *, #1098, .F. ) ;
#378 = DIRECTION ( 'NONE',  ( 1.000000000000000000, -0.0000000000000000000, -0.0000000000000000000 ) ) ;
#379 = VERTEX_POINT ( 'NONE', #720 ) ;
#380 = VECTOR ( 'NONE', #567, 1000.000000000000000 ) ;
#381 = DIRECTION ( 'NONE',  ( 0.0000000000000000000, -3.388131789017200370E-16, -1.000000000000000000 ) ) ;
#382 = ORIENTED_EDGE ( 'NONE', *, *, #561, .F. ) ;
#383 = VECTOR ( 'NONE', #832, 1000.000000000000000 ) ;
#384 = DIRECTION ( 'NONE',  ( -0.0000000000000000000, 1.000000000000000000, -0.0000000000000000000 ) ) ;
#385 = DIRECTION ( 'NONE',  ( 0.0000000000000000000, 0.0000000000000000000, -1.000000000000000000 ) ) ;
#386 = ORIENTED_EDGE ( 'NONE', *, *, #453, .T. ) ;
#387 = DIRECTION ( 'NONE',  ( -1.000000000000000000, 0.0000000000000000000, -0.0000000000000000000 ) ) ;
#388 = ORIENTED_EDGE ( 'NONE', *, *, #648, .F. ) ;
#389 = CARTESIAN_POINT ( 'NONE',  ( 0.0000000000000000000, 1.899999999999999689, 0.0000000000000000000 ) ) ;
#390 = EDGE_LOOP ( 'NONE', ( #173, #1111, #372, #244 ) ) ;
#391 = ORIENTED_EDGE ( 'NONE', *, *, #788, .F. ) ;
#392 = DIRECTION ( 'NONE',  ( 1.000000000000000000, 0.0000000000000000000, 0.0000000000000000000 ) ) ;
#394 = VERTEX_POINT ( 'NONE', #817 ) ;
#393 = VECTOR ( 'NONE', #1048, 1000.000000000000000 ) ;
#395 = EDGE_LOOP ( 'NONE', ( #745, #1105, #12, #1096 ) ) ;
#396 = PLANE ( 'NONE',  #784 ) ;
#397 = VECTOR ( 'NONE', #1100, 1000.000000000000000 ) ;
#398 = EDGE_CURVE ( 'NONE', #809, #410, #331, .T. ) ;
#399 = FACE_OUTER_BOUND ( 'NONE', #102, .T. ) ;
#400 =( LENGTH_UNIT ( ) NAMED_UNIT ( * ) SI_UNIT ( .MILLI., .METRE. ) );
#401 = DIRECTION ( 'NONE',  ( -0.0000000000000000000, 0.0000000000000000000, 1.000000000000000000 ) ) ;
#402 = AXIS2_PLACEMENT_3D ( 'NONE', #1070, #899, #1166 ) ;
#403 = VERTEX_POINT ( 'NONE', #816 ) ;
#404 = ORIENTED_EDGE ( 'NONE', *, *, #710, .F. ) ;
#405 = ORIENTED_EDGE ( 'NONE', *, *, #60, .F. ) ;
#406 = AXIS2_PLACEMENT_3D ( 'NONE', #1000, #650, #75 ) ;
#407 = DIRECTION ( 'NONE',  ( 1.000000000000000000, 0.0000000000000000000, 0.0000000000000000000 ) ) ;
#408 = DIRECTION ( 'NONE',  ( 1.000000000000000000, 0.0000000000000000000, 0.0000000000000000000 ) ) ;
#409 = LOCAL_TIME ( 22, 21, 37.00000000000000000, #658 ) ;
#410 = VERTEX_POINT ( 'NONE', #826 ) ;
#411 = DIRECTION ( 'NONE',  ( -0.0000000000000000000, -1.000000000000000000, -0.0000000000000000000 ) ) ;
#412 = LINE ( 'NONE', #137, #792 ) ;
#413 = CARTESIAN_POINT ( 'NONE',  ( -4.199999999999999289, -4.000000000000000000, 2.900000000000002132 ) ) ;
#414 = EDGE_CURVE ( 'NONE', #1150, #814, #1080, .T. ) ;
#415 = EDGE_CURVE ( 'NONE', #114, #781, #88, .T. ) ;
#416 = CARTESIAN_POINT ( 'NONE',  ( -4.199999999999999289, 0.3000000000000000999, 2.899999999999999911 ) ) ;
#417 = DIRECTION ( 'NONE',  ( 1.000000000000000000, -2.913645952885437007E-16, 0.0000000000000000000 ) ) ;
#418 = DIRECTION ( 'NONE',  ( 1.000000000000000000, -2.913645952885437500E-16, 0.0000000000000000000 ) ) ;
#419 = CARTESIAN_POINT ( 'NONE',  ( 4.200000000000000178, 0.3000000000000000444, -2.899999999999999467 ) ) ;
#420 = ORIENTED_EDGE ( 'NONE', *, *, #29, .F. ) ;
#421 = CYLINDRICAL_SURFACE ( 'NONE', #233, 3.000000000000000444 ) ;
#422 = FACE_OUTER_BOUND ( 'NONE', #26, .T. ) ;
#423 = DIRECTION ( 'NONE',  ( 0.0000000000000000000, 0.0000000000000000000, -1.000000000000000000 ) ) ;
#424 = LINE ( 'NONE', #1112, #205 ) ;
#425 = CARTESIAN_POINT ( 'NONE',  ( -4.199999999999999289, 0.3000000000000000999, 2.899999999999999911 ) ) ;
#426 = DIRECTION ( 'NONE',  ( -0.0000000000000000000, -0.0000000000000000000, 1.000000000000000000 ) ) ;
#427 = VECTOR ( 'NONE', #456, 1000.000000000000000 ) ;
#428 = ORIENTED_EDGE ( 'NONE', *, *, #1012, .F. ) ;
#429 = DIRECTION ( 'NONE',  ( 1.000000000000000000, -0.0000000000000000000, -0.0000000000000000000 ) ) ;
#430 = ORIENTED_EDGE ( 'NONE', *, *, #902, .T. ) ;
#431 = CARTESIAN_POINT ( 'NONE',  ( -4.199999999999999289, 0.2999999999999999889, -2.899999999999999911 ) ) ;
#432 = CARTESIAN_POINT ( 'NONE',  ( 3.900000000000000799, 2.899999999999999911, -3.899999999999999911 ) ) ;
#433 = EDGE_CURVE ( 'NONE', #114, #738, #679, .T. ) ;
#434 = EDGE_CURVE ( 'NONE', #319, #879, #1015, .T. ) ;
#436 = VERTEX_POINT ( 'NONE', #218 ) ;
#435 = LINE ( 'NONE', #960, #774 ) ;
#437 = EDGE_LOOP ( 'NONE', ( #179, #1173, #405, #898, #353 ) ) ;
#438 = CIRCLE ( 'NONE', #402, 3.000000000000000444 ) ;
#439 = ADVANCED_FACE ( 'NONE', ( #399 ), #37, .F. ) ;
#440 = DIRECTION ( 'NONE',  ( 0.0000000000000000000, -1.000000000000000000, 1.008560160451632221E-16 ) ) ;
#441 = CYLINDRICAL_SURFACE ( 'NONE', #445, 3.000000000000000444 ) ;
#442 = VERTEX_POINT ( 'NONE', #886 ) ;
#443 = ORIENTED_EDGE ( 'NONE', *, *, #283, .F. ) ;
#444 = ORIENTED_EDGE ( 'NONE', *, *, #257, .T. ) ;
#445 = AXIS2_PLACEMENT_3D ( 'NONE', #57, #699, #514 ) ;
#446 = DIRECTION ( 'NONE',  ( 1.000000000000000000, -2.913645952885437500E-16, 0.0000000000000000000 ) ) ;
#447 = PERSON_AND_ORGANIZATION ( #176, #700 ) ;
#448 = ORIENTED_EDGE ( 'NONE', *, *, #1035, .T. ) ;
#449 = FACE_OUTER_BOUND ( 'NONE', #623, .T. ) ;
#450 = CARTESIAN_POINT ( 'NONE',  ( -3.899999999999999023, 0.2999999999999998779, -2.900000000000000355 ) ) ;
#451 = VECTOR ( 'NONE', #298, 1000.000000000000000 ) ;
#452 = CARTESIAN_POINT ( 'NONE',  ( -4.199999999999999289, -4.000000000000000000, -2.899999999999999467 ) ) ;
#453 = EDGE_CURVE ( 'NONE', #394, #164, #761, .T. ) ;
#454 = ORIENTED_EDGE ( 'NONE', *, *, #531, .T. ) ;
#455 = ORIENTED_EDGE ( 'NONE', *, *, #1159, .T. ) ;
#456 = DIRECTION ( 'NONE',  ( -0.0000000000000000000, -0.0000000000000000000, 1.000000000000000000 ) ) ;
#457 = EDGE_LOOP ( 'NONE', ( #382, #718, #765, #711, #1213, #377, #130, #52, #474, #391, #473, #228 ) ) ;
#458 = CARTESIAN_POINT ( 'NONE',  ( -3.899999999999999023, -4.000000000000000000, 2.900000000000002132 ) ) ;
#459 = CARTESIAN_POINT ( 'NONE',  ( 4.200000000000000178, -4.000000000000000000, 2.899999999999999911 ) ) ;
#460 = CARTESIAN_POINT ( 'NONE',  ( 3.900000000000000799, 0.3000000000000000444, -2.099999999999999201 ) ) ;
#461 = CARTESIAN_POINT ( 'NONE',  ( 0.0000000000000000000, 2.899999999999999911, 0.0000000000000000000 ) ) ;
#462 = ORIENTED_EDGE ( 'NONE', *, *, #94, .T. ) ;
#463 = LINE ( 'NONE', #1128, #380 ) ;
#464 = CARTESIAN_POINT ( 'NONE',  ( -4.199999999999999289, 0.2999999999999999889, -2.899999999999999911 ) ) ;
#465 = VERTEX_POINT ( 'NONE', #771 ) ;
#466 =( GEOMETRIC_REPRESENTATION_CONTEXT ( 3 ) GLOBAL_UNCERTAINTY_ASSIGNED_CONTEXT ( ( #937 ) ) GLOBAL_UNIT_ASSIGNED_CONTEXT ( ( #400, #488, #954 ) ) REPRESENTATION_CONTEXT ( 'NONE', 'WORKASPACE' ) );
#467 = DIRECTION ( 'NONE',  ( 0.0000000000000000000, 0.0000000000000000000, -1.000000000000000000 ) ) ;
#468 = LINE ( 'NONE', #161, #1153 ) ;
#469 = CARTESIAN_POINT ( 'NONE',  ( 3.900000000000000799, 0.3000000000000000999, 2.899999999999999911 ) ) ;
#470 = EDGE_CURVE ( 'NONE', #738, #238, #7, .T. ) ;
#471 = PLANE ( 'NONE',  #911 ) ;
#472 = AXIS2_PLACEMENT_3D ( 'NONE', #93, #752, #1216 ) ;
#473 = ORIENTED_EDGE ( 'NONE', *, *, #1120, .T. ) ;
#474 = ORIENTED_EDGE ( 'NONE', *, *, #582, .F. ) ;
#475 = DIRECTION ( 'NONE',  ( 0.0000000000000000000, 0.0000000000000000000, -1.000000000000000000 ) ) ;
#476 = PLANE ( 'NONE',  #1090 ) ;
#477 = ORIENTED_EDGE ( 'NONE', *, *, #628, .T. ) ;
#478 = DIRECTION ( 'NONE',  ( -0.0000000000000000000, -2.032879073410320074E-16, -1.000000000000000000 ) ) ;
#479 = CARTESIAN_POINT ( 'NONE',  ( 0.0000000000000000000, 2.899999999999999911, 3.000000000000000444 ) ) ;
#480 = LINE ( 'NONE', #1162, #585 ) ;
#481 = PLANE ( 'NONE',  #966 ) ;
#482 = ORIENTED_EDGE ( 'NONE', *, *, #1081, .T. ) ;
#483 = FACE_OUTER_BOUND ( 'NONE', #28, .T. ) ;
#484 = FACE_OUTER_BOUND ( 'NONE', #96, .T. ) ;
#485 = AXIS2_PLACEMENT_3D ( 'NONE', #1102, #838, #258 ) ;
#486 = APPROVAL_ROLE ( '' ) ;
#487 = PLANE ( 'NONE',  #333 ) ;
#488 =( NAMED_UNIT ( * ) PLANE_ANGLE_UNIT ( ) SI_UNIT ( $, .RADIAN. ) );
#489 = ORIENTED_EDGE ( 'NONE', *, *, #265, .F. ) ;
#490 = VECTOR ( 'NONE', #183, 1000.000000000000000 ) ;
#491 = CARTESIAN_POINT ( 'NONE',  ( 3.900000000000000799, 0.3000000000000000444, -2.899999999999999467 ) ) ;
#492 = CARTESIAN_POINT ( 'NONE',  ( 3.900000000000000799, 0.0000000000000000000, 3.899999999999999911 ) ) ;
#493 = LINE ( 'NONE', #602, #731 ) ;
#495 = ORIENTED_EDGE ( 'NONE', *, *, #860, .F. ) ;
#494 = FACE_OUTER_BOUND ( 'NONE', #390, .T. ) ;
#496 = VECTOR ( 'NONE', #95, 1000.000000000000000 ) ;
#497 = EDGE_CURVE ( 'NONE', #84, #814, #804, .T. ) ;
#498 = ORIENTED_EDGE ( 'NONE', *, *, #1185, .F. ) ;
#499 = LINE ( 'NONE', #1191, #1209 ) ;
#500 = CARTESIAN_POINT ( 'NONE',  ( 0.0000000000000000000, 5.500000000000000000, -1.750000000000000000 ) ) ;
#501 = CARTESIAN_POINT ( 'NONE',  ( 3.900000000000000799, 0.3000000000000000999, 2.899999999999999911 ) ) ;
#502 = DIRECTION ( 'NONE',  ( 0.0000000000000000000, 0.0000000000000000000, -1.000000000000000000 ) ) ;
#503 = ORIENTED_EDGE ( 'NONE', *, *, #160, .F. ) ;
#504 = CARTESIAN_POINT ( 'NONE',  ( 0.0000000000000000000, 1.899999999999999689, 0.0000000000000000000 ) ) ;
#505 = PLANE ( 'NONE',  #967 ) ;
#506 = LINE ( 'NONE', #865, #19 ) ;
#507 = FACE_OUTER_BOUND ( 'NONE', #1067, .T. ) ;
#508 = ORIENTED_EDGE ( 'NONE', *, *, #1082, .T. ) ;
#509 = CARTESIAN_POINT ( 'NONE',  ( 0.0000000000000000000, 5.500000000000000000, 0.0000000000000000000 ) ) ;
#510 = FACE_OUTER_BOUND ( 'NONE', #1025, .T. ) ;
#511 = CARTESIAN_POINT ( 'NONE',  ( 3.900000000000000799, 1.084202172485504434E-16, -2.899999999999999467 ) ) ;
#512 = VECTOR ( 'NONE', #605, 1000.000000000000000 ) ;
#513 = ORIENTED_EDGE ( 'NONE', *, *, #373, .F. ) ;
#514 = DIRECTION ( 'NONE',  ( 0.0000000000000000000, 0.0000000000000000000, 1.000000000000000000 ) ) ;
#515 = ORIENTED_EDGE ( 'NONE', *, *, #1201, .T. ) ;
#516 = EDGE_LOOP ( 'NONE', ( #688, #533, #652, #748 ) ) ;
#517 = EDGE_LOOP ( 'NONE', ( #529, #1052, #129, #863 ) ) ;
#518 = EDGE_CURVE ( 'NONE', #884, #1214, #366, .T. ) ;
#519 = DIRECTION ( 'NONE',  ( 0.0000000000000000000, 1.000000000000000000, -5.042800802258160365E-16 ) ) ;
#520 = DIRECTION ( 'NONE',  ( 0.0000000000000000000, -1.000000000000000000, 0.0000000000000000000 ) ) ;
#521 = FACE_OUTER_BOUND ( 'NONE', #921, .T. ) ;
#522 = AXIS2_PLACEMENT_3D ( 'NONE', #416, #46, #519 ) ;
#523 = CALENDAR_DATE ( 2019, 19, 2 ) ;
#524 = VECTOR ( 'NONE', #1163, 1000.000000000000000 ) ;
#525 = CARTESIAN_POINT ( 'NONE',  ( 0.0000000000000000000, 0.0000000000000000000, 0.0000000000000000000 ) ) ;
#526 = CARTESIAN_POINT ( 'NONE',  ( 3.900000000000000799, 0.0000000000000000000, 2.899999999999999911 ) ) ;
#527 = CARTESIAN_POINT ( 'NONE',  ( 3.900000000000000799, 2.899999999999999911, -3.899999999999999911 ) ) ;
#528 = DIRECTION ( 'NONE',  ( -0.0000000000000000000, -1.000000000000000000, -0.0000000000000000000 ) ) ;
#529 = ORIENTED_EDGE ( 'NONE', *, *, #666, .T. ) ;
#530 = VERTEX_POINT ( 'NONE', #41 ) ;
#531 = EDGE_CURVE ( 'NONE', #410, #1178, #836, .T. ) ;
#532 = DIRECTION ( 'NONE',  ( 0.0000000000000000000, 1.000000000000000000, 0.0000000000000000000 ) ) ;
#533 = ORIENTED_EDGE ( 'NONE', *, *, #139, .F. ) ;
#534 = EDGE_CURVE ( 'NONE', #775, #759, #249, .T. ) ;
#535 = VECTOR ( 'NONE', #876, 1000.000000000000000 ) ;
#536 = DATE_AND_TIME ( #1179, #56 ) ;
#537 = VECTOR ( 'NONE', #929, 1000.000000000000000 ) ;
#538 = LINE ( 'NONE', #149, #925 ) ;
#539 = CARTESIAN_POINT ( 'NONE',  ( 4.200000000000000178, -4.000000000000000000, -2.899999999999999467 ) ) ;
#540 = LINE ( 'NONE', #365, #64 ) ;
#541 = ORIENTED_EDGE ( 'NONE', *, *, #497, .T. ) ;
#542 = CARTESIAN_POINT ( 'NONE',  ( 3.900000000000000799, -4.000000000000000000, 2.100000000000000089 ) ) ;
#543 = AXIS2_PLACEMENT_3D ( 'NONE', #99, #854, #667 ) ;
#544 = ORIENTED_EDGE ( 'NONE', *, *, #434, .F. ) ;
#545 = DIRECTION ( 'NONE',  ( 1.000000000000000000, -0.0000000000000000000, -0.0000000000000000000 ) ) ;
#546 = DIRECTION ( 'NONE',  ( 1.000000000000000000, -4.956352788505165240E-16, 0.0000000000000000000 ) ) ;
#547 = CARTESIAN_POINT ( 'NONE',  ( -4.199999999999999289, 0.3000000000000000999, 2.899999999999999911 ) ) ;
#548 = LINE ( 'NONE', #861, #744 ) ;
#549 = LOCAL_TIME ( 22, 21, 37.00000000000000000, #1076 ) ;
#550 = DIRECTION ( 'NONE',  ( 0.0000000000000000000, 0.0000000000000000000, -1.000000000000000000 ) ) ;
#551 = ORIENTED_EDGE ( 'NONE', *, *, #94, .F. ) ;
#552 = ORIENTED_EDGE ( 'NONE', *, *, #265, .T. ) ;
#553 = VECTOR ( 'NONE', #345, 1000.000000000000000 ) ;
#554 = DIRECTION ( 'NONE',  ( 0.0000000000000000000, -1.000000000000000000, 1.008560160451632221E-16 ) ) ;
#555 = ORIENTED_EDGE ( 'NONE', *, *, #79, .F. ) ;
#556 = FACE_OUTER_BOUND ( 'NONE', #254, .T. ) ;
#557 = CARTESIAN_POINT ( 'NONE',  ( -4.199999999999999289, 0.3000000000000000999, 2.899999999999999911 ) ) ;
#558 = VECTOR ( 'NONE', #1119, 1000.000000000000000 ) ;
#559 = CARTESIAN_POINT ( 'NONE',  ( -3.899999999999999023, 0.0000000000000000000, 2.099999999999999645 ) ) ;
#560 = CARTESIAN_POINT ( 'NONE',  ( 3.900000000000000799, 0.0000000000000000000, 3.899999999999999911 ) ) ;
#561 = EDGE_CURVE ( 'NONE', #999, #681, #901, .T. ) ;
#562 = ADVANCED_FACE ( 'NONE', ( #422 ), #1, .F. ) ;
#563 = VERTEX_POINT ( 'NONE', #167 ) ;
#564 = CARTESIAN_POINT ( 'NONE',  ( 4.200000000000000178, 0.3000000000000000999, 2.899999999999999911 ) ) ;
#565 = VERTEX_POINT ( 'NONE', #953 ) ;
#566 = CARTESIAN_POINT ( 'NONE',  ( 2.143131898507868297E-16, 5.500000000000000000, 1.750000000000000000 ) ) ;
#567 = DIRECTION ( 'NONE',  ( -0.0000000000000000000, -0.0000000000000000000, 1.000000000000000000 ) ) ;
#568 = CIRCLE ( 'NONE', #338, 3.000000000000000444 ) ;
#569 = ORIENTED_EDGE ( 'NONE', *, *, #518, .F. ) ;
#570 = DIRECTION ( 'NONE',  ( 0.0000000000000000000, 0.0000000000000000000, -1.000000000000000000 ) ) ;
#571 = FACE_OUTER_BOUND ( 'NONE', #958, .T. ) ;
#572 = AXIS2_PLACEMENT_3D ( 'NONE', #9, #677, #115 ) ;
#573 = CARTESIAN_POINT ( 'NONE',  ( 4.200000000000000178, 0.3000000000000000444, -2.899999999999999467 ) ) ;
#574 = CARTESIAN_POINT ( 'NONE',  ( 4.200000000000000178, 0.3000000000000000444, -2.099999999999999201 ) ) ;
#575 = CARTESIAN_POINT ( 'NONE',  ( 4.200000000000000178, 0.3000000000000000999, 2.100000000000000089 ) ) ;
#576 = FACE_OUTER_BOUND ( 'NONE', #917, .T. ) ;
#577 = VERTEX_POINT ( 'NONE', #559 ) ;
#578 = DIRECTION ( 'NONE',  ( -0.0000000000000000000, 1.000000000000000000, -0.0000000000000000000 ) ) ;
#579 = DIRECTION ( 'NONE',  ( -0.0000000000000000000, 1.000000000000000000, -0.0000000000000000000 ) ) ;
#580 = VECTOR ( 'NONE', #1095, 1000.000000000000000 ) ;
#581 = CARTESIAN_POINT ( 'NONE',  ( 4.200000000000000178, 0.3000000000000000999, 2.899999999999999911 ) ) ;
#582 = EDGE_CURVE ( 'NONE', #968, #1150, #276, .T. ) ;
#583 = VECTOR ( 'NONE', #478, 1000.000000000000000 ) ;
#584 = COORDINATED_UNIVERSAL_TIME_OFFSET ( 6, 0, .BEHIND. ) ;
#586 = ORIENTED_EDGE ( 'NONE', *, *, #342, .T. ) ;
#585 = VECTOR ( 'NONE', #1169, 1000.000000000000000 ) ;
#587 = EDGE_LOOP ( 'NONE', ( #992, #1113, #1104, #1217 ) ) ;
#588 = VECTOR ( 'NONE', #367, 1000.000000000000000 ) ;
#589 = FACE_OUTER_BOUND ( 'NONE', #715, .T. ) ;
#590 = ADVANCED_FACE ( 'NONE', ( #776 ), #223, .F. ) ;
#591 = LINE ( 'NONE', #246, #24 ) ;
#592 = DIRECTION ( 'NONE',  ( -1.000000000000000000, 0.0000000000000000000, 0.0000000000000000000 ) ) ;
#593 = CARTESIAN_POINT ( 'NONE',  ( 1.750000000000000000, 4.308194849477208876, 0.0000000000000000000 ) ) ;
#594 = DATE_TIME_ROLE ( 'classification_date' ) ;
#595 = CARTESIAN_POINT ( 'NONE',  ( -4.199999999999999289, -4.000000000000000000, -2.099999999999998312 ) ) ;
#596 = ADVANCED_FACE ( 'NONE', ( #260 ), #696, .T. ) ;
#597 = ORIENTED_EDGE ( 'NONE', *, *, #914, .F. ) ;
#598 = EDGE_LOOP ( 'NONE', ( #701, #361, #1045, #420 ) ) ;
#599 = VERTEX_POINT ( 'NONE', #622 ) ;
#600 = CARTESIAN_POINT ( 'NONE',  ( -3.899999999999999023, -4.000000000000000000, 2.900000000000002132 ) ) ;
#601 = SECURITY_CLASSIFICATION ( '', '', #1041 ) ;
#602 = CARTESIAN_POINT ( 'NONE',  ( 4.200000000000000178, 0.3000000000000000444, -2.099999999999999201 ) ) ;
#603 = ORIENTED_EDGE ( 'NONE', *, *, #196, .T. ) ;
#604 = MANIFOLD_SOLID_BREP ( 'Revolve2', #20 ) ;
#605 = DIRECTION ( 'NONE',  ( -0.0000000000000000000, 1.000000000000000000, -0.0000000000000000000 ) ) ;
#606 = CARTESIAN_POINT ( 'NONE',  ( 3.900000000000000799, -4.000000000000000000, -2.099999999999999201 ) ) ;
#607 = ORIENTED_EDGE ( 'NONE', *, *, #197, .F. ) ;
#608 = EDGE_CURVE ( 'NONE', #145, #879, #61, .T. ) ;
#609 = EDGE_CURVE ( 'NONE', #955, #577, #646, .T. ) ;
#610 = ORIENTED_EDGE ( 'NONE', *, *, #497, .F. ) ;
#611 = VECTOR ( 'NONE', #335, 1000.000000000000000 ) ;
#612 = DIRECTION ( 'NONE',  ( 0.0000000000000000000, 1.000000000000000000, 0.0000000000000000000 ) ) ;
#613 = VERTEX_POINT ( 'NONE', #919 ) ;
#614 = ORIENTED_EDGE ( 'NONE', *, *, #994, .F. ) ;
#615 = DIRECTION ( 'NONE',  ( -0.0000000000000000000, 0.0000000000000000000, 1.000000000000000000 ) ) ;
#616 = PLANE ( 'NONE',  #16 ) ;
#617 = AXIS2_PLACEMENT_3D ( 'NONE', #250, #995, #1088 ) ;
#618 = LINE ( 'NONE', #491, #360 ) ;
#619 = ORIENTED_EDGE ( 'NONE', *, *, #433, .T. ) ;
#620 = FACE_OUTER_BOUND ( 'NONE', #1137, .T. ) ;
#621 = CARTESIAN_POINT ( 'NONE',  ( -3.899999999999999023, 2.899999999999999911, -3.899999999999999911 ) ) ;
#622 = CARTESIAN_POINT ( 'NONE',  ( -3.899999999999999023, -4.000000000000000000, -2.099999999999998312 ) ) ;
#623 = EDGE_LOOP ( 'NONE', ( #444, #725, #206, #831, #1130 ) ) ;
#624 = CARTESIAN_POINT ( 'NONE',  ( 0.0000000000000000000, 5.500000000000000000, 0.0000000000000000000 ) ) ;
#625 = ADVANCED_FACE ( 'NONE', ( #735 ), #806, .T. ) ;
#626 = PLANE ( 'NONE',  #111 ) ;
#627 = ORIENTED_EDGE ( 'NONE', *, *, #883, .F. ) ;
#628 = EDGE_CURVE ( 'NONE', #681, #85, #874, .T. ) ;
#629 = EDGE_CURVE ( 'NONE', #1214, #955, #750, .T. ) ;
#630 = ORIENTED_EDGE ( 'NONE', *, *, #327, .T. ) ;
#631 = DIRECTION ( 'NONE',  ( 0.0000000000000000000, -0.0000000000000000000, -1.000000000000000000 ) ) ;
#632 = DIRECTION ( 'NONE',  ( 1.000000000000000000, -2.913645952885437007E-16, 0.0000000000000000000 ) ) ;
#633 = ORIENTED_EDGE ( 'NONE', *, *, #726, .F. ) ;
#634 = PERSON_AND_ORGANIZATION ( #176, #700 ) ;
#635 = ORIENTED_EDGE ( 'NONE', *, *, #1221, .F. ) ;
#636 = LINE ( 'NONE', #458, #383 ) ;
#637 = DIRECTION ( 'NONE',  ( 0.0000000000000000000, 1.000000000000000000, 0.0000000000000000000 ) ) ;
#638 = CARTESIAN_POINT ( 'NONE',  ( -3.899999999999999023, 0.0000000000000000000, 0.0000000000000000000 ) ) ;
#639 = AXIS2_PLACEMENT_3D ( 'NONE', #343, #637, #716 ) ;
#640 = PLANE ( 'NONE',  #1218 ) ;
#641 = CARTESIAN_POINT ( 'NONE',  ( 6.632264504582832992E-16, 4.308194849477209765, 0.0000000000000000000 ) ) ;
#642 = DIRECTION ( 'NONE',  ( 1.000000000000000000, -0.0000000000000000000, -0.0000000000000000000 ) ) ;
#643 = APPROVAL_DATE_TIME ( #359, #157 ) ;
#644 = VERTEX_POINT ( 'NONE', #713 ) ;
#645 = FACE_OUTER_BOUND ( 'NONE', #923, .T. ) ;
#646 = LINE ( 'NONE', #341, #232 ) ;
#647 = CARTESIAN_POINT ( 'NONE',  ( 3.900000000000000799, 0.0000000000000000000, 3.899999999999999911 ) ) ;
#648 = EDGE_CURVE ( 'NONE', #305, #1208, #591, .T. ) ;
#649 = DIRECTION ( 'NONE',  ( -0.0000000000000000000, -1.000000000000000000, -0.0000000000000000000 ) ) ;
#650 = DIRECTION ( 'NONE',  ( 1.000000000000000000, 0.0000000000000000000, 0.0000000000000000000 ) ) ;
#651 = AXIS2_PLACEMENT_3D ( 'NONE', #986, #532, #1177 ) ;
#652 = ORIENTED_EDGE ( 'NONE', *, *, #280, .F. ) ;
#653 = ADVANCED_FACE ( 'NONE', ( #147 ), #626, .F. ) ;
#654 = DIRECTION ( 'NONE',  ( 0.0000000000000000000, 1.008560160451632098E-16, 1.000000000000000000 ) ) ;
#655 = CC_DESIGN_DATE_AND_TIME_ASSIGNMENT ( #773, #594, ( #601 ) ) ;
#656 = CARTESIAN_POINT ( 'NONE',  ( 3.900000000000000799, -4.000000000000000000, -2.099999999999999201 ) ) ;
#657 = VECTOR ( 'NONE', #868, 1000.000000000000000 ) ;
#658 = COORDINATED_UNIVERSAL_TIME_OFFSET ( 6, 0, .BEHIND. ) ;
#659 = PLANE ( 'NONE',  #1028 ) ;
#660 = VERTEX_POINT ( 'NONE', #621 ) ;
#661 = VECTOR ( 'NONE', #741, 1000.000000000000000 ) ;
#662 = ADVANCED_FACE ( 'NONE', ( #484 ), #1107, .F. ) ;
#663 = DIRECTION ( 'NONE',  ( -0.0000000000000000000, 1.000000000000000000, -3.025680481354896416E-16 ) ) ;
#664 = LINE ( 'NONE', #557, #178 ) ;
#665 = EDGE_CURVE ( 'NONE', #968, #84, #123, .T. ) ;
#666 = EDGE_CURVE ( 'NONE', #354, #1008, #993, .T. ) ;
#667 = DIRECTION ( 'NONE',  ( 0.0000000000000000000, 0.0000000000000000000, 1.000000000000000000 ) ) ;
#668 = ORIENTED_EDGE ( 'NONE', *, *, #885, .F. ) ;
#669 = DIRECTION ( 'NONE',  ( 1.000000000000000000, 0.0000000000000000000, 0.0000000000000000000 ) ) ;
#670 = PLANE ( 'NONE',  #45 ) ;
#671 = PERSON_AND_ORGANIZATION_ROLE ( 'design_owner' ) ;
#672 = ORIENTED_EDGE ( 'NONE', *, *, #996, .F. ) ;
#673 = DIRECTION ( 'NONE',  ( 0.0000000000000000000, -3.025680481354896909E-16, -1.000000000000000000 ) ) ;
#674 = ADVANCED_FACE ( 'NONE', ( #1018 ), #175, .T. ) ;
#675 = DIRECTION ( 'NONE',  ( 0.0000000000000000000, -1.000000000000000000, 0.0000000000000000000 ) ) ;
#676 = ORIENTED_EDGE ( 'NONE', *, *, #729, .F. ) ;
#677 = DIRECTION ( 'NONE',  ( 1.000000000000000000, 0.0000000000000000000, 0.0000000000000000000 ) ) ;
#678 = VECTOR ( 'NONE', #25, 1000.000000000000000 ) ;
#679 = LINE ( 'NONE', #892, #1005 ) ;
#680 = CARTESIAN_POINT ( 'NONE',  ( 4.200000000000000178, -4.000000000000000000, 2.899999999999999911 ) ) ;
#681 = VERTEX_POINT ( 'NONE', #766 ) ;
#682 = APPROVAL_ROLE ( '' ) ;
#683 = CC_DESIGN_APPROVAL ( #1176, ( #894 ) ) ;
#684 = ORIENTED_EDGE ( 'NONE', *, *, #415, .T. ) ;
#685 = ADVANCED_FACE ( 'NONE', ( #620 ), #640, .F. ) ;
#686 = EDGE_CURVE ( 'NONE', #1214, #613, #952, .T. ) ;
#687 = EDGE_CURVE ( 'NONE', #879, #999, #499, .T. ) ;
#688 = ORIENTED_EDGE ( 'NONE', *, *, #687, .T. ) ;
#689 = CARTESIAN_POINT ( 'NONE',  ( -4.199999999999999289, 0.3000000000000001554, -2.099999999999999645 ) ) ;
#690 = VECTOR ( 'NONE', #381, 1000.000000000000000 ) ;
#691 = ORIENTED_EDGE ( 'NONE', *, *, #433, .F. ) ;
#692 = VECTOR ( 'NONE', #180, 1000.000000000000000 ) ;
#693 = FACE_OUTER_BOUND ( 'NONE', #457, .T. ) ;
#694 = LINE ( 'NONE', #326, #1212 ) ;
#695 = ORIENTED_EDGE ( 'NONE', *, *, #561, .T. ) ;
#696 = PLANE ( 'NONE',  #269 ) ;
#697 = DIRECTION ( 'NONE',  ( -0.0000000000000000000, -1.000000000000000000, -0.0000000000000000000 ) ) ;
#698 = DIRECTION ( 'NONE',  ( 0.0000000000000000000, 0.0000000000000000000, -1.000000000000000000 ) ) ;
#699 = DIRECTION ( 'NONE',  ( -0.0000000000000000000, 1.000000000000000000, -0.0000000000000000000 ) ) ;
#700 = ORGANIZATION ( 'UNSPECIFIED', 'UNSPECIFIED', '' ) ;
#701 = ORIENTED_EDGE ( 'NONE', *, *, #858, .F. ) ;
#702 = FACE_BOUND ( 'NONE', #208, .T. ) ;
#703 = LINE ( 'NONE', #234, #553 ) ;
#704 = DIRECTION ( 'NONE',  ( 0.0000000000000000000, 0.0000000000000000000, 1.000000000000000000 ) ) ;
#705 = ORIENTED_EDGE ( 'NONE', *, *, #1037, .T. ) ;
#706 = CARTESIAN_POINT ( 'NONE',  ( -3.899999999999999023, 2.899999999999999911, 3.899999999999999911 ) ) ;
#707 = VERTEX_POINT ( 'NONE', #500 ) ;
#708 = CARTESIAN_POINT ( 'NONE',  ( 4.200000000000000178, 0.3000000000000000999, 2.899999999999999911 ) ) ;
#709 = CARTESIAN_POINT ( 'NONE',  ( -4.199999999999999289, 0.3000000000000001554, -2.099999999999999645 ) ) ;
#710 = EDGE_CURVE ( 'NONE', #442, #530, #1054, .T. ) ;
#711 = ORIENTED_EDGE ( 'NONE', *, *, #181, .T. ) ;
#712 = ADVANCED_FACE ( 'NONE', ( #556 ), #977, .T. ) ;
#713 = CARTESIAN_POINT ( 'NONE',  ( 4.200000000000000178, -4.000000000000000000, 2.100000000000000089 ) ) ;
#714 = CARTESIAN_POINT ( 'NONE',  ( -4.199999999999999289, 0.3000000000000000999, 2.899999999999999911 ) ) ;
#715 = EDGE_LOOP ( 'NONE', ( #880, #846 ) ) ;
#716 = DIRECTION ( 'NONE',  ( 0.0000000000000000000, 0.0000000000000000000, 1.000000000000000000 ) ) ;
#717 = VECTOR ( 'NONE', #871, 1000.000000000000000 ) ;
#718 = ORIENTED_EDGE ( 'NONE', *, *, #687, .F. ) ;
#719 = FACE_OUTER_BOUND ( 'NONE', #598, .T. ) ;
#720 = CARTESIAN_POINT ( 'NONE',  ( -3.899999999999999023, 0.3000000000000000999, 2.899999999999999911 ) ) ;
#721 = PRODUCT_RELATED_PRODUCT_CATEGORY ( 'detail', '', ( #1001 ) ) ;
#722 = DIRECTION ( 'NONE',  ( 0.0000000000000000000, 0.0000000000000000000, -1.000000000000000000 ) ) ;
#723 = CARTESIAN_POINT ( 'NONE',  ( -3.899999999999999023, 0.3000000000000000999, 2.899999999999999911 ) ) ;
#724 = ADVANCED_FACE ( 'NONE', ( #510 ), #616, .T. ) ;
#725 = ORIENTED_EDGE ( 'NONE', *, *, #283, .T. ) ;
#726 = EDGE_CURVE ( 'NONE', #78, #870, #760, .T. ) ;
#727 = CARTESIAN_POINT ( 'NONE',  ( 4.200000000000000178, 0.3000000000000000444, -2.099999999999999201 ) ) ;
#728 = EDGE_LOOP ( 'NONE', ( #159, #448, #1205, #187, #362 ) ) ;
#729 = EDGE_CURVE ( 'NONE', #563, #164, #438, .T. ) ;
#730 = PLANE ( 'NONE',  #406 ) ;
#731 = VECTOR ( 'NONE', #520, 1000.000000000000000 ) ;
#732 = PERSON_AND_ORGANIZATION ( #176, #700 ) ;
#733 = CIRCLE ( 'NONE', #170, 1.749999999999999334 ) ;
#734 = CARTESIAN_POINT ( 'NONE',  ( -3.899999999999999023, 0.2999999999999998224, 2.099999999999999645 ) ) ;
#735 = FACE_OUTER_BOUND ( 'NONE', #740, .T. ) ;
#736 = PLANE ( 'NONE',  #485 ) ;
#737 = AXIS2_PLACEMENT_3D ( 'NONE', #110, #302, #762 ) ;
#738 = VERTEX_POINT ( 'NONE', #887 ) ;
#739 = DIRECTION ( 'NONE',  ( 0.0000000000000000000, 0.0000000000000000000, -1.000000000000000000 ) ) ;
#740 = EDGE_LOOP ( 'NONE', ( #1073, #997, #849, #128 ) ) ;
#741 = DIRECTION ( 'NONE',  ( -1.000000000000000000, -0.0000000000000000000, -0.0000000000000000000 ) ) ;
#742 = LINE ( 'NONE', #1210, #490 ) ;
#743 = CARTESIAN_POINT ( 'NONE',  ( -3.899999999999999023, 0.0000000000000000000, 2.900000000000000799 ) ) ;
#744 = VECTOR ( 'NONE', #663, 1000.000000000000000 ) ;
#745 = ORIENTED_EDGE ( 'NONE', *, *, #839, .F. ) ;
#746 = ADVANCED_FACE ( 'NONE', ( #571 ), #897, .F. ) ;
#747 = FACE_OUTER_BOUND ( 'NONE', #1152, .T. ) ;
#748 = ORIENTED_EDGE ( 'NONE', *, *, #434, .T. ) ;
#749 = CARTESIAN_POINT ( 'NONE',  ( 4.200000000000000178, -4.000000000000000000, -2.099999999999999201 ) ) ;
#750 = LINE ( 'NONE', #984, #840 ) ;
#751 = AXIS2_PLACEMENT_3D ( 'NONE', #77, #1022, #848 ) ;
#752 = DIRECTION ( 'NONE',  ( 0.0000000000000000000, -1.000000000000000000, 2.032879073410320074E-16 ) ) ;
#753 = ORIENTED_EDGE ( 'NONE', *, *, #79, .T. ) ;
#754 = ORIENTED_EDGE ( 'NONE', *, *, #138, .T. ) ;
#755 = CARTESIAN_POINT ( 'NONE',  ( 0.0000000000000000000, 1.899999999999999689, 0.0000000000000000000 ) ) ;
#756 = LINE ( 'NONE', #1040, #805 ) ;
#757 = AXIS2_PLACEMENT_3D ( 'NONE', #236, #316, #979 ) ;
#758 = DIRECTION ( 'NONE',  ( 0.0000000000000000000, 1.000000000000000000, 0.0000000000000000000 ) ) ;
#759 = VERTEX_POINT ( 'NONE', #600 ) ;
#760 = LINE ( 'NONE', #975, #678 ) ;
#761 = LINE ( 'NONE', #17, #512 ) ;
#762 = DIRECTION ( 'NONE',  ( 0.0000000000000000000, -0.0000000000000000000, 1.000000000000000000 ) ) ;
#763 = ADVANCED_FACE ( 'NONE', ( #483 ), #893, .F. ) ;
#764 = DIRECTION ( 'NONE',  ( 0.0000000000000000000, 0.0000000000000000000, 1.000000000000000000 ) ) ;
#765 = ORIENTED_EDGE ( 'NONE', *, *, #608, .F. ) ;
#766 = CARTESIAN_POINT ( 'NONE',  ( -3.899999999999999023, 0.0000000000000000000, -2.899999999999999911 ) ) ;
#767 = DIRECTION ( 'NONE',  ( 0.0000000000000000000, 1.008560160451632098E-16, 1.000000000000000000 ) ) ;
#768 = ORIENTED_EDGE ( 'NONE', *, *, #648, .T. ) ;
#769 = CARTESIAN_POINT ( 'NONE',  ( -3.899999999999999023, -4.000000000000000000, -2.899999999999999467 ) ) ;
#770 = EDGE_CURVE ( 'NONE', #465, #1026, #412, .T. ) ;
#771 = CARTESIAN_POINT ( 'NONE',  ( 3.900000000000000799, -4.000000000000000000, 2.899999999999999911 ) ) ;
#772 = CIRCLE ( 'NONE', #3, 2.976894763515928410 ) ;
#773 = DATE_AND_TIME ( #271, #171 ) ;
#775 = VERTEX_POINT ( 'NONE', #1161 ) ;
#774 = VECTOR ( 'NONE', #15, 1000.000000000000227 ) ;
#776 = FACE_OUTER_BOUND ( 'NONE', #330, .T. ) ;
#777 = LOCAL_TIME ( 22, 21, 37.00000000000000000, #1016 ) ;
#778 = ORIENTED_EDGE ( 'NONE', *, *, #29, .T. ) ;
#779 = PERSON_AND_ORGANIZATION_ROLE ( 'classification_officer' ) ;
#780 = DIRECTION ( 'NONE',  ( -0.0000000000000000000, 1.000000000000000000, -0.0000000000000000000 ) ) ;
#781 = VERTEX_POINT ( 'NONE', #325 ) ;
#782 = CARTESIAN_POINT ( 'NONE',  ( -3.899999999999999023, 2.899999999999999911, 3.899999999999999911 ) ) ;
#783 = ORIENTED_EDGE ( 'NONE', *, *, #74, .F. ) ;
#784 = AXIS2_PLACEMENT_3D ( 'NONE', #1033, #669, #475 ) ;
#785 = VECTOR ( 'NONE', #675, 1000.000000000000000 ) ;
#786 = PLANE ( 'NONE',  #522 ) ;
#787 = EDGE_CURVE ( 'NONE', #1026, #114, #106, .T. ) ;
#788 = EDGE_CURVE ( 'NONE', #660, #968, #951, .T. ) ;
#789 = ORIENTED_EDGE ( 'NONE', *, *, #60, .T. ) ;
#790 = COORDINATED_UNIVERSAL_TIME_OFFSET ( 6, 0, .BEHIND. ) ;
#791 = ORIENTED_EDGE ( 'NONE', *, *, #788, .T. ) ;
#792 = VECTOR ( 'NONE', #502, 1000.000000000000000 ) ;
#793 = DIRECTION ( 'NONE',  ( 0.0000000000000000000, -1.000000000000000000, 0.0000000000000000000 ) ) ;
#794 = ORIENTED_EDGE ( 'NONE', *, *, #196, .F. ) ;
#795 = DIRECTION ( 'NONE',  ( 0.0000000000000000000, 1.000000000000000000, 0.0000000000000000000 ) ) ;
#796 = EDGE_LOOP ( 'NONE', ( #705, #1085, #896, #969 ) ) ;
#797 = ORIENTED_EDGE ( 'NONE', *, *, #1061, .F. ) ;
#798 = AXIS2_PLACEMENT_3D ( 'NONE', #168, #355, #62 ) ;
#799 = DIRECTION ( 'NONE',  ( -1.000000000000000000, 0.0000000000000000000, -0.0000000000000000000 ) ) ;
#800 = FACE_OUTER_BOUND ( 'NONE', #516, .T. ) ;
#801 = PERSON_AND_ORGANIZATION ( #176, #700 ) ;
#802 = ORIENTED_EDGE ( 'NONE', *, *, #1061, .T. ) ;
#803 = VERTEX_POINT ( 'NONE', #317 ) ;
#804 = LINE ( 'NONE', #304, #1139 ) ;
#805 = VECTOR ( 'NONE', #1019, 1000.000000000000000 ) ;
#806 = SPHERICAL_SURFACE ( 'NONE', #136, 2.976894763515928410 ) ;
#807 = CARTESIAN_POINT ( 'NONE',  ( -3.899999999999999023, 0.3000000000000001554, -2.099999999999999645 ) ) ;
#808 = CARTESIAN_POINT ( 'NONE',  ( 4.049457457328088638E-31, 1.900000000000001465, 0.0000000000000000000 ) ) ;
#809 = VERTEX_POINT ( 'NONE', #224 ) ;
#810 = ADVANCED_FACE ( 'NONE', ( #702, #1106 ), #1149, .F. ) ;
#811 = CARTESIAN_POINT ( 'NONE',  ( 3.900000000000000799, 0.0000000000000000000, 0.0000000000000000000 ) ) ;
#812 = VERTEX_POINT ( 'NONE', #606 ) ;
#813 = EDGE_CURVE ( 'NONE', #394, #329, #891, .T. ) ;
#814 = VERTEX_POINT ( 'NONE', #33 ) ;
#815 = ADVANCED_FACE ( 'NONE', ( #190 ), #786, .F. ) ;
#816 = CARTESIAN_POINT ( 'NONE',  ( 3.900000000000000799, -4.000000000000000000, -2.899999999999999467 ) ) ;
#817 = CARTESIAN_POINT ( 'NONE',  ( 0.0000000000000000000, 1.899999999999999689, 3.000000000000000444 ) ) ;
#818 = ORIENTED_EDGE ( 'NONE', *, *, #1144, .T. ) ;
#819 = DIRECTION ( 'NONE',  ( -0.0000000000000000000, 1.000000000000000000, -0.0000000000000000000 ) ) ;
#820 = FACE_OUTER_BOUND ( 'NONE', #587, .T. ) ;
#821 = ORIENTED_EDGE ( 'NONE', *, *, #1221, .T. ) ;
#822 = LINE ( 'NONE', #1074, #174 ) ;
#823 = CARTESIAN_POINT ( 'NONE',  ( -3.899999999999999023, 0.2999999999999999889, -2.899999999999999911 ) ) ;
#824 = CC_DESIGN_PERSON_AND_ORGANIZATION_ASSIGNMENT ( #1036, #671, ( #1001 ) ) ;
#825 = AXIS2_PLACEMENT_3D ( 'NONE', #808, #339, #632 ) ;
#826 = CARTESIAN_POINT ( 'NONE',  ( 1.750000000000000000, 4.308194849477208876, 0.0000000000000000000 ) ) ;
#827 = CARTESIAN_POINT ( 'NONE',  ( -3.899999999999999023, 2.899999999999999911, 3.899999999999999911 ) ) ;
#828 = DIRECTION ( 'NONE',  ( 0.0000000000000000000, 0.0000000000000000000, -1.000000000000000000 ) ) ;
#829 = MANIFOLD_SOLID_BREP ( 'Boss-Extrude4', #890 ) ;
#830 = PLANE ( 'NONE',  #472 ) ;
#831 = ORIENTED_EDGE ( 'NONE', *, *, #310, .F. ) ;
#832 = DIRECTION ( 'NONE',  ( -0.0000000000000000000, -0.0000000000000000000, 1.000000000000000000 ) ) ;
#833 = DIRECTION ( 'NONE',  ( -0.0000000000000000000, -0.0000000000000000000, 1.000000000000000000 ) ) ;
#835 = EDGE_LOOP ( 'NONE', ( #375, #513, #337, #904 ) ) ;
#834 = LINE ( 'NONE', #595, #101 ) ;
#836 = LINE ( 'NONE', #593, #978 ) ;
#837 = LINE ( 'NONE', #1171, #611 ) ;
#838 = DIRECTION ( 'NONE',  ( 0.0000000000000000000, -1.000000000000000000, 3.388131789017200370E-16 ) ) ;
#839 = EDGE_CURVE ( 'NONE', #888, #465, #1069, .T. ) ;
#840 = VECTOR ( 'NONE', #151, 1000.000000000000000 ) ;
#841 = DIRECTION ( 'NONE',  ( 0.0000000000000000000, 0.0000000000000000000, -1.000000000000000000 ) ) ;
#842 = ADVANCED_FACE ( 'NONE', ( #449 ), #1083, .F. ) ;
#843 = CARTESIAN_POINT ( 'NONE',  ( -4.199999999999999289, -4.000000000000000000, -2.899999999999999467 ) ) ;
#844 = AXIS2_PLACEMENT_3D ( 'NONE', #727, #722, #799 ) ;
#845 = ORIENTED_EDGE ( 'NONE', *, *, #242, .F. ) ;
#846 = ORIENTED_EDGE ( 'NONE', *, *, #918, .T. ) ;
#847 = ORIENTED_EDGE ( 'NONE', *, *, #813, .F. ) ;
#848 = DIRECTION ( 'NONE',  ( 1.000000000000000000, 0.0000000000000000000, -0.0000000000000000000 ) ) ;
#849 = ORIENTED_EDGE ( 'NONE', *, *, #125, .T. ) ;
#850 = CARTESIAN_POINT ( 'NONE',  ( 3.900000000000000799, 0.0000000000000000000, 2.100000000000000089 ) ) ;
#852 = ORIENTED_EDGE ( 'NONE', *, *, #787, .T. ) ;
#851 = LINE ( 'NONE', #680, #393 ) ;
#853 = VECTOR ( 'NONE', #579, 1000.000000000000000 ) ;
#854 = DIRECTION ( 'NONE',  ( 0.0000000000000000000, 1.000000000000000000, 0.0000000000000000000 ) ) ;
#855 = ORIENTED_EDGE ( 'NONE', *, *, #1082, .F. ) ;
#856 = DIRECTION ( 'NONE',  ( -1.000000000000000000, -0.0000000000000000000, -0.0000000000000000000 ) ) ;
#857 = LINE ( 'NONE', #647, #397 ) ;
#858 = EDGE_CURVE ( 'NONE', #78, #707, #1038, .T. ) ;
#859 = DIRECTION ( 'NONE',  ( -1.000000000000000000, 0.0000000000000000000, 0.0000000000000000000 ) ) ;
#860 = EDGE_CURVE ( 'NONE', #340, #442, #1079, .T. ) ;
#861 = CARTESIAN_POINT ( 'NONE',  ( -4.199999999999999289, 0.3000000000000001554, -2.099999999999999645 ) ) ;
#862 = DIRECTION ( 'NONE',  ( 0.0000000000000000000, -0.0000000000000000000, -1.000000000000000000 ) ) ;
#863 = ORIENTED_EDGE ( 'NONE', *, *, #280, .T. ) ;
#864 = ORIENTED_EDGE ( 'NONE', *, *, #1145, .F. ) ;
#865 = CARTESIAN_POINT ( 'NONE',  ( 3.673940397442060361E-16, 1.899999999999999689, -3.000000000000000444 ) ) ;
#866 = CARTESIAN_POINT ( 'NONE',  ( -3.899999999999999023, 0.0000000000000000000, 0.0000000000000000000 ) ) ;
#867 = ORIENTED_EDGE ( 'NONE', *, *, #961, .F. ) ;
#868 = DIRECTION ( 'NONE',  ( 0.0000000000000000000, 0.0000000000000000000, 1.000000000000000000 ) ) ;
#869 = FACE_OUTER_BOUND ( 'NONE', #796, .T. ) ;
#870 = VERTEX_POINT ( 'NONE', #65 ) ;
#871 = DIRECTION ( 'NONE',  ( 0.0000000000000000000, -1.000000000000000000, 0.0000000000000000000 ) ) ;
#872 = ORIENTED_EDGE ( 'NONE', *, *, #374, .T. ) ;
#873 = VECTOR ( 'NONE', #352, 1000.000000000000000 ) ;
#874 = LINE ( 'NONE', #823, #1056 ) ;
#875 = CARTESIAN_POINT ( 'NONE',  ( 4.200000000000000178, 0.3000000000000000999, 2.100000000000000089 ) ) ;
#876 = DIRECTION ( 'NONE',  ( -0.0000000000000000000, -0.0000000000000000000, 1.000000000000000000 ) ) ;
#877 = ADVANCED_FACE ( 'NONE', ( #259 ), #240, .F. ) ;
#878 = CC_DESIGN_PERSON_AND_ORGANIZATION_ASSIGNMENT ( #732, #1046, ( #230 ) ) ;
#879 = VERTEX_POINT ( 'NONE', #1174 ) ;
#880 = ORIENTED_EDGE ( 'NONE', *, *, #813, .T. ) ;
#881 = VERTEX_POINT ( 'NONE', #166 ) ;
#882 = MECHANICAL_CONTEXT ( 'NONE', #300, 'mechanical' ) ;
#883 = EDGE_CURVE ( 'NONE', #305, #881, #837, .T. ) ;
#884 = VERTEX_POINT ( 'NONE', #714 ) ;
#885 = EDGE_CURVE ( 'NONE', #644, #1157, #468, .T. ) ;
#886 = CARTESIAN_POINT ( 'NONE',  ( 3.900000000000000799, 0.0000000000000000000, -3.899999999999999911 ) ) ;
#887 = CARTESIAN_POINT ( 'NONE',  ( 3.900000000000000799, 0.3000000000000000999, 2.100000000000000089 ) ) ;
#888 = VERTEX_POINT ( 'NONE', #526 ) ;
#889 = APPROVAL_DATE_TIME ( #1125, #1176 ) ;
#890 = CLOSED_SHELL ( 'NONE', ( #938, #344, #746, #63, #47, #685, #810, #596, #1021, #1093, #712, #724, #815, #988, #1087, #299, #239, #1050, #1202, #590, #1115, #91, #1029, #1124, #185, #154, #195, #286, #877, #1186, #842, #944, #763, #562, #1059, #653 ) ) ;
#891 = CIRCLE ( 'NONE', #256, 3.000000000000000444 ) ;
#892 = CARTESIAN_POINT ( 'NONE',  ( 3.900000000000000799, 0.3000000000000000999, 2.100000000000000089 ) ) ;
#893 = PLANE ( 'NONE',  #895 ) ;
#894 = PRODUCT_DEFINITION_FORMATION_WITH_SPECIFIED_SOURCE ( 'ANY', '', #1001, .NOT_KNOWN. ) ;
#895 = AXIS2_PLACEMENT_3D ( 'NONE', #419, #615, #141 ) ;
#896 = ORIENTED_EDGE ( 'NONE', *, *, #76, .F. ) ;
#897 = PLANE ( 'NONE',  #1108 ) ;
#898 = ORIENTED_EDGE ( 'NONE', *, *, #974, .F. ) ;
#899 = DIRECTION ( 'NONE',  ( 0.0000000000000000000, 1.000000000000000000, 0.0000000000000000000 ) ) ;
#900 = LINE ( 'NONE', #734, #537 ) ;
#901 = LINE ( 'NONE', #1109, #203 ) ;
#902 = EDGE_CURVE ( 'NONE', #1165, #1178, #36, .T. ) ;
#903 = DIRECTION ( 'NONE',  ( 0.0000000000000000000, -1.000000000000000000, 0.0000000000000000000 ) ) ;
#904 = ORIENTED_EDGE ( 'NONE', *, *, #961, .T. ) ;
#905 = AXIS2_PLACEMENT_3D ( 'NONE', #708, #903, #54 ) ;
#906 = DIRECTION ( 'NONE',  ( 1.000000000000000000, 0.0000000000000000000, 0.0000000000000000000 ) ) ;
#907 = DIRECTION ( 'NONE',  ( -2.754039817842239723E-16, -1.000000000000000000, -0.0000000000000000000 ) ) ;
#908 = ORIENTED_EDGE ( 'NONE', *, *, #470, .F. ) ;
#909 = APPROVAL_PERSON_ORGANIZATION ( #188, #1176, #113 ) ;
#910 = ORIENTED_EDGE ( 'NONE', *, *, #1185, .T. ) ;
#911 = AXIS2_PLACEMENT_3D ( 'NONE', #1121, #673, #1132 ) ;
#912 = CIRCLE ( 'NONE', #651, 3.000000000000000444 ) ;
#913 = CARTESIAN_POINT ( 'NONE',  ( -4.199999999999999289, 0.2999999999999999889, -2.899999999999999911 ) ) ;
#914 = EDGE_CURVE ( 'NONE', #1062, #403, #1003, .T. ) ;
#915 = DIRECTION ( 'NONE',  ( 1.000000000000000000, -0.0000000000000000000, -0.0000000000000000000 ) ) ;
#916 = VECTOR ( 'NONE', #251, 1000.000000000000000 ) ;
#917 = EDGE_LOOP ( 'NONE', ( #930, #928, #288, #189 ) ) ;
#918 = EDGE_CURVE ( 'NONE', #329, #394, #912, .T. ) ;
#919 = CARTESIAN_POINT ( 'NONE',  ( -4.199999999999999289, -4.000000000000000000, 2.100000000000000089 ) ) ;
#920 = DIRECTION ( 'NONE',  ( 1.000000000000000000, -4.956352788505165240E-16, 0.0000000000000000000 ) ) ;
#921 = EDGE_LOOP ( 'NONE', ( #852, #619, #867, #668, #1142 ) ) ;
#922 = CARTESIAN_POINT ( 'NONE',  ( -3.899999999999999023, 2.899999999999999911, 3.899999999999999911 ) ) ;
#923 = EDGE_LOOP ( 'NONE', ( #1089, #156, #1027, #1063 ) ) ;
#924 = FACE_OUTER_BOUND ( 'NONE', #279, .T. ) ;
#925 = VECTOR ( 'NONE', #1188, 1000.000000000000000 ) ;
#926 = DIRECTION ( 'NONE',  ( -1.000000000000000000, 0.0000000000000000000, 0.0000000000000000000 ) ) ;
#927 = AXIS2_PLACEMENT_3D ( 'NONE', #211, #1154, #1057 ) ;
#928 = ORIENTED_EDGE ( 'NONE', *, *, #204, .T. ) ;
#929 = DIRECTION ( 'NONE',  ( 0.0000000000000000000, -1.000000000000000000, 1.008560160451632221E-16 ) ) ;
#930 = ORIENTED_EDGE ( 'NONE', *, *, #918, .F. ) ;
#931 = ORIENTED_EDGE ( 'NONE', *, *, #74, .T. ) ;
#932 = EDGE_CURVE ( 'NONE', #613, #565, #822, .T. ) ;
#933 = CIRCLE ( 'NONE', #1058, 1.750000000000000000 ) ;
#934 = DIRECTION ( 'NONE',  ( -0.0000000000000000000, -1.000000000000000000, -0.0000000000000000000 ) ) ;
#935 = VECTOR ( 'NONE', #357, 1000.000000000000000 ) ;
#936 = CARTESIAN_POINT ( 'NONE',  ( 0.0000000000000000000, 5.500000000000000000, -1.750000000000000000 ) ) ;
#937 = UNCERTAINTY_MEASURE_WITH_UNIT (LENGTH_MEASURE( 1.000000000000000082E-05 ), #400, 'distance_accuracy_value', 'NONE');
#938 = ADVANCED_FACE ( 'NONE', ( #719 ), #1167, .T. ) ;
#939 = PLANE ( 'NONE',  #737 ) ;
#940 = ORIENTED_EDGE ( 'NONE', *, *, #1120, .F. ) ;
#941 = DIRECTION ( 'NONE',  ( 0.0000000000000000000, -1.000000000000000000, 0.0000000000000000000 ) ) ;
#942 = CC_DESIGN_PERSON_AND_ORGANIZATION_ASSIGNMENT ( #634, #1147, ( #894 ) ) ;
#943 = DIRECTION ( 'NONE',  ( 0.0000000000000000000, 0.0000000000000000000, -1.000000000000000000 ) ) ;
#944 = ADVANCED_FACE ( 'NONE', ( #924 ), #237, .F. ) ;
#945 = DESIGN_CONTEXT ( 'detailed design', #295, 'design' ) ;
#946 = AXIS2_PLACEMENT_3D ( 'NONE', #581, #570, #387 ) ;
#947 = DIRECTION ( 'NONE',  ( 0.0000000000000000000, 1.000000000000000000, 0.0000000000000000000 ) ) ;
#948 = FACE_OUTER_BOUND ( 'NONE', #222, .T. ) ;
#949 = EDGE_LOOP ( 'NONE', ( #970, #845, #794, #754 ) ) ;
#950 = DIRECTION ( 'NONE',  ( -1.000000000000000000, -0.0000000000000000000, -0.0000000000000000000 ) ) ;
#951 = LINE ( 'NONE', #782, #350 ) ;
#952 = LINE ( 'NONE', #1042, #524 ) ;
#953 = CARTESIAN_POINT ( 'NONE',  ( -3.899999999999999023, -4.000000000000000000, 2.100000000000000089 ) ) ;
#954 =( NAMED_UNIT ( * ) SI_UNIT ( $, .STERADIAN. ) SOLID_ANGLE_UNIT ( ) );
#955 = VERTEX_POINT ( 'NONE', #1187 ) ;
#956 = DIRECTION ( 'NONE',  ( 0.0000000000000000000, 0.0000000000000000000, 1.000000000000000000 ) ) ;
#957 = ORIENTED_EDGE ( 'NONE', *, *, #1145, .T. ) ;
#958 = EDGE_LOOP ( 'NONE', ( #1116, #1091, #144, #455, #495, #193, #541, #753, #498, #908, #691, #684 ) ) ;
#959 = ORIENTED_EDGE ( 'NONE', *, *, #582, .T. ) ;
#960 = CARTESIAN_POINT ( 'NONE',  ( -1.749999999999998668, 4.308194849477210653, 2.143131898507867558E-16 ) ) ;
#961 = EDGE_CURVE ( 'NONE', #1157, #738, #165, .T. ) ;
#962 = DIRECTION ( 'NONE',  ( 0.0000000000000000000, -0.0000000000000000000, 1.000000000000000000 ) ) ;
#963 = ORIENTED_EDGE ( 'NONE', *, *, #883, .T. ) ;
#964 = ORIENTED_EDGE ( 'NONE', *, *, #310, .T. ) ;
#965 = DIRECTION ( 'NONE',  ( 0.0000000000000000000, -0.0000000000000000000, -1.000000000000000000 ) ) ;
#966 = AXIS2_PLACEMENT_3D ( 'NONE', #282, #285, #385 ) ;
#967 = AXIS2_PLACEMENT_3D ( 'NONE', #413, #612, #962 ) ;
#968 = VERTEX_POINT ( 'NONE', #922 ) ;
#969 = ORIENTED_EDGE ( 'NONE', *, *, #932, .T. ) ;
#970 = ORIENTED_EDGE ( 'NONE', *, *, #770, .T. ) ;
#971 = DIRECTION ( 'NONE',  ( -1.000000000000000000, -0.0000000000000000000, -0.0000000000000000000 ) ) ;
#972 = CARTESIAN_POINT ( 'NONE',  ( 3.900000000000000799, 0.3000000000000000444, -2.899999999999999467 ) ) ;
#973 = EDGE_CURVE ( 'NONE', #577, #66, #321, .T. ) ;
#974 = EDGE_CURVE ( 'NONE', #775, #884, #231, .T. ) ;
#975 = CARTESIAN_POINT ( 'NONE',  ( 2.143131898507868297E-16, 5.500000000000000000, 1.750000000000000000 ) ) ;
#976 = ORIENTED_EDGE ( 'NONE', *, *, #914, .T. ) ;
#977 = CYLINDRICAL_SURFACE ( 'NONE', #70, 1.750000000000000000 ) ;
#978 = VECTOR ( 'NONE', #987, 1000.000000000000000 ) ;
#979 = DIRECTION ( 'NONE',  ( 0.0000000000000000000, 0.0000000000000000000, 1.000000000000000000 ) ) ;
#980 = ORIENTED_EDGE ( 'NONE', *, *, #125, .F. ) ;
#981 = ORIENTED_EDGE ( 'NONE', *, *, #1168, .T. ) ;
#982 = PRODUCT_DEFINITION_SHAPE ( 'NONE', 'NONE',  #230 ) ;
#983 = ORIENTED_EDGE ( 'NONE', *, *, #204, .F. ) ;
#984 = CARTESIAN_POINT ( 'NONE',  ( -4.199999999999999289, 0.2999999999999998224, 2.099999999999999645 ) ) ;
#985 = CARTESIAN_POINT ( 'NONE',  ( -4.199999999999999289, -4.000000000000000000, 2.900000000000002132 ) ) ;
#986 = CARTESIAN_POINT ( 'NONE',  ( 0.0000000000000000000, 1.899999999999999689, 0.0000000000000000000 ) ) ;
#987 = DIRECTION ( 'NONE',  ( 0.4539488471837122008, -0.8910277459992919091, 0.0000000000000000000 ) ) ;
#988 = ADVANCED_FACE ( 'NONE', ( #1127 ), #736, .F. ) ;
#989 = VECTOR ( 'NONE', #277, 1000.000000000000000 ) ;
#990 = CARTESIAN_POINT ( 'NONE',  ( 4.200000000000000178, -4.000000000000000000, -2.899999999999999467 ) ) ;
#991 = DATE_AND_TIME ( #523, #777 ) ;
#992 = ORIENTED_EDGE ( 'NONE', *, *, #996, .T. ) ;
#993 = LINE ( 'NONE', #431, #1170 ) ;
#994 = EDGE_CURVE ( 'NONE', #1008, #255, #146, .T. ) ;
#995 = DIRECTION ( 'NONE',  ( -0.0000000000000000000, 1.000000000000000000, 0.0000000000000000000 ) ) ;
#996 = EDGE_CURVE ( 'NONE', #681, #145, #6, .T. ) ;
#997 = ORIENTED_EDGE ( 'NONE', *, *, #398, .T. ) ;
#998 = DIRECTION ( 'NONE',  ( -1.000000000000000000, -0.0000000000000000000, -0.0000000000000000000 ) ) ;
#999 = VERTEX_POINT ( 'NONE', #450 ) ;
#1000 = CARTESIAN_POINT ( 'NONE',  ( 4.200000000000000178, 0.0000000000000000000, 0.0000000000000000000 ) ) ;
#1001 = PRODUCT ( 'Button', 'Button', '', ( #882 ) ) ;
#1002 = CC_DESIGN_SECURITY_CLASSIFICATION ( #601, ( #894 ) ) ;
#1003 = LINE ( 'NONE', #990, #73 ) ;
#1004 = DIRECTION ( 'NONE',  ( -0.0000000000000000000, 0.0000000000000000000, 1.000000000000000000 ) ) ;
#1005 = VECTOR ( 'NONE', #780, 1000.000000000000000 ) ;
#1006 = ORIENTED_EDGE ( 'NONE', *, *, #608, .T. ) ;
#1007 = CARTESIAN_POINT ( 'NONE',  ( 0.0000000000000000000, 1.899999999999999689, 0.0000000000000000000 ) ) ;
#1008 = VERTEX_POINT ( 'NONE', #843 ) ;
#1009 = DIRECTION ( 'NONE',  ( 0.0000000000000000000, 0.0000000000000000000, -1.000000000000000000 ) ) ;
#1010 = CIRCLE ( 'NONE', #1122, 1.750000000000000000 ) ;
#1011 = PLANE ( 'NONE',  #294 ) ;
#1012 = EDGE_CURVE ( 'NONE', #410, #809, #733, .T. ) ;
#1013 = FACE_OUTER_BOUND ( 'NONE', #395, .T. ) ;
#1014 = PLANE ( 'NONE',  #751 ) ;
#1015 = LINE ( 'NONE', #689, #86 ) ;
#1016 = COORDINATED_UNIVERSAL_TIME_OFFSET ( 6, 0, .BEHIND. ) ;
#1017 = ORIENTED_EDGE ( 'NONE', *, *, #327, .F. ) ;
#1018 = FACE_OUTER_BOUND ( 'NONE', #42, .T. ) ;
#1019 = DIRECTION ( 'NONE',  ( -0.0000000000000000000, 1.000000000000000000, -3.025680481354896416E-16 ) ) ;
#1020 = AXIS2_PLACEMENT_3D ( 'NONE', #624, #148, #423 ) ;
#1021 = ADVANCED_FACE ( 'NONE', ( #1194 ), #421, .F. ) ;
#1022 = DIRECTION ( 'NONE',  ( 0.0000000000000000000, 0.0000000000000000000, 1.000000000000000000 ) ) ;
#1023 = DIRECTION ( 'NONE',  ( 0.0000000000000000000, -1.000000000000000000, 0.0000000000000000000 ) ) ;
#1024 = DIRECTION ( 'NONE',  ( 1.224646799147353207E-16, -3.372726047644858511E-32, 1.000000000000000000 ) ) ;
#1025 = EDGE_LOOP ( 'NONE', ( #552, #324 ) ) ;
#1026 = VERTEX_POINT ( 'NONE', #542 ) ;
#1027 = ORIENTED_EDGE ( 'NONE', *, *, #346, .F. ) ;
#1028 = AXIS2_PLACEMENT_3D ( 'NONE', #866, #859, #764 ) ;
#1029 = ADVANCED_FACE ( 'NONE', ( #201 ), #1011, .T. ) ;
#1030 = AXIS2_PLACEMENT_3D ( 'NONE', #1075, #907, #417 ) ;
#1031 = CARTESIAN_POINT ( 'NONE',  ( -3.899999999999999023, 0.3000000000000000999, 2.899999999999999911 ) ) ;
#1032 = ORIENTED_EDGE ( 'NONE', *, *, #973, .F. ) ;
#1033 = CARTESIAN_POINT ( 'NONE',  ( 3.900000000000000799, 0.0000000000000000000, 0.0000000000000000000 ) ) ;
#1034 = ORIENTED_EDGE ( 'NONE', *, *, #415, .F. ) ;
#1035 = EDGE_CURVE ( 'NONE', #577, #565, #900, .T. ) ;
#1036 = PERSON_AND_ORGANIZATION ( #176, #700 ) ;
#1037 = EDGE_CURVE ( 'NONE', #565, #759, #636, .T. ) ;
#1038 = CIRCLE ( 'NONE', #639, 1.750000000000000000 ) ;
#1039 = DIRECTION ( 'NONE',  ( -1.000000000000000000, -0.0000000000000000000, -0.0000000000000000000 ) ) ;
#1040 = CARTESIAN_POINT ( 'NONE',  ( -3.899999999999999023, 0.3000000000000001554, -2.099999999999999645 ) ) ;
#1041 = SECURITY_CLASSIFICATION_LEVEL ( 'unclassified' ) ;
#1042 = CARTESIAN_POINT ( 'NONE',  ( -4.199999999999999289, 0.2999999999999998224, 2.099999999999999645 ) ) ;
#1043 = DIRECTION ( 'NONE',  ( 0.0000000000000000000, 1.000000000000000000, 0.0000000000000000000 ) ) ;
#1044 = DIRECTION ( 'NONE',  ( 0.0000000000000000000, -1.000000000000000000, 1.008560160451632098E-16 ) ) ;
#1045 = ORIENTED_EDGE ( 'NONE', *, *, #97, .T. ) ;
#1046 = PERSON_AND_ORGANIZATION_ROLE ( 'creator' ) ;
#1047 = EDGE_LOOP ( 'NONE', ( #555, #1193, #152, #1032, #1148, #672, #503, #404, #44, #797, #1034, #108 ) ) ;
#1048 = DIRECTION ( 'NONE',  ( 0.0000000000000000000, 0.0000000000000000000, -1.000000000000000000 ) ) ;
#1049 = CARTESIAN_POINT ( 'NONE',  ( 0.0000000000000000000, 0.0000000000000000000, 0.0000000000000000000 ) ) ;
#1050 = ADVANCED_FACE ( 'NONE', ( #645 ), #1200, .T. ) ;
#1051 = VECTOR ( 'NONE', #1039, 1000.000000000000000 ) ;
#1052 = ORIENTED_EDGE ( 'NONE', *, *, #994, .T. ) ;
#1053 = ORIENTED_EDGE ( 'NONE', *, *, #138, .F. ) ;
#1054 = LINE ( 'NONE', #43, #217 ) ;
#1055 = CARTESIAN_POINT ( 'NONE',  ( 0.0000000000000000000, 1.899999999999999911, 0.0000000000000000000 ) ) ;
#1056 = VECTOR ( 'NONE', #1180, 1000.000000000000000 ) ;
#1057 = DIRECTION ( 'NONE',  ( 1.000000000000000000, -4.956352788505165240E-16, 0.0000000000000000000 ) ) ;
#1058 = AXIS2_PLACEMENT_3D ( 'NONE', #389, #758, #112 ) ;
#1059 = ADVANCED_FACE ( 'NONE', ( #1138 ), #730, .T. ) ;
#1060 = DIRECTION ( 'NONE',  ( -0.0000000000000000000, -2.032879073410320074E-16, -1.000000000000000000 ) ) ;
#1061 = EDGE_CURVE ( 'NONE', #781, #336, #857, .T. ) ;
#1062 = VERTEX_POINT ( 'NONE', #539 ) ;
#1063 = ORIENTED_EDGE ( 'NONE', *, *, #1037, .F. ) ;
#1064 = ORIENTED_EDGE ( 'NONE', *, *, #531, .F. ) ;
#1065 = LINE ( 'NONE', #1220, #34 ) ;
#1066 = LINE ( 'NONE', #560, #496 ) ;
#1067 = EDGE_LOOP ( 'NONE', ( #821, #603, #1078, #586 ) ) ;
#1068 = DIRECTION ( 'NONE',  ( -0.0000000000000000000, 1.000000000000000000, -0.0000000000000000000 ) ) ;
#1069 = LINE ( 'NONE', #1184, #363 ) ;
#1070 = CARTESIAN_POINT ( 'NONE',  ( 0.0000000000000000000, 2.899999999999999911, 0.0000000000000000000 ) ) ;
#1071 = ORIENTED_EDGE ( 'NONE', *, *, #243, .F. ) ;
#1072 = DIRECTION ( 'NONE',  ( -0.0000000000000000000, -0.0000000000000000000, 1.000000000000000000 ) ) ;
#1073 = ORIENTED_EDGE ( 'NONE', *, *, #1168, .F. ) ;
#1074 = CARTESIAN_POINT ( 'NONE',  ( -4.199999999999999289, -4.000000000000000000, 2.100000000000000089 ) ) ;
#1075 = CARTESIAN_POINT ( 'NONE',  ( 4.049457457328088638E-31, 1.900000000000001465, 0.0000000000000000000 ) ) ;
#1076 = COORDINATED_UNIVERSAL_TIME_OFFSET ( 6, 0, .BEHIND. ) ;
#1077 = ORIENTED_EDGE ( 'NONE', *, *, #710, .T. ) ;
#1078 = ORIENTED_EDGE ( 'NONE', *, *, #885, .T. ) ;
#1079 = LINE ( 'NONE', #432, #135 ) ;
#1080 = LINE ( 'NONE', #348, #290 ) ;
#1081 = EDGE_CURVE ( 'NONE', #84, #340, #289, .T. ) ;
#1082 = EDGE_CURVE ( 'NONE', #1008, #85, #287, .T. ) ;
#1083 = PLANE ( 'NONE',  #844 ) ;
#1084 = DIRECTION ( 'NONE',  ( -2.754039817842239723E-16, -1.000000000000000000, -0.0000000000000000000 ) ) ;
#1085 = ORIENTED_EDGE ( 'NONE', *, *, #534, .F. ) ;
#1086 = DIRECTION ( 'NONE',  ( 1.000000000000000000, 0.0000000000000000000, 0.0000000000000000000 ) ) ;
#1087 = ADVANCED_FACE ( 'NONE', ( #1097 ), #670, .F. ) ;
#1088 = DIRECTION ( 'NONE',  ( 0.0000000000000000000, -0.0000000000000000000, 1.000000000000000000 ) ) ;
#1089 = ORIENTED_EDGE ( 'NONE', *, *, #1035, .F. ) ;
#1090 = AXIS2_PLACEMENT_3D ( 'NONE', #1136, #767, #1044 ) ;
#1091 = ORIENTED_EDGE ( 'NONE', *, *, #1183, .F. ) ;
#1092 = LINE ( 'NONE', #573, #853 ) ;
#1093 = ADVANCED_FACE ( 'NONE', ( #4, #589 ), #2, .T. ) ;
#1094 = AXIS2_PLACEMENT_3D ( 'NONE', #1117, #90, #418 ) ;
#1095 = DIRECTION ( 'NONE',  ( -0.0000000000000000000, 1.000000000000000000, -5.042800802258160365E-16 ) ) ;
#1096 = ORIENTED_EDGE ( 'NONE', *, *, #770, .F. ) ;
#1097 = FACE_OUTER_BOUND ( 'NONE', #728, .T. ) ;
#1098 = EDGE_CURVE ( 'NONE', #379, #955, #245, .T. ) ;
#1099 = EDGE_CURVE ( 'NONE', #248, #870, #933, .T. ) ;
#1100 = DIRECTION ( 'NONE',  ( 0.0000000000000000000, 0.0000000000000000000, -1.000000000000000000 ) ) ;
#1101 = CARTESIAN_POINT ( 'NONE',  ( -4.199999999999999289, -4.000000000000000000, -2.099999999999998312 ) ) ;
#1102 = CARTESIAN_POINT ( 'NONE',  ( -4.199999999999999289, 0.3000000000000000999, 2.899999999999999911 ) ) ;
#1103 = CIRCLE ( 'NONE', #543, 1.750000000000000000 ) ;
#1104 = ORIENTED_EDGE ( 'NONE', *, *, #142, .F. ) ;
#1105 = ORIENTED_EDGE ( 'NONE', *, *, #58, .T. ) ;
#1106 = FACE_OUTER_BOUND ( 'NONE', #71, .T. ) ;
#1107 = CONICAL_SURFACE ( 'NONE', #150, 1.749999999999999334, 0.4711921508389076974 ) ;
#1108 = AXIS2_PLACEMENT_3D ( 'NONE', #219, #318, #704 ) ;
#1109 = CARTESIAN_POINT ( 'NONE',  ( -3.899999999999999023, 0.2999999999999999889, -2.899999999999999911 ) ) ;
#1110 = CARTESIAN_POINT ( 'NONE',  ( 3.900000000000000799, 2.899999999999999911, 3.899999999999999911 ) ) ;
#1111 = ORIENTED_EDGE ( 'NONE', *, *, #518, .T. ) ;
#1112 = CARTESIAN_POINT ( 'NONE',  ( -3.899999999999999023, 0.3000000000000000999, 2.899999999999999911 ) ) ;
#1113 = ORIENTED_EDGE ( 'NONE', *, *, #1144, .F. ) ;
#1114 = CC_DESIGN_DATE_AND_TIME_ASSIGNMENT ( #991, #313, ( #230 ) ) ;
#1115 = ADVANCED_FACE ( 'NONE', ( #747 ), #471, .F. ) ;
#1116 = ORIENTED_EDGE ( 'NONE', *, *, #257, .F. ) ;
#1117 = CARTESIAN_POINT ( 'NONE',  ( 0.0000000000000000000, 1.899999999999999911, 0.0000000000000000000 ) ) ;
#1118 = ORIENTED_EDGE ( 'NONE', *, *, #629, .F. ) ;
#1119 = DIRECTION ( 'NONE',  ( 0.0000000000000000000, 0.0000000000000000000, -1.000000000000000000 ) ) ;
#1120 = EDGE_CURVE ( 'NONE', #660, #530, #1206, .T. ) ;
#1121 = CARTESIAN_POINT ( 'NONE',  ( -4.199999999999999289, 0.3000000000000001554, -2.099999999999999645 ) ) ;
#1122 = AXIS2_PLACEMENT_3D ( 'NONE', #1007, #1043, #956 ) ;
#1123 = LINE ( 'NONE', #194, #535 ) ;
#1124 = ADVANCED_FACE ( 'NONE', ( #820 ), #659, .F. ) ;
#1125 = DATE_AND_TIME ( #162, #409 ) ;
#1126 = ORIENTED_EDGE ( 'NONE', *, *, #323, .T. ) ;
#1127 = FACE_OUTER_BOUND ( 'NONE', #235, .T. ) ;
#1128 = CARTESIAN_POINT ( 'NONE',  ( 3.900000000000000799, 0.3000000000000000444, -2.099999999999999201 ) ) ;
#1129 = CARTESIAN_POINT ( 'NONE',  ( -3.899999999999999023, 2.899999999999999911, -3.899999999999999911 ) ) ;
#1130 = ORIENTED_EDGE ( 'NONE', *, *, #243, .T. ) ;
#1131 = APPROVAL_STATUS ( 'not_yet_approved' ) ;
#1132 = DIRECTION ( 'NONE',  ( 0.0000000000000000000, 1.000000000000000000, -3.025680481354896909E-16 ) ) ;
#1133 = APPROVAL_STATUS ( 'not_yet_approved' ) ;
#1134 = CARTESIAN_POINT ( 'NONE',  ( 3.900000000000000799, 0.3000000000000000999, 2.899999999999999911 ) ) ;
#1135 = APPROVAL_PERSON_ORGANIZATION ( #447, #157, #486 ) ;
#1136 = CARTESIAN_POINT ( 'NONE',  ( -4.199999999999999289, 0.2999999999999999889, -2.899999999999999911 ) ) ;
#1137 = EDGE_LOOP ( 'NONE', ( #210, #610, #182, #959 ) ) ;
#1138 = FACE_OUTER_BOUND ( 'NONE', #53, .T. ) ;
#1139 = VECTOR ( 'NONE', #697, 1000.000000000000000 ) ;
#1140 = DIRECTION ( 'NONE',  ( -0.0000000000000000000, -0.0000000000000000000, 1.000000000000000000 ) ) ;
#1141 = CARTESIAN_POINT ( 'NONE',  ( 4.200000000000000178, 0.3000000000000000444, -2.099999999999999201 ) ) ;
#1142 = ORIENTED_EDGE ( 'NONE', *, *, #242, .T. ) ;
#1143 = PLANE ( 'NONE',  #572 ) ;
#1144 = EDGE_CURVE ( 'NONE', #599, #145, #756, .T. ) ;
#1145 = EDGE_CURVE ( 'NONE', #164, #563, #568, .T. ) ;
#1146 = ORIENTED_EDGE ( 'NONE', *, *, #1183, .T. ) ;
#1147 = PERSON_AND_ORGANIZATION_ROLE ( 'creator' ) ;
#1148 = ORIENTED_EDGE ( 'NONE', *, *, #181, .F. ) ;
#1149 = PLANE ( 'NONE',  #1172 ) ;
#1150 = VERTEX_POINT ( 'NONE', #291 ) ;
#1151 = CIRCLE ( 'NONE', #169, 2.976894763515928410 ) ;
#1152 = EDGE_LOOP ( 'NONE', ( #818, #1006, #544, #140, #266 ) ) ;
#1153 = VECTOR ( 'NONE', #819, 1000.000000000000000 ) ;
#1154 = DIRECTION ( 'NONE',  ( -2.754039817842239723E-16, -1.000000000000000000, -0.0000000000000000000 ) ) ;
#1155 = DIRECTION ( 'NONE',  ( -0.0000000000000000000, -0.0000000000000000000, 1.000000000000000000 ) ) ;
#1156 = LINE ( 'NONE', #184, #427 ) ;
#1157 = VERTEX_POINT ( 'NONE', #575 ) ;
#1158 = DIRECTION ( 'NONE',  ( 0.0000000000000000000, 0.0000000000000000000, 1.000000000000000000 ) ) ;
#1159 = EDGE_CURVE ( 'NONE', #336, #442, #1066, .T. ) ;
#1160 = ORIENTED_EDGE ( 'NONE', *, *, #860, .T. ) ;
#1161 = CARTESIAN_POINT ( 'NONE',  ( -4.199999999999999289, -4.000000000000000000, 2.900000000000002132 ) ) ;
#1162 = CARTESIAN_POINT ( 'NONE',  ( 4.200000000000000178, -4.000000000000000000, 2.100000000000000089 ) ) ;
#1163 = DIRECTION ( 'NONE',  ( 0.0000000000000000000, -1.000000000000000000, 1.008560160451632221E-16 ) ) ;
#1164 = LINE ( 'NONE', #769, #657 ) ;
#1165 = VERTEX_POINT ( 'NONE', #8 ) ;
#1166 = DIRECTION ( 'NONE',  ( 0.0000000000000000000, 0.0000000000000000000, 1.000000000000000000 ) ) ;
#1167 = CYLINDRICAL_SURFACE ( 'NONE', #1020, 1.750000000000000000 ) ;
#1168 = EDGE_CURVE ( 'NONE', #809, #1165, #1151, .T. ) ;
#1169 = DIRECTION ( 'NONE',  ( -1.000000000000000000, -0.0000000000000000000, -0.0000000000000000000 ) ) ;
#1170 = VECTOR ( 'NONE', #247, 1000.000000000000000 ) ;
#1171 = CARTESIAN_POINT ( 'NONE',  ( 4.200000000000000178, 0.3000000000000000444, -2.899999999999999467 ) ) ;
#1172 = AXIS2_PLACEMENT_3D ( 'NONE', #38, #793, #965 ) ;
#1173 = ORIENTED_EDGE ( 'NONE', *, *, #10, .T. ) ;
#1174 = CARTESIAN_POINT ( 'NONE',  ( -3.899999999999999023, 0.3000000000000000444, -2.099999999999999201 ) ) ;
#1175 = ORIENTED_EDGE ( 'NONE', *, *, #1098, .T. ) ;
#1176 = APPROVAL ( #292, 'UNSPECIFIED' ) ;
#1177 = DIRECTION ( 'NONE',  ( 0.0000000000000000000, 0.0000000000000000000, 1.000000000000000000 ) ) ;
#1178 = VERTEX_POINT ( 'NONE', #1207 ) ;
#1179 = CALENDAR_DATE ( 2019, 19, 2 ) ;
#1180 = DIRECTION ( 'NONE',  ( 0.0000000000000000000, -1.000000000000000000, 1.008560160451632221E-16 ) ) ;
#1181 = ORIENTED_EDGE ( 'NONE', *, *, #97, .F. ) ;
#1182 = VECTOR ( 'NONE', #177, 1000.000000000000000 ) ;
#1183 = EDGE_CURVE ( 'NONE', #881, #436, #463, .T. ) ;
#1184 = CARTESIAN_POINT ( 'NONE',  ( 3.900000000000000799, 0.3000000000000000999, 2.899999999999999911 ) ) ;
#1185 = EDGE_CURVE ( 'NONE', #238, #888, #274, .T. ) ;
#1186 = ADVANCED_FACE ( 'NONE', ( #507 ), #481, .T. ) ;
#1187 = CARTESIAN_POINT ( 'NONE',  ( -3.899999999999999023, 0.2999999999999998224, 2.099999999999999645 ) ) ;
#1188 = DIRECTION ( 'NONE',  ( -1.000000000000000000, -0.0000000000000000000, -0.0000000000000000000 ) ) ;
#1189 = ORIENTED_EDGE ( 'NONE', *, *, #666, .F. ) ;
#1190 = DIRECTION ( 'NONE',  ( -2.754039817842239723E-16, -1.000000000000000000, -0.0000000000000000000 ) ) ;
#1191 = CARTESIAN_POINT ( 'NONE',  ( -3.899999999999999023, 0.2999999999999999889, -2.899999999999999911 ) ) ;
#1192 = VECTOR ( 'NONE', #941, 1000.000000000000000 ) ;
#1193 = ORIENTED_EDGE ( 'NONE', *, *, #414, .F. ) ;
#1194 = FACE_OUTER_BOUND ( 'NONE', #320, .T. ) ;
#1195 = VECTOR ( 'NONE', #158, 1000.000000000000000 ) ;
#1196 = DIRECTION ( 'NONE',  ( 0.0000000000000000000, 0.0000000000000000000, 1.000000000000000000 ) ) ;
#1197 = VERTEX_POINT ( 'NONE', #564 ) ;
#1199 = ORIENTED_EDGE ( 'NONE', *, *, #221, .T. ) ;
#1198 = CARTESIAN_POINT ( 'NONE',  ( 0.0000000000000000000, 1.899999999999999689, -1.750000000000000000 ) ) ;
#1200 = PLANE ( 'NONE',  #39 ) ;
#1201 = EDGE_CURVE ( 'NONE', #1062, #305, #1092, .T. ) ;
#1202 = ADVANCED_FACE ( 'NONE', ( #948 ), #476, .F. ) ;
#1203 = LINE ( 'NONE', #100, #1051 ) ;
#1204 = CARTESIAN_POINT ( 'NONE',  ( -4.199999999999999289, 0.2999999999999999889, -2.899999999999999911 ) ) ;
#1205 = ORIENTED_EDGE ( 'NONE', *, *, #932, .F. ) ;
#1206 = LINE ( 'NONE', #1129, #132 ) ;
#1207 = CARTESIAN_POINT ( 'NONE',  ( 2.976894763515928410, 1.900000000000000577, 0.0000000000000000000 ) ) ;
#1208 = VERTEX_POINT ( 'NONE', #1141 ) ;
#1209 = VECTOR ( 'NONE', #1060, 1000.000000000000000 ) ;
#1210 = CARTESIAN_POINT ( 'NONE',  ( 3.900000000000000799, 0.3000000000000000444, -2.099999999999999201 ) ) ;
#1211 = DIRECTION ( 'NONE',  ( 0.0000000000000000000, -0.0000000000000000000, 1.000000000000000000 ) ) ;
#1212 = VECTOR ( 'NONE', #1072, 1000.000000000000000 ) ;
#1213 = ORIENTED_EDGE ( 'NONE', *, *, #609, .F. ) ;
#1214 = VERTEX_POINT ( 'NONE', #11 ) ;
#1215 = CC_DESIGN_APPROVAL ( #23, ( #230 ) ) ;
#1216 = DIRECTION ( 'NONE',  ( 0.0000000000000000000, -2.032879073410320074E-16, -1.000000000000000000 ) ) ;
#1217 = ORIENTED_EDGE ( 'NONE', *, *, #628, .F. ) ;
#1218 = AXIS2_PLACEMENT_3D ( 'NONE', #827, #127, #124 ) ;
#1219 = DIRECTION ( 'NONE',  ( 0.0000000000000000000, 1.000000000000000000, 0.0000000000000000000 ) ) ;
#1220 = CARTESIAN_POINT ( 'NONE',  ( -3.899999999999999023, 0.0000000000000000000, 3.899999999999999911 ) ) ;
#1221 = EDGE_CURVE ( 'NONE', #1197, #22, #35, .T. ) ;
ENDSEC;
END-ISO-10303-21;
