(module 614004190021 (layer F.Cu) (tedit 5C4D15F7)
  (fp_text reference J2 (at 0 -5.555) (layer F.SilkS)
    (effects (font (size 1 1) (thickness 0.05)))
  )
  (fp_text value USB_A (at -1.495 11.915) (layer F.SilkS)
    (effects (font (size 1 1) (thickness 0.05)))
  )
  (fp_line (start 6.25 10) (end 6.25 1.71) (layer F.SilkS) (width 0.127))
  (fp_line (start 6.28 9.99) (end 6.25 10) (layer F.SilkS) (width 0.127))
  (fp_line (start 7.25 10) (end 6.25 10) (layer F.SilkS) (width 0.127))
  (fp_line (start 7.25 10.3) (end 7.25 10) (layer F.SilkS) (width 0.127))
  (fp_line (start -7.25 10.3) (end 7.25 10.3) (layer F.SilkS) (width 0.127))
  (fp_line (start -7.25 10) (end -7.25 10.3) (layer F.SilkS) (width 0.127))
  (fp_line (start -6.25 10) (end -7.25 10) (layer F.SilkS) (width 0.127))
  (fp_line (start -6.25 1.71) (end -6.25 10) (layer F.SilkS) (width 0.127))
  (fp_line (start -6.24 1.71) (end -6.25 1.71) (layer F.SilkS) (width 0.127))
  (fp_line (start 6.25 -3.85) (end 6.25 -1.68) (layer F.SilkS) (width 0.127))
  (fp_line (start -6.25 -3.85) (end 6.25 -3.85) (layer F.SilkS) (width 0.127))
  (fp_line (start -6.25 -1.66) (end -6.25 -3.85) (layer F.SilkS) (width 0.127))
  (fp_line (start -6.24 -1.66) (end -6.25 -1.66) (layer F.SilkS) (width 0.127))
  (fp_line (start -6.25 -3.85) (end 6.25 -3.85) (layer Dwgs.User) (width 0.127))
  (fp_line (start 6.25 10) (end 6.25 -3.85) (layer Dwgs.User) (width 0.127))
  (fp_line (start 7.25 10) (end 7.25 10.3) (layer Dwgs.User) (width 0.127))
  (fp_line (start 7.25 10) (end 6.25 10) (layer Dwgs.User) (width 0.127))
  (fp_line (start -7.25 10) (end -7.25 10.3) (layer Dwgs.User) (width 0.127))
  (fp_line (start -6.25 10) (end -7.25 10) (layer Dwgs.User) (width 0.127))
  (fp_line (start -6.25 10) (end -6.25 -3.85) (layer Dwgs.User) (width 0.127))
  (fp_line (start -7.25 10.3) (end 7.25 10.3) (layer Dwgs.User) (width 0.127))
  (pad 5 thru_hole circle (at 6.57 0) (size 3.316 3.316) (drill 2.3) (layers *.Cu *.Mask))
  (pad 5 thru_hole circle (at -6.57 0) (size 3.316 3.316) (drill 2.3) (layers *.Cu *.Mask))
  (pad 4 thru_hole circle (at 3.5 -2.71) (size 1.428 1.428) (drill 0.92) (layers *.Cu *.Mask))
  (pad 3 thru_hole circle (at 1 -2.71) (size 1.428 1.428) (drill 0.92) (layers *.Cu *.Mask))
  (pad 2 thru_hole circle (at -1 -2.71) (size 1.428 1.428) (drill 0.92) (layers *.Cu *.Mask))
  (pad 1 thru_hole circle (at -3.5 -2.71) (size 1.428 1.428) (drill 0.92) (layers *.Cu *.Mask))
  (model "${KIPRJMOD}/3D Models/614004190021.stp"
    (offset (xyz 0 1.23 3.5))
    (scale (xyz 1 1 1))
    (rotate (xyz 0 0 0))
  )
)
