(module HDMI_10029449-111RLF (layer F.Cu) (tedit 5C4D1339)
  (fp_text reference J5 (at 0 -5.08) (layer F.SilkS)
    (effects (font (size 1 1) (thickness 0.15)))
  )
  (fp_text value HDMI_A_1.4 (at 0 -3.81) (layer F.Fab)
    (effects (font (size 1 1) (thickness 0.15)))
  )
  (fp_line (start -10.16 7.5) (end 10.16 7.5) (layer F.SilkS) (width 0.15))
  (pad SH thru_hole circle (at 7.85 4.95) (size 2.6 2.6) (drill 1.3) (layers *.Cu *.Mask))
  (pad SH thru_hole circle (at -7.85 4.95) (size 2.6 2.6) (drill 1.3) (layers *.Cu *.Mask))
  (pad SH thru_hole circle (at -7.25 0) (size 2.6 2.6) (drill 1.3) (layers *.Cu *.Mask))
  (pad SH thru_hole circle (at 7.25 0) (size 2.6 2.6) (drill 1.3) (layers *.Cu *.Mask))
  (pad 1 smd rect (at 4.75 -0.95) (size 0.3 1.9) (layers F.Cu F.Paste F.Mask))
  (pad 2 smd rect (at 4.25 -0.95) (size 0.3 1.9) (layers F.Cu F.Paste F.Mask))
  (pad 3 smd rect (at 3.75 -0.95) (size 0.3 1.9) (layers F.Cu F.Paste F.Mask))
  (pad 4 smd rect (at 3.25 -0.95) (size 0.3 1.9) (layers F.Cu F.Paste F.Mask))
  (pad 5 smd rect (at 2.75 -0.95) (size 0.3 1.9) (layers F.Cu F.Paste F.Mask))
  (pad 6 smd rect (at 2.25 -0.95) (size 0.3 1.9) (layers F.Cu F.Paste F.Mask))
  (pad 7 smd rect (at 1.75 -0.95) (size 0.3 1.9) (layers F.Cu F.Paste F.Mask))
  (pad 8 smd rect (at 1.25 -0.95) (size 0.3 1.9) (layers F.Cu F.Paste F.Mask))
  (pad 9 smd rect (at 0.75 -0.95) (size 0.3 1.9) (layers F.Cu F.Paste F.Mask))
  (pad 10 smd rect (at 0.25 -0.95) (size 0.3 1.9) (layers F.Cu F.Paste F.Mask))
  (pad 11 smd rect (at -0.25 -0.95) (size 0.3 1.9) (layers F.Cu F.Paste F.Mask))
  (pad 12 smd rect (at -0.75 -0.95) (size 0.3 1.9) (layers F.Cu F.Paste F.Mask))
  (pad 13 smd rect (at -1.25 -0.95) (size 0.3 1.9) (layers F.Cu F.Paste F.Mask))
  (pad 14 smd rect (at -1.75 -0.95) (size 0.3 1.9) (layers F.Cu F.Paste F.Mask))
  (pad 15 smd rect (at -2.25 -0.95) (size 0.3 1.9) (layers F.Cu F.Paste F.Mask))
  (pad 16 smd rect (at -2.75 -0.95) (size 0.3 1.9) (layers F.Cu F.Paste F.Mask))
  (pad 17 smd rect (at -3.25 -0.95) (size 0.3 1.9) (layers F.Cu F.Paste F.Mask))
  (pad 18 smd rect (at -3.75 -0.95) (size 0.3 1.9) (layers F.Cu F.Paste F.Mask))
  (pad 19 smd rect (at -4.25 -0.95) (size 0.3 1.9) (layers F.Cu F.Paste F.Mask))
  (model "${KIPRJMOD}/3D Models/10029449-111RLF.stp"
    (offset (xyz 0 -1.7 3.47))
    (scale (xyz 1 1 1))
    (rotate (xyz 180 0 0))
  )
)
