(module L_WURTH_5020 (layer F.Cu) (tedit 5C51438A)
  (fp_text reference L4 (at 0 3.429) (layer F.SilkS)
    (effects (font (size 1 1) (thickness 0.15)))
  )
  (fp_text value 5.6uH (at 0 -3.556) (layer F.Fab)
    (effects (font (size 1 1) (thickness 0.15)))
  )
  (fp_line (start -2.54 -2.54) (end 2.413 -2.54) (layer F.SilkS) (width 0.15))
  (fp_line (start -2.54 2.54) (end 2.54 2.54) (layer F.SilkS) (width 0.15))
  (pad 1 smd rect (at -1.95 0) (size 1.6 4.5) (layers F.Cu F.Paste F.Mask))
  (pad 2 smd rect (at 1.95 0) (size 1.6 4.5) (layers F.Cu F.Paste F.Mask))
  (model "${KIPRJMOD}/3D Models/STEP-WE-LQS-5020-rev1.stp"
    (offset (xyz 0 0 1))
    (scale (xyz 1 1 1))
    (rotate (xyz 0 0 90))
  )
)
