(module Connector_USB:USB_Micro-B_Wuerth_629105150521 (layer F.Cu) (tedit 5C4D16C9)
  (descr "USB Micro-B receptacle, http://www.mouser.com/ds/2/445/629105150521-469306.pdf")
  (tags "usb micro receptacle")
  (attr smd)
  (fp_text reference J7 (at 0 -3.5) (layer F.SilkS)
    (effects (font (size 1 1) (thickness 0.15)))
  )
  (fp_text value USB_B_Micro (at 0 5.6) (layer F.Fab)
    (effects (font (size 1 1) (thickness 0.15)))
  )
  (fp_line (start -4 -2.25) (end -4 3.15) (layer F.Fab) (width 0.15))
  (fp_line (start -4 3.15) (end -3.7 3.15) (layer F.Fab) (width 0.15))
  (fp_line (start -3.7 3.15) (end -3.7 4.35) (layer F.Fab) (width 0.15))
  (fp_line (start -3.7 4.35) (end 3.7 4.35) (layer F.Fab) (width 0.15))
  (fp_line (start 3.7 4.35) (end 3.7 3.15) (layer F.Fab) (width 0.15))
  (fp_line (start 3.7 3.15) (end 4 3.15) (layer F.Fab) (width 0.15))
  (fp_line (start 4 3.15) (end 4 -2.25) (layer F.Fab) (width 0.15))
  (fp_line (start 4 -2.25) (end -4 -2.25) (layer F.Fab) (width 0.15))
  (fp_line (start -2.7 3.75) (end 2.7 3.75) (layer F.Fab) (width 0.15))
  (fp_line (start -1.075 -2.725) (end -1.3 -2.55) (layer F.Fab) (width 0.15))
  (fp_line (start -1.3 -2.55) (end -1.525 -2.725) (layer F.Fab) (width 0.15))
  (fp_line (start -1.525 -2.725) (end -1.525 -2.95) (layer F.Fab) (width 0.15))
  (fp_line (start -1.525 -2.95) (end -1.075 -2.95) (layer F.Fab) (width 0.15))
  (fp_line (start -1.075 -2.95) (end -1.075 -2.725) (layer F.Fab) (width 0.15))
  (fp_line (start -4.15 -0.65) (end -4.15 0.75) (layer F.SilkS) (width 0.15))
  (fp_line (start -4.15 3.15) (end -4.15 3.3) (layer F.SilkS) (width 0.15))
  (fp_line (start -4.15 3.3) (end -3.85 3.3) (layer F.SilkS) (width 0.15))
  (fp_line (start -3.85 3.3) (end -3.85 3.75) (layer F.SilkS) (width 0.15))
  (fp_line (start 3.85 3.75) (end 3.85 3.3) (layer F.SilkS) (width 0.15))
  (fp_line (start 3.85 3.3) (end 4.15 3.3) (layer F.SilkS) (width 0.15))
  (fp_line (start 4.15 3.3) (end 4.15 3.15) (layer F.SilkS) (width 0.15))
  (fp_line (start 4.15 0.75) (end 4.15 -0.65) (layer F.SilkS) (width 0.15))
  (fp_line (start -1.075 -2.825) (end -1.8 -2.825) (layer F.SilkS) (width 0.15))
  (fp_line (start -1.8 -2.825) (end -1.8 -2.4) (layer F.SilkS) (width 0.15))
  (fp_line (start -1.8 -2.4) (end -2.8 -2.4) (layer F.SilkS) (width 0.15))
  (fp_line (start 1.8 -2.4) (end 2.8 -2.4) (layer F.SilkS) (width 0.15))
  (fp_line (start -4.94 -3.34) (end -4.94 4.85) (layer F.CrtYd) (width 0.05))
  (fp_line (start -4.94 4.85) (end 4.95 4.85) (layer F.CrtYd) (width 0.05))
  (fp_line (start 4.95 4.85) (end 4.95 -3.34) (layer F.CrtYd) (width 0.05))
  (fp_line (start 4.95 -3.34) (end -4.94 -3.34) (layer F.CrtYd) (width 0.05))
  (fp_text user %R (at 0 1.05) (layer F.Fab)
    (effects (font (size 1 1) (thickness 0.15)))
  )
  (fp_text user "PCB Edge" (at 0 3.75) (layer Dwgs.User)
    (effects (font (size 0.5 0.5) (thickness 0.08)))
  )
  (pad 1 smd rect (at -1.3 -1.9) (size 0.45 1.3) (layers F.Cu F.Paste F.Mask))
  (pad 2 smd rect (at -0.65 -1.9) (size 0.45 1.3) (layers F.Cu F.Paste F.Mask))
  (pad 3 smd rect (at 0 -1.9) (size 0.45 1.3) (layers F.Cu F.Paste F.Mask))
  (pad 4 smd rect (at 0.65 -1.9) (size 0.45 1.3) (layers F.Cu F.Paste F.Mask))
  (pad 5 smd rect (at 1.3 -1.9) (size 0.45 1.3) (layers F.Cu F.Paste F.Mask))
  (pad 6 thru_hole oval (at -3.725 -1.85) (size 1.45 2) (drill oval 0.85 1.4) (layers *.Cu *.Mask))
  (pad 6 thru_hole oval (at 3.725 -1.85) (size 1.45 2) (drill oval 0.85 1.4) (layers *.Cu *.Mask))
  (pad 6 thru_hole oval (at -3.875 1.95) (size 1.15 1.8) (drill oval 0.55 1.2) (layers *.Cu *.Mask))
  (pad 6 thru_hole oval (at 3.875 1.95) (size 1.15 1.8) (drill oval 0.55 1.2) (layers *.Cu *.Mask))
  (pad "" np_thru_hole oval (at -2.5 -0.8) (size 0.8 0.8) (drill 0.8) (layers *.Cu *.Mask))
  (pad "" np_thru_hole oval (at 2.5 -0.8) (size 0.8 0.8) (drill 0.8) (layers *.Cu *.Mask))
  (model ${KISYS3DMOD}/Connector_USB.3dshapes/USB_Micro-B_Wuerth_629105150521.wrl
    (at (xyz 0 0 0))
    (scale (xyz 1 1 1))
    (rotate (xyz 0 0 0))
  )
  (model "${KIPRJMOD}/3D Models/629105150521.stp"
    (offset (xyz 0 1 1))
    (scale (xyz 1 1 1))
    (rotate (xyz 0 0 0))
  )
)
