EESchema Schematic File Version 4
LIBS:GameIO-cache
EELAYER 29 0
EELAYER END
$Descr B 17000 11000
encoding utf-8
Sheet 1 3
Title "GameIO"
Date "2019-03-23"
Rev "B"
Comp ""
Comment1 ""
Comment2 ""
Comment3 ""
Comment4 ""
$EndDescr
$Sheet
S 13700 900  2550 1750
U 5BE784A5
F0 "Power" 50
F1 "Power.sch" 50
$EndSheet
$Sheet
S 13750 3250 2500 5700
U 5BE7857C
F0 "Peripherals" 50
F1 "Peripherals.sch" 50
F2 "RXD" O L 13750 4350 50 
F3 "TXD" I L 13750 4250 50 
F4 "RTS0" O L 13750 4150 50 
F5 "CTS0" I L 13750 4050 50 
F6 "CTRL_USB_D+" B L 13750 4650 50 
F7 "CTRL_USB_D-" B L 13750 4550 50 
F8 "HDMI_HPD_N_1V8" O L 13750 4850 50 
F9 "HDMI_SCL" I L 13750 4950 50 
F10 "HDMI_SDA" I L 13750 5050 50 
F11 "HDMI_CEC" I L 13750 5150 50 
F12 "HDMI_D2_P" I L 13750 5250 50 
F13 "HDMI_D2_N" I L 13750 5350 50 
F14 "HDMI_D1_P" I L 13750 5450 50 
F15 "HDMI_D1_N" I L 13750 5550 50 
F16 "HDMI_D0_P" I L 13750 5650 50 
F17 "HDMI_D0_N" I L 13750 5750 50 
F18 "HDMI_CLK_P" I L 13750 5850 50 
F19 "HDMI_CLK_N" I L 13750 5950 50 
F20 "AUD_PWM0" I L 13750 3750 50 
F21 "AUD_PWM1" I L 13750 3850 50 
F22 "R0" I L 13750 6550 50 
F23 "R1" I L 13750 6650 50 
F24 "R2" I L 13750 6750 50 
F25 "R3" I L 13750 6850 50 
F26 "R4" I L 13750 6950 50 
F27 "R5" I L 13750 7050 50 
F28 "R6" I L 13750 7150 50 
F29 "R7" I L 13750 7250 50 
F30 "PCLK" I L 13750 6150 50 
F31 "HSYNC" I L 13750 6250 50 
F32 "VSYNC" I L 13750 6350 50 
F33 "DE" I L 13750 6450 50 
F34 "G0" I L 13750 7350 50 
F35 "G1" I L 13750 7450 50 
F36 "G2" I L 13750 7550 50 
F37 "G3" I L 13750 7650 50 
F38 "G4" I L 13750 7750 50 
F39 "G5" I L 13750 7850 50 
F40 "G6" I L 13750 7950 50 
F41 "G7" I L 13750 8050 50 
F42 "B0" I L 13750 8150 50 
F43 "B1" I L 13750 8250 50 
F44 "B2" I L 13750 8350 50 
F45 "B3" I L 13750 8450 50 
F46 "B4" I L 13750 8550 50 
F47 "B5" I L 13750 8650 50 
F48 "B6" I L 13750 8750 50 
F49 "B7" I L 13750 8850 50 
$EndSheet
$Comp
L GameIO:1473149-4 J?
U 1 1 5CA4F90D
P 8000 2600
AR Path="/5BE7857C/5CA4F90D" Ref="J?"  Part="1" 
AR Path="/5CA4F90D" Ref="J?"  Part="1" 
F 0 "J?" H 8000 3867 50  0000 C CNN
F 1 "1473149-4" H 8000 3776 50  0000 C CNN
F 2 "GameIO:TE_1473149-4" H 8000 2600 50  0001 L BNN
F 3 "https://www.te.com/commerce/DocumentDelivery/DDEController?Action=srchrtrv&DocNm=1473149&DocType=Customer+Drawing&DocLang=English" H 8000 2600 50  0001 L BNN
F 4 "1473149-4" H -1350 -150 50  0001 C CNN "MPN"
F 5 "TE Connectivity" H -1350 -150 50  0001 C CNN "Manf"
	1    8000 2600
	1    0    0    -1  
$EndComp
$Comp
L GameIO:1473149-4 J?
U 2 1 5CA4F915
P 3550 5500
AR Path="/5BE7857C/5CA4F915" Ref="J?"  Part="2" 
AR Path="/5CA4F915" Ref="J?"  Part="2" 
F 0 "J?" H 3550 9667 50  0000 C CNN
F 1 "1473149-4" H 3550 9576 50  0000 C CNN
F 2 "GameIO:TE_1473149-4" H 3550 5500 50  0001 L BNN
F 3 "https://www.te.com/commerce/DocumentDelivery/DDEController?Action=srchrtrv&DocNm=1473149&DocType=Customer+Drawing&DocLang=English" H 3550 5500 50  0001 L BNN
F 4 "1473149-4" H -1850 -200 50  0001 C CNN "MPN"
F 5 "TE Connectivity" H -1850 -200 50  0001 C CNN "Manf"
	2    3550 5500
	1    0    0    -1  
$EndComp
$Comp
L power:GND #PWR?
U 1 1 5CA4F91B
P 4400 9900
AR Path="/5BE7857C/5CA4F91B" Ref="#PWR?"  Part="1" 
AR Path="/5CA4F91B" Ref="#PWR?"  Part="1" 
F 0 "#PWR?" H 4400 9650 50  0001 C CNN
F 1 "GND" H 4405 9727 50  0000 C CNN
F 2 "" H 4400 9900 50  0001 C CNN
F 3 "" H 4400 9900 50  0001 C CNN
	1    4400 9900
	1    0    0    -1  
$EndComp
$Comp
L power:GND #PWR?
U 1 1 5CA4F921
P 2700 9900
AR Path="/5BE7857C/5CA4F921" Ref="#PWR?"  Part="1" 
AR Path="/5CA4F921" Ref="#PWR?"  Part="1" 
F 0 "#PWR?" H 2700 9650 50  0001 C CNN
F 1 "GND" H 2705 9727 50  0000 C CNN
F 2 "" H 2700 9900 50  0001 C CNN
F 3 "" H 2700 9900 50  0001 C CNN
	1    2700 9900
	1    0    0    -1  
$EndComp
Wire Wire Line
	2700 9900 2700 9300
Wire Wire Line
	2700 1700 2800 1700
Wire Wire Line
	2800 2000 2700 2000
Connection ~ 2700 2000
Wire Wire Line
	2700 2000 2700 1700
Wire Wire Line
	2800 2300 2700 2300
Connection ~ 2700 2300
Wire Wire Line
	2700 2300 2700 2000
Wire Wire Line
	2800 2600 2700 2600
Connection ~ 2700 2600
Wire Wire Line
	2700 2600 2700 2300
Wire Wire Line
	2800 2900 2700 2900
Connection ~ 2700 2900
Wire Wire Line
	2700 2900 2700 2600
Wire Wire Line
	2800 3200 2700 3200
Connection ~ 2700 3200
Wire Wire Line
	2700 3200 2700 2900
Wire Wire Line
	2800 3500 2700 3500
Connection ~ 2700 3500
Wire Wire Line
	2700 3500 2700 3200
Wire Wire Line
	2800 3800 2700 3800
Connection ~ 2700 3800
Wire Wire Line
	2700 3800 2700 3500
Wire Wire Line
	2800 4100 2700 4100
Connection ~ 2700 4100
Wire Wire Line
	2700 4100 2700 3800
Wire Wire Line
	2800 4400 2700 4400
Connection ~ 2700 4400
Wire Wire Line
	2700 4400 2700 4100
Wire Wire Line
	2800 4700 2700 4700
Connection ~ 2700 4700
Wire Wire Line
	2700 4700 2700 4400
Wire Wire Line
	2800 5000 2700 5000
Connection ~ 2700 5000
Wire Wire Line
	2700 5000 2700 4700
Wire Wire Line
	2800 5300 2700 5300
Connection ~ 2700 5300
Wire Wire Line
	2700 5300 2700 5000
Wire Wire Line
	2800 5600 2700 5600
Connection ~ 2700 5600
Wire Wire Line
	2700 5600 2700 5300
Wire Wire Line
	2800 5900 2700 5900
Connection ~ 2700 5900
Wire Wire Line
	2700 5900 2700 5600
Wire Wire Line
	2800 6200 2700 6200
Connection ~ 2700 6200
Wire Wire Line
	2700 6200 2700 5900
Wire Wire Line
	2800 6500 2700 6500
Connection ~ 2700 6500
Wire Wire Line
	2700 6500 2700 6200
Wire Wire Line
	2800 6800 2700 6800
Connection ~ 2700 6800
Wire Wire Line
	2700 6800 2700 6500
Wire Wire Line
	2800 7100 2700 7100
Connection ~ 2700 7100
Wire Wire Line
	2700 7100 2700 6800
Wire Wire Line
	2800 7400 2700 7400
Connection ~ 2700 7400
Wire Wire Line
	2700 7400 2700 7100
Wire Wire Line
	2800 7700 2700 7700
Connection ~ 2700 7700
Wire Wire Line
	2700 7700 2700 7400
Wire Wire Line
	2800 8000 2700 8000
Connection ~ 2700 8000
Wire Wire Line
	2700 8000 2700 7700
Wire Wire Line
	2800 8600 2700 8600
Connection ~ 2700 8600
Wire Wire Line
	2700 8600 2700 8000
Wire Wire Line
	2800 8900 2700 8900
Connection ~ 2700 8900
Wire Wire Line
	2700 8900 2700 8600
Wire Wire Line
	2800 9300 2700 9300
Connection ~ 2700 9300
Wire Wire Line
	2700 9300 2700 8900
Wire Wire Line
	4300 9700 4400 9700
Wire Wire Line
	4400 9700 4400 9900
Wire Wire Line
	4300 9300 4400 9300
Wire Wire Line
	4400 9300 4400 9700
Connection ~ 4400 9700
Wire Wire Line
	4300 8900 4400 8900
Wire Wire Line
	4400 8900 4400 9300
Connection ~ 4400 9300
Wire Wire Line
	4300 8600 4400 8600
Wire Wire Line
	4400 8600 4400 8900
Connection ~ 4400 8900
Wire Wire Line
	4300 8000 4400 8000
Connection ~ 4400 8600
Wire Wire Line
	4300 7700 4400 7700
Connection ~ 4400 8000
Wire Wire Line
	4300 7100 4400 7100
Wire Wire Line
	4400 7100 4400 7700
Connection ~ 4400 7700
Wire Wire Line
	4300 6800 4400 6800
Wire Wire Line
	4400 6800 4400 7100
Connection ~ 4400 7100
Wire Wire Line
	4300 6500 4400 6500
Wire Wire Line
	4400 6500 4400 6800
Connection ~ 4400 6800
Wire Wire Line
	4300 6200 4400 6200
Wire Wire Line
	4400 6200 4400 6500
Connection ~ 4400 6500
Wire Wire Line
	4300 5600 4400 5600
Wire Wire Line
	4400 5600 4400 6200
Connection ~ 4400 6200
Wire Wire Line
	4300 5300 4400 5300
Wire Wire Line
	4400 5300 4400 5600
Connection ~ 4400 5600
Wire Wire Line
	4300 5000 4400 5000
Wire Wire Line
	4400 5000 4400 5300
Connection ~ 4400 5300
Wire Wire Line
	4300 4700 4400 4700
Wire Wire Line
	4400 4700 4400 5000
Connection ~ 4400 5000
Wire Wire Line
	4300 4400 4400 4400
Wire Wire Line
	4400 4400 4400 4700
Connection ~ 4400 4700
Wire Wire Line
	4300 4100 4400 4100
Wire Wire Line
	4400 4100 4400 4400
Connection ~ 4400 4400
Wire Wire Line
	4300 3800 4400 3800
Wire Wire Line
	4400 3800 4400 4100
Connection ~ 4400 4100
Wire Wire Line
	4300 3500 4400 3500
Wire Wire Line
	4400 3500 4400 3800
Connection ~ 4400 3800
Wire Wire Line
	4400 3500 4400 3200
Wire Wire Line
	4400 3200 4300 3200
Connection ~ 4400 3500
Wire Wire Line
	4400 3200 4400 2900
Wire Wire Line
	4400 2900 4300 2900
Connection ~ 4400 3200
Wire Wire Line
	4400 2900 4400 2600
Wire Wire Line
	4400 2600 4300 2600
Connection ~ 4400 2900
Wire Wire Line
	4400 2600 4400 2300
Wire Wire Line
	4400 2300 4300 2300
Connection ~ 4400 2600
Wire Wire Line
	4400 2300 4400 2000
Wire Wire Line
	4400 2000 4300 2000
Connection ~ 4400 2300
Wire Wire Line
	4400 2000 4400 1700
Wire Wire Line
	4400 1700 4300 1700
Connection ~ 4400 2000
$Comp
L power:GND #PWR?
U 1 1 5CA4F9B6
P 7150 3700
AR Path="/5BE7857C/5CA4F9B6" Ref="#PWR?"  Part="1" 
AR Path="/5CA4F9B6" Ref="#PWR?"  Part="1" 
F 0 "#PWR?" H 7150 3450 50  0001 C CNN
F 1 "GND" H 7155 3527 50  0000 C CNN
F 2 "" H 7150 3700 50  0001 C CNN
F 3 "" H 7150 3700 50  0001 C CNN
	1    7150 3700
	1    0    0    -1  
$EndComp
$Comp
L power:GND #PWR?
U 1 1 5CA4F9BC
P 8850 3700
AR Path="/5BE7857C/5CA4F9BC" Ref="#PWR?"  Part="1" 
AR Path="/5CA4F9BC" Ref="#PWR?"  Part="1" 
F 0 "#PWR?" H 8850 3450 50  0001 C CNN
F 1 "GND" H 8855 3527 50  0000 C CNN
F 2 "" H 8850 3700 50  0001 C CNN
F 3 "" H 8850 3700 50  0001 C CNN
	1    8850 3700
	1    0    0    -1  
$EndComp
Wire Wire Line
	8850 3700 8850 3400
Wire Wire Line
	8850 3400 8750 3400
Wire Wire Line
	8850 3400 8850 3100
Wire Wire Line
	8850 3100 8750 3100
Connection ~ 8850 3400
Wire Wire Line
	8850 3100 8850 2800
Wire Wire Line
	8850 2800 8750 2800
Connection ~ 8850 3100
Wire Wire Line
	8850 2800 8850 2500
Wire Wire Line
	8850 2500 8750 2500
Connection ~ 8850 2800
Wire Wire Line
	8850 2500 8850 2200
Wire Wire Line
	8850 2200 8750 2200
Connection ~ 8850 2500
Wire Wire Line
	8850 2200 8850 1900
Wire Wire Line
	8850 1900 8750 1900
Connection ~ 8850 2200
Wire Wire Line
	7250 1600 7150 1600
Wire Wire Line
	7150 1600 7150 1900
Wire Wire Line
	7250 1900 7150 1900
Connection ~ 7150 1900
Wire Wire Line
	7150 1900 7150 2200
Wire Wire Line
	7250 2200 7150 2200
Connection ~ 7150 2200
Wire Wire Line
	7150 2200 7150 2500
Wire Wire Line
	7250 2500 7150 2500
Connection ~ 7150 2500
Wire Wire Line
	7150 2500 7150 2800
Wire Wire Line
	7250 2800 7150 2800
Connection ~ 7150 2800
Wire Wire Line
	7150 2800 7150 3100
Wire Wire Line
	7250 3100 7150 3100
Connection ~ 7150 3100
Wire Wire Line
	7150 3100 7150 3400
Wire Wire Line
	7250 3400 7150 3400
Connection ~ 7150 3400
Wire Wire Line
	7150 3400 7150 3700
NoConn ~ 4300 5700
NoConn ~ 4300 5800
NoConn ~ 4300 5900
NoConn ~ 4300 6000
NoConn ~ 4300 6100
NoConn ~ 4300 7200
NoConn ~ 4300 7300
NoConn ~ 4300 7400
NoConn ~ 4300 7500
NoConn ~ 4300 7600
NoConn ~ 2800 8500
Wire Wire Line
	4300 8800 4500 8800
Wire Wire Line
	4500 8800 4500 8700
Wire Wire Line
	4500 8700 4300 8700
Wire Wire Line
	4500 8700 4650 8700
Connection ~ 4500 8700
$Comp
L power:+1V8 #PWR?
U 1 1 5CA4F9F7
P 4650 8700
AR Path="/5BE7857C/5CA4F9F7" Ref="#PWR?"  Part="1" 
AR Path="/5CA4F9F7" Ref="#PWR?"  Part="1" 
F 0 "#PWR?" H 4650 8550 50  0001 C CNN
F 1 "+1V8" H 4665 8873 50  0000 C CNN
F 2 "" H 4650 8700 50  0001 C CNN
F 3 "" H 4650 8700 50  0001 C CNN
	1    4650 8700
	1    0    0    -1  
$EndComp
Wire Wire Line
	2800 8800 2600 8800
Wire Wire Line
	2600 8800 2600 8700
Wire Wire Line
	2600 8700 2800 8700
$Comp
L power:+1V8 #PWR?
U 1 1 5CA4FA00
P 2450 8700
AR Path="/5BE7857C/5CA4FA00" Ref="#PWR?"  Part="1" 
AR Path="/5CA4FA00" Ref="#PWR?"  Part="1" 
F 0 "#PWR?" H 2450 8550 50  0001 C CNN
F 1 "+1V8" H 2465 8873 50  0000 C CNN
F 2 "" H 2450 8700 50  0001 C CNN
F 3 "" H 2450 8700 50  0001 C CNN
	1    2450 8700
	1    0    0    -1  
$EndComp
Wire Wire Line
	2450 8700 2600 8700
Connection ~ 2600 8700
Wire Wire Line
	2800 9200 2600 9200
Wire Wire Line
	2600 9100 2800 9100
$Comp
L power:+3V3 #PWR?
U 1 1 5CA4FA0A
P 2450 9000
AR Path="/5BE7857C/5CA4FA0A" Ref="#PWR?"  Part="1" 
AR Path="/5CA4FA0A" Ref="#PWR?"  Part="1" 
F 0 "#PWR?" H 2450 8850 50  0001 C CNN
F 1 "+3V3" H 2465 9173 50  0000 C CNN
F 2 "" H 2450 9000 50  0001 C CNN
F 3 "" H 2450 9000 50  0001 C CNN
	1    2450 9000
	1    0    0    -1  
$EndComp
$Comp
L power:+3V3 #PWR?
U 1 1 5CA4FA10
P 4650 9000
AR Path="/5BE7857C/5CA4FA10" Ref="#PWR?"  Part="1" 
AR Path="/5CA4FA10" Ref="#PWR?"  Part="1" 
F 0 "#PWR?" H 4650 8850 50  0001 C CNN
F 1 "+3V3" H 4665 9173 50  0000 C CNN
F 2 "" H 4650 9000 50  0001 C CNN
F 3 "" H 4650 9000 50  0001 C CNN
	1    4650 9000
	1    0    0    -1  
$EndComp
Wire Wire Line
	4500 9000 4500 9100
Wire Wire Line
	4500 9100 4500 9200
Wire Wire Line
	4500 9200 4300 9200
Connection ~ 4500 9100
Wire Wire Line
	4500 9100 4300 9100
Wire Wire Line
	8850 1800 8850 1700
Wire Wire Line
	8850 1700 8750 1700
Wire Wire Line
	8750 1800 8850 1800
Connection ~ 8850 1700
Text Label 9150 2300 2    50   ~ 0
SD_D0
Text Label 9150 2400 2    50   ~ 0
SD_D1
Text Label 9150 2600 2    50   ~ 0
SD_D2
Text Label 9150 2700 2    50   ~ 0
SD_D3
Text Label 9150 2100 2    50   ~ 0
SD_CMD
Text Label 9150 1700 2    50   ~ 0
SD_VDD
Text Label 9150 2000 2    50   ~ 0
SD_CLK
Wire Wire Line
	4300 1600 4400 1600
Wire Wire Line
	4400 1600 4400 1450
Wire Wire Line
	2800 1600 2700 1600
Wire Wire Line
	2700 1600 2700 1450
$Comp
L power:+3V3 #PWR?
U 1 1 5CA4FA30
P 2700 1450
AR Path="/5BE7857C/5CA4FA30" Ref="#PWR?"  Part="1" 
AR Path="/5CA4FA30" Ref="#PWR?"  Part="1" 
F 0 "#PWR?" H 2700 1300 50  0001 C CNN
F 1 "+3V3" H 2715 1623 50  0000 C CNN
F 2 "" H 2700 1450 50  0001 C CNN
F 3 "" H 2700 1450 50  0001 C CNN
	1    2700 1450
	1    0    0    -1  
$EndComp
$Comp
L power:+3V3 #PWR?
U 1 1 5CA4FA36
P 4400 1450
AR Path="/5BE7857C/5CA4FA36" Ref="#PWR?"  Part="1" 
AR Path="/5CA4FA36" Ref="#PWR?"  Part="1" 
F 0 "#PWR?" H 4400 1300 50  0001 C CNN
F 1 "+3V3" H 4415 1623 50  0000 C CNN
F 2 "" H 4400 1450 50  0001 C CNN
F 3 "" H 4400 1450 50  0001 C CNN
	1    4400 1450
	1    0    0    -1  
$EndComp
Wire Wire Line
	4300 3000 4850 3000
Wire Wire Line
	4300 3100 4850 3100
$Comp
L Device:R_US R?
U 1 1 5CA4FA40
P 5300 3850
AR Path="/5BE7857C/5CA4FA40" Ref="R?"  Part="1" 
AR Path="/5CA4FA40" Ref="R?"  Part="1" 
F 0 "R?" H 5368 3896 50  0000 L CNN
F 1 "100k" H 5368 3805 50  0000 L CNN
F 2 "Resistor_SMD:R_0402_1005Metric" V 5340 3840 50  0001 C CNN
F 3 "http://www.yageo.com/documents/recent/PYu-RT_1-to-0.01_RoHS_L_9.pdf" H 5300 3850 50  0001 C CNN
F 4 "RT0402BRD07100KL" H -2850 100 50  0001 C CNN "MPN"
F 5 "Yageo" H -2850 100 50  0001 C CNN "Manf"
	1    5300 3850
	1    0    0    -1  
$EndComp
$Comp
L Device:R_US R?
U 1 1 5CA4FA48
P 5650 3850
AR Path="/5BE7857C/5CA4FA48" Ref="R?"  Part="1" 
AR Path="/5CA4FA48" Ref="R?"  Part="1" 
F 0 "R?" H 5718 3896 50  0000 L CNN
F 1 "100k" H 5718 3805 50  0000 L CNN
F 2 "Resistor_SMD:R_0402_1005Metric" V 5690 3840 50  0001 C CNN
F 3 "http://www.yageo.com/documents/recent/PYu-RT_1-to-0.01_RoHS_L_9.pdf" H 5650 3850 50  0001 C CNN
F 4 "RT0402BRD07100KL" H -2850 100 50  0001 C CNN "MPN"
F 5 "Yageo" H -2850 100 50  0001 C CNN "Manf"
	1    5650 3850
	1    0    0    -1  
$EndComp
Wire Wire Line
	5300 4000 5300 4050
Wire Wire Line
	5300 4050 5650 4050
Wire Wire Line
	5650 4050 5650 4000
Wire Wire Line
	5650 4050 5650 4100
Connection ~ 5650 4050
$Comp
L power:GND #PWR?
U 1 1 5CA4FA53
P 5650 4100
AR Path="/5BE7857C/5CA4FA53" Ref="#PWR?"  Part="1" 
AR Path="/5CA4FA53" Ref="#PWR?"  Part="1" 
F 0 "#PWR?" H 5650 3850 50  0001 C CNN
F 1 "GND" H 5655 3927 50  0000 C CNN
F 2 "" H 5650 4100 50  0001 C CNN
F 3 "" H 5650 4100 50  0001 C CNN
	1    5650 4100
	1    0    0    -1  
$EndComp
Wire Wire Line
	5650 3600 5650 3700
NoConn ~ 4300 4000
Wire Wire Line
	4300 9400 4500 9400
Wire Wire Line
	4300 9500 4500 9500
Wire Wire Line
	4500 9500 4500 9400
Connection ~ 4500 9400
Wire Wire Line
	4500 9400 4650 9400
$Comp
L power:+5V #PWR?
U 1 1 5CA4FA60
P 4650 9400
AR Path="/5BE7857C/5CA4FA60" Ref="#PWR?"  Part="1" 
AR Path="/5CA4FA60" Ref="#PWR?"  Part="1" 
F 0 "#PWR?" H 4650 9250 50  0001 C CNN
F 1 "+5V" H 4665 9573 50  0000 C CNN
F 2 "" H 4650 9400 50  0001 C CNN
F 3 "" H 4650 9400 50  0001 C CNN
	1    4650 9400
	1    0    0    -1  
$EndComp
Wire Wire Line
	2800 9400 2600 9400
Wire Wire Line
	2800 9500 2600 9500
Wire Wire Line
	2600 9500 2600 9400
Connection ~ 2600 9400
Wire Wire Line
	2600 9400 2450 9400
$Comp
L power:+5V #PWR?
U 1 1 5CA4FA6B
P 2450 9400
AR Path="/5BE7857C/5CA4FA6B" Ref="#PWR?"  Part="1" 
AR Path="/5CA4FA6B" Ref="#PWR?"  Part="1" 
F 0 "#PWR?" H 2450 9250 50  0001 C CNN
F 1 "+5V" H 2465 9573 50  0000 C CNN
F 2 "" H 2450 9400 50  0001 C CNN
F 3 "" H 2450 9400 50  0001 C CNN
	1    2450 9400
	1    0    0    -1  
$EndComp
Wire Wire Line
	2800 9000 2600 9000
Wire Wire Line
	2600 9000 2600 9100
Wire Wire Line
	2600 9200 2600 9100
Connection ~ 2600 9100
Wire Wire Line
	2600 9000 2450 9000
Connection ~ 2600 9000
Wire Wire Line
	4300 9000 4500 9000
Connection ~ 4500 9000
Wire Wire Line
	4500 9000 4650 9000
NoConn ~ 2800 8400
NoConn ~ 4300 8100
NoConn ~ 4300 8200
NoConn ~ 4300 8300
NoConn ~ 4300 8400
NoConn ~ 4300 8500
NoConn ~ 4300 6300
NoConn ~ 4300 6400
NoConn ~ 4300 6600
NoConn ~ 4300 6700
NoConn ~ 4300 6900
NoConn ~ 4300 7000
NoConn ~ 4300 7800
NoConn ~ 2800 7600
NoConn ~ 2800 7500
NoConn ~ 2800 7300
NoConn ~ 2800 7200
NoConn ~ 2800 7000
NoConn ~ 2800 6900
NoConn ~ 2800 6700
NoConn ~ 2800 6600
NoConn ~ 2800 6400
NoConn ~ 2800 6300
$Comp
L Device:R_US R?
U 1 1 5CA4FA93
P 9700 3150
AR Path="/5BE7857C/5CA4FA93" Ref="R?"  Part="1" 
AR Path="/5CA4FA93" Ref="R?"  Part="1" 
F 0 "R?" H 9768 3196 50  0000 L CNN
F 1 "100k" H 9768 3105 50  0000 L CNN
F 2 "Resistor_SMD:R_0402_1005Metric" V 9740 3140 50  0001 C CNN
F 3 "http://www.yageo.com/documents/recent/PYu-RT_1-to-0.01_RoHS_L_9.pdf" H 9700 3150 50  0001 C CNN
F 4 "RT0402BRD07100KL" H 5400 100 50  0001 C CNN "MPN"
F 5 "Yageo" H 5400 100 50  0001 C CNN "Manf"
	1    9700 3150
	1    0    0    -1  
$EndComp
$Comp
L Device:R_US R?
U 1 1 5CA4FA9B
P 10050 3150
AR Path="/5BE7857C/5CA4FA9B" Ref="R?"  Part="1" 
AR Path="/5CA4FA9B" Ref="R?"  Part="1" 
F 0 "R?" H 10118 3196 50  0000 L CNN
F 1 "100k" H 10118 3105 50  0000 L CNN
F 2 "Resistor_SMD:R_0402_1005Metric" V 10090 3140 50  0001 C CNN
F 3 "http://www.yageo.com/documents/recent/PYu-RT_1-to-0.01_RoHS_L_9.pdf" H 10050 3150 50  0001 C CNN
F 4 "RT0402BRD07100KL" H 5400 100 50  0001 C CNN "MPN"
F 5 "Yageo" H 5400 100 50  0001 C CNN "Manf"
	1    10050 3150
	1    0    0    -1  
$EndComp
Wire Wire Line
	9700 3300 9700 3350
Wire Wire Line
	9700 3350 10050 3350
Wire Wire Line
	10050 3350 10050 3300
Wire Wire Line
	10050 3350 10050 3400
Connection ~ 10050 3350
$Comp
L power:GND #PWR?
U 1 1 5CA4FAA6
P 10050 3400
AR Path="/5BE7857C/5CA4FAA6" Ref="#PWR?"  Part="1" 
AR Path="/5CA4FAA6" Ref="#PWR?"  Part="1" 
F 0 "#PWR?" H 10050 3150 50  0001 C CNN
F 1 "GND" H 10055 3227 50  0000 C CNN
F 2 "" H 10050 3400 50  0001 C CNN
F 3 "" H 10050 3400 50  0001 C CNN
	1    10050 3400
	1    0    0    -1  
$EndComp
Wire Wire Line
	9700 3000 8750 3000
Wire Wire Line
	8750 2900 10050 2900
Wire Wire Line
	10050 2900 10050 3000
Wire Wire Line
	7250 3500 6450 3500
$Comp
L power:+3V3 #PWR?
U 1 1 5CA4FAB1
P 6450 3500
AR Path="/5BE7857C/5CA4FAB1" Ref="#PWR?"  Part="1" 
AR Path="/5CA4FAB1" Ref="#PWR?"  Part="1" 
F 0 "#PWR?" H 6450 3350 50  0001 C CNN
F 1 "+3V3" H 6465 3673 50  0000 C CNN
F 2 "" H 6450 3500 50  0001 C CNN
F 3 "" H 6450 3500 50  0001 C CNN
	1    6450 3500
	1    0    0    -1  
$EndComp
Wire Wire Line
	7250 1700 6700 1700
Text Label 6700 1700 0    50   ~ 0
PCLK
Wire Wire Line
	6700 1800 7250 1800
Wire Wire Line
	7250 2000 6700 2000
Wire Wire Line
	7250 2100 6700 2100
Wire Wire Line
	7250 2300 6700 2300
Wire Wire Line
	7250 2400 6700 2400
Wire Wire Line
	7250 2600 6700 2600
Wire Wire Line
	7250 2700 6700 2700
Wire Wire Line
	7250 2900 6700 2900
Wire Wire Line
	7250 3000 6700 3000
Wire Wire Line
	7250 3200 6700 3200
Wire Wire Line
	7250 3300 6700 3300
Text Label 6700 1800 0    50   ~ 0
DE
Text Label 6700 2000 0    50   ~ 0
VSYNC
Text Label 6700 2100 0    50   ~ 0
HSYNC
Text Label 6700 2300 0    50   ~ 0
B0
Text Label 6700 2400 0    50   ~ 0
B1
Text Label 6700 2600 0    50   ~ 0
B2
Text Label 6700 2700 0    50   ~ 0
B3
Text Label 6700 2900 0    50   ~ 0
B4
Text Label 6700 3000 0    50   ~ 0
B5
Text Label 6700 3200 0    50   ~ 0
B6
Text Label 6700 3300 0    50   ~ 0
B7
Wire Wire Line
	8850 1700 9450 1700
$Comp
L power:+3V3 #PWR?
U 1 1 5CA4FAD6
P 9450 1650
AR Path="/5BE7857C/5CA4FAD6" Ref="#PWR?"  Part="1" 
AR Path="/5CA4FAD6" Ref="#PWR?"  Part="1" 
F 0 "#PWR?" H 9450 1500 50  0001 C CNN
F 1 "+3V3" H 9465 1823 50  0000 C CNN
F 2 "" H 9450 1650 50  0001 C CNN
F 3 "" H 9450 1650 50  0001 C CNN
	1    9450 1650
	1    0    0    -1  
$EndComp
Wire Wire Line
	9450 1650 9450 1700
$Comp
L power:GND #PWR?
U 1 1 5CA4FAE8
P 9450 2000
AR Path="/5BE7857C/5CA4FAE8" Ref="#PWR?"  Part="1" 
AR Path="/5CA4FAE8" Ref="#PWR?"  Part="1" 
F 0 "#PWR?" H 9450 1750 50  0001 C CNN
F 1 "GND" H 9455 1827 50  0000 C CNN
F 2 "" H 9450 2000 50  0001 C CNN
F 3 "" H 9450 2000 50  0001 C CNN
	1    9450 2000
	1    0    0    -1  
$EndComp
Wire Wire Line
	2800 1800 2350 1800
Wire Wire Line
	2800 1900 2350 1900
Wire Wire Line
	2800 2100 2350 2100
Wire Wire Line
	2800 2200 2350 2200
Wire Wire Line
	2800 2400 2350 2400
Wire Wire Line
	2800 2500 2350 2500
Wire Wire Line
	2800 2700 2350 2700
Wire Wire Line
	2800 2800 2350 2800
Wire Wire Line
	2800 3000 2350 3000
Wire Wire Line
	2800 3100 2350 3100
Wire Wire Line
	2800 3300 2350 3300
Wire Wire Line
	2800 3400 2350 3400
Wire Wire Line
	2800 3600 2350 3600
Wire Wire Line
	2800 3700 2350 3700
Wire Wire Line
	2800 3900 2350 3900
Wire Wire Line
	2800 4000 2350 4000
Text Label 2350 1800 0    50   ~ 0
G0
Text Label 2350 1900 0    50   ~ 0
G1
Text Label 2350 2100 0    50   ~ 0
G2
Text Label 2350 2200 0    50   ~ 0
G3
Text Label 2350 2400 0    50   ~ 0
G4
Text Label 2350 2500 0    50   ~ 0
G5
Text Label 2350 2700 0    50   ~ 0
G6
Text Label 2350 2800 0    50   ~ 0
G7
Text Label 2350 3000 0    50   ~ 0
R0
Text Label 2350 3100 0    50   ~ 0
R1
Text Label 2350 3300 0    50   ~ 0
R2
Text Label 2350 3400 0    50   ~ 0
R3
Text Label 2350 3600 0    50   ~ 0
R4
Text Label 2350 3700 0    50   ~ 0
R5
Text Label 2350 3900 0    50   ~ 0
R6
Text Label 2350 4000 0    50   ~ 0
R7
Text Notes 4800 900  0    118  ~ 24
Compute Module 3+ Lite
NoConn ~ 8750 1600
NoConn ~ 4300 4200
NoConn ~ 4300 4300
NoConn ~ 4300 4500
NoConn ~ 4300 4600
NoConn ~ 4300 4800
NoConn ~ 4300 4900
NoConn ~ 4300 5100
NoConn ~ 4300 5200
NoConn ~ 4300 5400
NoConn ~ 4300 5500
NoConn ~ 2800 4200
NoConn ~ 2800 4300
NoConn ~ 2800 4500
NoConn ~ 2800 4600
NoConn ~ 2800 4800
NoConn ~ 2800 4900
Wire Wire Line
	4400 7700 4400 8000
Wire Wire Line
	4300 7900 4650 7900
$Comp
L Device:R_US R?
U 1 1 5CA4FB28
P 4650 8050
AR Path="/5BE7857C/5CA4FB28" Ref="R?"  Part="1" 
AR Path="/5CA4FB28" Ref="R?"  Part="1" 
F 0 "R?" H 4718 8096 50  0000 L CNN
F 1 "1k" H 4718 8005 50  0000 L CNN
F 2 "Resistor_SMD:R_0402_1005Metric" V 4690 8040 50  0001 C CNN
F 3 "http://www.susumu.co.jp/common/pdf/n_catalog_partition05_en.pdf" H 4650 8050 50  0001 C CNN
F 4 "RR0510P-102-D" H -2850 100 50  0001 C CNN "MPN"
F 5 "Susumu" H -2850 100 50  0001 C CNN "Manf"
	1    4650 8050
	1    0    0    -1  
$EndComp
Text Notes 1300 7900 0    50   ~ 0
Route as matched length \n90 ohm differential pair\n
Wire Wire Line
	4400 8000 4400 8600
Wire Wire Line
	4650 8200 4650 8250
$Comp
L power:GND #PWR?
U 1 1 5CA4FB3B
P 4650 8250
AR Path="/5BE7857C/5CA4FB3B" Ref="#PWR?"  Part="1" 
AR Path="/5CA4FB3B" Ref="#PWR?"  Part="1" 
F 0 "#PWR?" H 4650 8000 50  0001 C CNN
F 1 "GND" H 4655 8077 50  0000 C CNN
F 2 "" H 4650 8250 50  0001 C CNN
F 3 "" H 4650 8250 50  0001 C CNN
	1    4650 8250
	1    0    0    -1  
$EndComp
Text Label 4850 3000 2    50   ~ 0
AUD_PWM0
Text Label 4850 3100 2    50   ~ 0
AUD_PWM1
Wire Wire Line
	4300 3600 5650 3600
Wire Wire Line
	5300 3700 4300 3700
Wire Wire Line
	2800 5100 1900 5100
Wire Wire Line
	2800 5200 1900 5200
Wire Wire Line
	2800 5400 1900 5400
Wire Wire Line
	2800 5500 1900 5500
Wire Wire Line
	2800 5700 1900 5700
Wire Wire Line
	2800 5800 1900 5800
Wire Wire Line
	2800 6000 1900 6000
Wire Wire Line
	2800 6100 1900 6100
Wire Wire Line
	2800 8200 2300 8200
Wire Wire Line
	2800 8300 2300 8300
Text Label 2300 8300 0    50   ~ 0
HDMI_SCL
Text Label 2300 8200 0    50   ~ 0
HDMI_SDA
Text Label 1900 6100 0    50   ~ 0
HDMI_D2_P
Text Label 1900 6000 0    50   ~ 0
HDMI_D2_N
Text Label 1900 5700 0    50   ~ 0
HDMI_D1_N
Text Label 1900 5800 0    50   ~ 0
HDMI_D1_P
Text Label 1900 5400 0    50   ~ 0
HDMI_D0_N
Text Label 1900 5500 0    50   ~ 0
HDMI_D0_P
Text Label 1900 5100 0    50   ~ 0
HDMI_CLK_N
Text Label 1900 5200 0    50   ~ 0
HDMI_CLK_P
Wire Wire Line
	2800 8100 2300 8100
Wire Wire Line
	4300 3900 5100 3900
Text Label 5100 3900 2    50   ~ 0
HDMI_HPD_N_1V8
Text Label 2300 8100 0    50   ~ 0
HDMI_CEC
Text Notes 800  5650 0    50   ~ 0
Route as matched length \n100 ohm differential pairs\n
$Comp
L Connector:USB_B_Micro J?
U 1 1 5CA4FB69
P 11100 7400
AR Path="/5BE784A5/5CA4FB69" Ref="J?"  Part="1" 
AR Path="/5BE7857C/5CA4FB69" Ref="J?"  Part="1" 
AR Path="/5CA4FB69" Ref="J?"  Part="1" 
F 0 "J?" H 11100 7850 50  0000 C CNN
F 1 "USB_B_Micro" H 11100 7750 50  0000 C CNN
F 2 "GameIO:USB_Micro-B_Wuerth_629105150521" H 11250 7350 50  0001 C CNN
F 3 "https://katalog.we-online.de/em/datasheet/629105150521.pdf" H 11250 7350 50  0001 C CNN
F 4 "629105150521" H 11100 7400 50  0001 C CNN "MPN"
	1    11100 7400
	-1   0    0    1   
$EndComp
$Comp
L power:GND #PWR?
U 1 1 5CA4FB72
P 11450 6950
AR Path="/5BE784A5/5CA4FB72" Ref="#PWR?"  Part="1" 
AR Path="/5BE7857C/5CA4FB72" Ref="#PWR?"  Part="1" 
AR Path="/5CA4FB72" Ref="#PWR?"  Part="1" 
F 0 "#PWR?" H 11450 6700 50  0001 C CNN
F 1 "GND" H 11455 6777 50  0000 C CNN
F 2 "" H 11450 6950 50  0001 C CNN
F 3 "" H 11450 6950 50  0001 C CNN
	1    11450 6950
	1    0    0    -1  
$EndComp
Wire Wire Line
	2300 7800 2800 7800
Wire Wire Line
	2300 7900 2800 7900
Text Label 2300 7800 0    50   ~ 0
USB_D+
Text Label 2300 7900 0    50   ~ 0
USB_D-
Wire Wire Line
	11200 7000 11200 6950
Wire Wire Line
	11100 7000 11100 6950
$Comp
L GameIO:503182-1852 J?
U 1 1 5CCBD045
P 11750 2350
AR Path="/5BE7857C/5CCBD045" Ref="J?"  Part="1" 
AR Path="/5CCBD045" Ref="J?"  Part="1" 
F 0 "J?" H 11750 3100 50  0000 L CNN
F 1 "503182-1852" H 11750 1350 50  0000 L CNN
F 2 "GameIO:MOLEX_503182-1852" H 11750 2350 50  0001 L BNN
F 3 "https://www.digikey.com/product-detail/en/molex-llc/5031821852/WM12834CT-ND/5823232?utm_source=snapeda&utm_medium=aggregator&utm_campaign=symbol" H 11750 2350 50  0001 L BNN
F 4 "WM12834CT-ND" H -1800 -100 50  0001 C CNN "MPN"
F 5 "Molex" H -1800 -100 50  0001 C CNN "Manf"
	1    11750 2350
	1    0    0    -1  
$EndComp
Wire Wire Line
	11550 2800 11450 2800
Wire Wire Line
	11450 2800 11450 2900
Wire Wire Line
	11550 3200 11450 3200
Connection ~ 11450 3200
Wire Wire Line
	11450 3200 11450 3350
Wire Wire Line
	11550 3100 11450 3100
Connection ~ 11450 3100
Wire Wire Line
	11450 3100 11450 3200
Wire Wire Line
	11550 3000 11450 3000
Connection ~ 11450 3000
Wire Wire Line
	11450 3000 11450 3100
Wire Wire Line
	11550 2900 11450 2900
Connection ~ 11450 2900
Wire Wire Line
	11450 2900 11450 3000
$Comp
L power:GND #PWR?
U 1 1 5CCBD059
P 11450 3350
AR Path="/5BE7857C/5CCBD059" Ref="#PWR?"  Part="1" 
AR Path="/5CCBD059" Ref="#PWR?"  Part="1" 
F 0 "#PWR?" H 11450 3100 50  0001 C CNN
F 1 "GND" H 11455 3177 50  0000 C CNN
F 2 "" H 11450 3350 50  0001 C CNN
F 3 "" H 11450 3350 50  0001 C CNN
	1    11450 3350
	1    0    0    -1  
$EndComp
Wire Wire Line
	11550 2250 11450 2250
Wire Wire Line
	11450 2250 11450 2800
Connection ~ 11450 2800
Text Label 11100 1750 0    50   ~ 0
SD_D2
Text Label 11100 1850 0    50   ~ 0
SD_D3
Text Label 11100 1950 0    50   ~ 0
SD_CMD
Text Label 11100 2050 0    50   ~ 0
SD_VDD
Text Label 11100 2150 0    50   ~ 0
SD_CLK
Text Label 11100 2350 0    50   ~ 0
SD_D0
Text Label 11100 2450 0    50   ~ 0
SD_D1
NoConn ~ 11550 2600
NoConn ~ 11550 2700
Text Notes 11100 1050 0    118  ~ 24
microSD Card
Wire Wire Line
	8750 2300 9150 2300
Wire Wire Line
	11100 2350 11550 2350
Wire Wire Line
	8750 2400 9150 2400
Wire Wire Line
	11100 2450 11550 2450
Wire Wire Line
	8750 2600 9150 2600
Wire Wire Line
	11100 1750 11550 1750
Wire Wire Line
	8750 2700 9150 2700
Wire Wire Line
	11100 1850 11550 1850
$Comp
L Device:C_Small C?
U 1 1 5CA4FADF
P 9450 1850
AR Path="/5BE7857C/5CA4FADF" Ref="C?"  Part="1" 
AR Path="/5CA4FADF" Ref="C?"  Part="1" 
F 0 "C?" H 9250 1800 50  0000 L CNN
F 1 "4.7uF" H 9150 1900 50  0000 L CNN
F 2 "Capacitor_SMD:C_0603_1608Metric" H 9450 1850 50  0001 C CNN
F 3 "~" H 9450 1850 50  0001 C CNN
F 4 "CL10A475MA8NQNC" H 5350 100 50  0001 C CNN "MPN"
F 5 "Samsung" H 5350 100 50  0001 C CNN "Manf"
	1    9450 1850
	-1   0    0    1   
$EndComp
Connection ~ 9450 1700
Wire Wire Line
	8750 2000 9150 2000
Wire Wire Line
	11550 2050 11100 2050
Wire Wire Line
	11100 2150 11550 2150
Wire Wire Line
	11100 1950 11550 1950
Wire Wire Line
	8750 2100 9150 2100
Wire Wire Line
	9450 1700 9450 1750
Wire Wire Line
	9450 1950 9450 2000
Wire Wire Line
	7300 7600 7250 7600
Wire Wire Line
	7250 7600 7250 7800
$Comp
L power:GND #PWR?
U 1 1 5D47A7D1
P 7250 7800
AR Path="/5BE7857C/5D47A7D1" Ref="#PWR?"  Part="1" 
AR Path="/5D47A7D1" Ref="#PWR?"  Part="1" 
F 0 "#PWR?" H 7250 7550 50  0001 C CNN
F 1 "GND" H 7255 7627 50  0000 C CNN
F 2 "" H 7250 7800 50  0001 C CNN
F 3 "" H 7250 7800 50  0001 C CNN
	1    7250 7800
	1    0    0    -1  
$EndComp
Wire Wire Line
	7300 6700 6900 6700
Wire Wire Line
	7300 6800 6900 6800
Text Label 6900 6700 0    50   ~ 0
USB_D+
Text Label 6900 6800 0    50   ~ 0
USB_D-
Text Label 4850 1800 2    50   ~ 0
TXD
Text Label 4850 1900 2    50   ~ 0
RXD
Text Label 9150 3200 2    50   ~ 0
CTS0
Text Label 9150 3300 2    50   ~ 0
RTS0
Wire Wire Line
	4300 1800 4850 1800
Wire Wire Line
	4300 1900 4850 1900
Wire Wire Line
	8750 3500 9050 3500
$Comp
L power:+3V3 #PWR?
U 1 1 5CA4FAB7
P 9050 3500
AR Path="/5BE7857C/5CA4FAB7" Ref="#PWR?"  Part="1" 
AR Path="/5CA4FAB7" Ref="#PWR?"  Part="1" 
F 0 "#PWR?" H 9050 3350 50  0001 C CNN
F 1 "+3V3" H 9065 3673 50  0000 C CNN
F 2 "" H 9050 3500 50  0001 C CNN
F 3 "" H 9050 3500 50  0001 C CNN
	1    9050 3500
	1    0    0    -1  
$EndComp
Wire Wire Line
	8750 3300 9150 3300
Wire Wire Line
	8750 3200 9150 3200
Text Notes 14450 4200 0    50   ~ 0
WiFi Module
Wire Notes Line
	13750 3950 14950 3950
Wire Wire Line
	11450 6950 11200 6950
Wire Wire Line
	11100 6950 11200 6950
Connection ~ 11200 6950
Wire Wire Line
	9800 7300 10800 7300
Wire Wire Line
	10800 7400 9800 7400
NoConn ~ 10800 7200
Wire Wire Line
	13750 4550 13200 4550
Wire Wire Line
	13200 4650 13750 4650
$Comp
L GameIO:USB2512B_M2 U?
U 1 1 5CCB1E00
P 8500 6700
F 0 "U?" H 8450 7667 50  0000 C CNN
F 1 "USB2512B_M2" H 8450 7576 50  0000 C CNN
F 2 "Package_DFN_QFN:QFN-36-1EP_6x6mm_P0.5mm_EP3.7x3.7mm" H 8500 6700 50  0001 L BNN
F 3 "https://www.digikey.com/product-detail/en/microchip-technology/USB2512B-M2/USB2512B-M2-ND/5639463?utm_source=snapeda&utm_medium=aggregator&utm_campaign=symbol" H 8500 6700 50  0001 L BNN
F 4 "USB2512B/M2-ND" H 8500 6700 50  0001 L BNN "Field4"
	1    8500 6700
	-1   0    0    -1  
$EndComp
Wire Wire Line
	9800 7100 10400 7100
Wire Wire Line
	9800 7200 10400 7200
Text Label 10400 7100 2    50   ~ 0
CTRL_USB_D-
Text Label 10400 7200 2    50   ~ 0
CTRL_USB_D+
Text Label 10400 7300 2    50   ~ 0
EXT_USB_D-
Text Label 10400 7400 2    50   ~ 0
EXT_USB_D+
Wire Wire Line
	9800 6000 9900 6000
$Comp
L power:+3.3V #PWR?
U 1 1 5CE40F2B
P 7150 5900
F 0 "#PWR?" H 7150 5750 50  0001 C CNN
F 1 "+3.3V" H 7165 6073 50  0000 C CNN
F 2 "" H 7150 5900 50  0001 C CNN
F 3 "" H 7150 5900 50  0001 C CNN
	1    7150 5900
	1    0    0    -1  
$EndComp
Wire Wire Line
	7150 5900 7150 6000
Wire Wire Line
	7150 6100 7300 6100
Wire Wire Line
	7300 6000 7150 6000
Connection ~ 7150 6000
Wire Wire Line
	7150 6000 7150 6100
$Comp
L Device:R_Small_US R?
U 1 1 5CEC3259
P 10200 7750
F 0 "R?" H 10268 7841 50  0000 L CNN
F 1 "12k" H 10268 7750 50  0000 L CNN
F 2 "" H 10200 7750 50  0001 C CNN
F 3 "~" H 10200 7750 50  0001 C CNN
F 4 "1%" H 10268 7659 50  0000 L CNN "Tolerance"
	1    10200 7750
	1    0    0    -1  
$EndComp
Wire Wire Line
	10200 7650 10200 7600
Wire Wire Line
	10200 7600 9800 7600
Wire Wire Line
	10200 7850 10200 7900
$Comp
L power:GND #PWR?
U 1 1 5CEF034E
P 10200 7900
AR Path="/5BE784A5/5CEF034E" Ref="#PWR?"  Part="1" 
AR Path="/5BE7857C/5CEF034E" Ref="#PWR?"  Part="1" 
AR Path="/5CEF034E" Ref="#PWR?"  Part="1" 
F 0 "#PWR?" H 10200 7650 50  0001 C CNN
F 1 "GND" H 10205 7727 50  0000 C CNN
F 2 "" H 10200 7900 50  0001 C CNN
F 3 "" H 10200 7900 50  0001 C CNN
	1    10200 7900
	1    0    0    -1  
$EndComp
NoConn ~ 7300 6200
NoConn ~ 7300 6300
$Comp
L Device:R_Small_US R?
U 1 1 5CF6A6BC
P 10000 5750
F 0 "R?" H 9932 5704 50  0000 R CNN
F 1 "10k" H 9932 5795 50  0000 R CNN
F 2 "" H 10000 5750 50  0001 C CNN
F 3 "~" H 10000 5750 50  0001 C CNN
	1    10000 5750
	-1   0    0    1   
$EndComp
$Comp
L Device:Crystal Y?
U 1 1 5CF68C07
P 6250 6350
F 0 "Y?" V 6204 6481 50  0000 L CNN
F 1 "24MHz" V 6295 6481 50  0000 L CNN
F 2 "" H 6250 6350 50  0001 C CNN
F 3 "~" H 6250 6350 50  0001 C CNN
	1    6250 6350
	0    1    1    0   
$EndComp
$Comp
L power:+3.3V #PWR?
U 1 1 5CE3FAC4
P 10000 5500
F 0 "#PWR?" H 10000 5350 50  0001 C CNN
F 1 "+3.3V" H 10015 5673 50  0000 C CNN
F 2 "" H 10000 5500 50  0001 C CNN
F 3 "" H 10000 5500 50  0001 C CNN
	1    10000 5500
	1    0    0    -1  
$EndComp
Wire Wire Line
	10000 6100 9800 6100
Wire Wire Line
	10000 5850 10000 6100
Wire Wire Line
	10000 5650 10000 5550
Wire Wire Line
	10000 5550 9900 5550
Wire Wire Line
	9900 5550 9900 6000
Connection ~ 10000 5550
Wire Wire Line
	10000 5550 10000 5500
Wire Wire Line
	7300 6400 6800 6400
Wire Wire Line
	6800 6400 6800 6200
Wire Wire Line
	6800 6200 6250 6200
$Comp
L Device:C_Small C?
U 1 1 5D281629
P 6000 6200
F 0 "C?" V 5771 6200 50  0000 C CNN
F 1 "18pF" V 5862 6200 50  0000 C CNN
F 2 "" H 6000 6200 50  0001 C CNN
F 3 "~" H 6000 6200 50  0001 C CNN
	1    6000 6200
	0    1    1    0   
$EndComp
$Comp
L Device:C_Small C?
U 1 1 5D283016
P 6000 6500
F 0 "C?" V 6200 6500 50  0000 C CNN
F 1 "18pF" V 6100 6500 50  0000 C CNN
F 2 "" H 6000 6500 50  0001 C CNN
F 3 "~" H 6000 6500 50  0001 C CNN
	1    6000 6500
	0    -1   1    0   
$EndComp
Wire Wire Line
	6250 6200 6100 6200
Connection ~ 6250 6200
Wire Wire Line
	6100 6500 6250 6500
Connection ~ 6250 6500
Wire Wire Line
	5900 6200 5850 6200
Wire Wire Line
	5850 6200 5850 6350
Wire Wire Line
	5850 6500 5900 6500
$Comp
L power:GND #PWR?
U 1 1 5D329C13
P 5750 6350
AR Path="/5BE7857C/5D329C13" Ref="#PWR?"  Part="1" 
AR Path="/5D329C13" Ref="#PWR?"  Part="1" 
F 0 "#PWR?" H 5750 6100 50  0001 C CNN
F 1 "GND" H 5755 6177 50  0000 C CNN
F 2 "" H 5750 6350 50  0001 C CNN
F 3 "" H 5750 6350 50  0001 C CNN
	1    5750 6350
	1    0    0    -1  
$EndComp
Wire Wire Line
	5850 6350 5750 6350
Connection ~ 5850 6350
Wire Wire Line
	5850 6350 5850 6500
$Comp
L Device:R_US R?
U 1 1 5D344501
P 6900 7600
AR Path="/5BE7857C/5D344501" Ref="R?"  Part="1" 
AR Path="/5D344501" Ref="R?"  Part="1" 
F 0 "R?" H 6968 7646 50  0000 L CNN
F 1 "100k" H 6968 7555 50  0000 L CNN
F 2 "Resistor_SMD:R_0402_1005Metric" V 6940 7590 50  0001 C CNN
F 3 "http://www.yageo.com/documents/recent/PYu-RT_1-to-0.01_RoHS_L_9.pdf" H 6900 7600 50  0001 C CNN
F 4 "RT0402BRD07100KL" H -1600 3850 50  0001 C CNN "MPN"
F 5 "Yageo" H -1600 3850 50  0001 C CNN "Manf"
	1    6900 7600
	1    0    0    -1  
$EndComp
Wire Wire Line
	6600 7100 7300 7100
Wire Wire Line
	7300 7200 6900 7200
Wire Wire Line
	6900 7200 6900 7450
Wire Wire Line
	6900 7750 6900 7800
$Comp
L power:GND #PWR?
U 1 1 5D3AE134
P 6900 7800
AR Path="/5BE7857C/5D3AE134" Ref="#PWR?"  Part="1" 
AR Path="/5D3AE134" Ref="#PWR?"  Part="1" 
F 0 "#PWR?" H 6900 7550 50  0001 C CNN
F 1 "GND" H 6905 7627 50  0000 C CNN
F 2 "" H 6900 7800 50  0001 C CNN
F 3 "" H 6900 7800 50  0001 C CNN
	1    6900 7800
	1    0    0    -1  
$EndComp
NoConn ~ 9800 6200
NoConn ~ 9800 6300
NoConn ~ 9800 6400
$Comp
L power:GND #PWR?
U 1 1 5D3AD67E
P 6600 7800
AR Path="/5BE7857C/5D3AD67E" Ref="#PWR?"  Part="1" 
AR Path="/5D3AD67E" Ref="#PWR?"  Part="1" 
F 0 "#PWR?" H 6600 7550 50  0001 C CNN
F 1 "GND" H 6605 7627 50  0000 C CNN
F 2 "" H 6600 7800 50  0001 C CNN
F 3 "" H 6600 7800 50  0001 C CNN
	1    6600 7800
	1    0    0    -1  
$EndComp
Wire Wire Line
	6600 7750 6600 7800
Wire Wire Line
	6600 7450 6600 7100
$Comp
L Device:R_US R?
U 1 1 5D34670A
P 6600 7600
AR Path="/5BE7857C/5D34670A" Ref="R?"  Part="1" 
AR Path="/5D34670A" Ref="R?"  Part="1" 
F 0 "R?" H 6668 7646 50  0000 L CNN
F 1 "100k" H 6668 7555 50  0000 L CNN
F 2 "Resistor_SMD:R_0402_1005Metric" V 6640 7590 50  0001 C CNN
F 3 "http://www.yageo.com/documents/recent/PYu-RT_1-to-0.01_RoHS_L_9.pdf" H 6600 7600 50  0001 C CNN
F 4 "RT0402BRD07100KL" H -1900 3850 50  0001 C CNN "MPN"
F 5 "Yageo" H -1900 3850 50  0001 C CNN "Manf"
	1    6600 7600
	1    0    0    -1  
$EndComp
$Comp
L Device:R_US R?
U 1 1 5D59B4D0
P 6000 7150
AR Path="/5BE7857C/5D59B4D0" Ref="R?"  Part="1" 
AR Path="/5D59B4D0" Ref="R?"  Part="1" 
F 0 "R?" H 6068 7196 50  0000 L CNN
F 1 "100k" H 6068 7105 50  0000 L CNN
F 2 "Resistor_SMD:R_0402_1005Metric" V 6040 7140 50  0001 C CNN
F 3 "http://www.yageo.com/documents/recent/PYu-RT_1-to-0.01_RoHS_L_9.pdf" H 6000 7150 50  0001 C CNN
F 4 "RT0402BRD07100KL" H -2500 3400 50  0001 C CNN "MPN"
F 5 "Yageo" H -2500 3400 50  0001 C CNN "Manf"
	1    6000 7150
	1    0    0    -1  
$EndComp
$Comp
L Device:R_US R?
U 1 1 5D59C35C
P 6300 7150
AR Path="/5BE7857C/5D59C35C" Ref="R?"  Part="1" 
AR Path="/5D59C35C" Ref="R?"  Part="1" 
F 0 "R?" H 6368 7196 50  0000 L CNN
F 1 "100k" H 6368 7105 50  0000 L CNN
F 2 "Resistor_SMD:R_0402_1005Metric" V 6340 7140 50  0001 C CNN
F 3 "http://www.yageo.com/documents/recent/PYu-RT_1-to-0.01_RoHS_L_9.pdf" H 6300 7150 50  0001 C CNN
F 4 "RT0402BRD07100KL" H -2200 3400 50  0001 C CNN "MPN"
F 5 "Yageo" H -2200 3400 50  0001 C CNN "Manf"
	1    6300 7150
	1    0    0    -1  
$EndComp
Wire Wire Line
	6300 7300 7300 7300
Wire Wire Line
	6000 7400 6000 7300
Wire Wire Line
	6000 7400 7300 7400
Wire Wire Line
	6000 7000 6000 6950
Wire Wire Line
	6300 7000 6300 6950
Wire Wire Line
	6000 6950 6300 6950
$Comp
L power:+3.3V #PWR?
U 1 1 5D620FEA
P 6300 6950
F 0 "#PWR?" H 6300 6800 50  0001 C CNN
F 1 "+3.3V" H 6315 7123 50  0000 C CNN
F 2 "" H 6300 6950 50  0001 C CNN
F 3 "" H 6300 6950 50  0001 C CNN
	1    6300 6950
	1    0    0    -1  
$EndComp
Connection ~ 6300 6950
Wire Wire Line
	6250 6500 7300 6500
NoConn ~ 9800 6700
NoConn ~ 9800 6800
Wire Wire Line
	10800 7600 10700 7600
Wire Wire Line
	10700 7600 10700 7100
$Comp
L power:+5V #PWR?
U 1 1 5D7F9C1D
P 10700 7100
AR Path="/5BE7857C/5D7F9C1D" Ref="#PWR?"  Part="1" 
AR Path="/5D7F9C1D" Ref="#PWR?"  Part="1" 
F 0 "#PWR?" H 10700 6950 50  0001 C CNN
F 1 "+5V" H 10715 7273 50  0000 C CNN
F 2 "" H 10700 7100 50  0001 C CNN
F 3 "" H 10700 7100 50  0001 C CNN
	1    10700 7100
	1    0    0    -1  
$EndComp
Connection ~ 10000 6100
$Comp
L Device:R_Small_US R?
U 1 1 5D816C79
P 10300 6100
F 0 "R?" V 10095 6100 50  0000 C CNN
F 1 "0" V 10186 6100 50  0000 C CNN
F 2 "" H 10300 6100 50  0001 C CNN
F 3 "~" H 10300 6100 50  0001 C CNN
	1    10300 6100
	0    1    1    0   
$EndComp
Wire Wire Line
	10000 6100 10200 6100
$Comp
L Switch:SW_Push SW?
U 1 1 5CD903F4
P 5200 2100
F 0 "SW?" H 5200 2400 50  0000 C CNN
F 1 "SHUTDWN" H 5200 2300 50  0000 C CNN
F 2 "" H 5200 2300 50  0001 C CNN
F 3 "~" H 5200 2300 50  0001 C CNN
	1    5200 2100
	1    0    0    -1  
$EndComp
$Comp
L power:GND #PWR?
U 1 1 5CE524A6
P 5500 2150
AR Path="/5BE7857C/5CE524A6" Ref="#PWR?"  Part="1" 
AR Path="/5CE524A6" Ref="#PWR?"  Part="1" 
F 0 "#PWR?" H 5500 1900 50  0001 C CNN
F 1 "GND" H 5505 1977 50  0000 C CNN
F 2 "" H 5500 2150 50  0001 C CNN
F 3 "" H 5500 2150 50  0001 C CNN
	1    5500 2150
	1    0    0    -1  
$EndComp
Wire Notes Line
	13750 4750 14950 4750
Text Notes 14650 5400 0    50   ~ 0
HDMI
Text Notes 14250 7500 0    50   ~ 0
DPI Display
Wire Notes Line
	14950 6050 13750 6050
Wire Notes Line
	13750 4450 14950 4450
Text Notes 14400 4600 0    50   ~ 0
USB Controls
Wire Notes Line
	13750 3650 14950 3650
Wire Notes Line
	14950 3650 14950 8950
Text Notes 14650 3800 0    50   ~ 0
Audio
Text Label 4450 2100 0    50   ~ 0
SHUTDOWN
Wire Wire Line
	4300 2100 5000 2100
Wire Wire Line
	5500 2100 5500 2150
Wire Wire Line
	5400 2100 5500 2100
Wire Wire Line
	13750 4050 13250 4050
Wire Wire Line
	13750 4150 13250 4150
Wire Wire Line
	13750 4250 13250 4250
Wire Wire Line
	13750 4350 13250 4350
Wire Wire Line
	13250 3850 13750 3850
Wire Wire Line
	13250 3750 13750 3750
Wire Wire Line
	13750 4950 13250 4950
Wire Wire Line
	13750 5050 13250 5050
Wire Wire Line
	13750 5150 13250 5150
Wire Wire Line
	13750 5250 13250 5250
Wire Wire Line
	13750 5350 13250 5350
Wire Wire Line
	13750 5450 13250 5450
Wire Wire Line
	13750 5550 13250 5550
Wire Wire Line
	13750 5650 13250 5650
Wire Wire Line
	13750 5750 13250 5750
Wire Wire Line
	13750 5850 13250 5850
Wire Wire Line
	13750 5950 13250 5950
Wire Wire Line
	13750 6150 13250 6150
Wire Wire Line
	13750 6250 13250 6250
Wire Wire Line
	13750 6350 13250 6350
Wire Wire Line
	13750 6450 13250 6450
Wire Wire Line
	13750 6550 13250 6550
Wire Wire Line
	13750 6650 13250 6650
Wire Wire Line
	13750 6750 13250 6750
Wire Wire Line
	13750 6850 13250 6850
Wire Wire Line
	13750 6950 13250 6950
Wire Wire Line
	13750 7050 13250 7050
Wire Wire Line
	13750 7150 13250 7150
Wire Wire Line
	13750 7250 13250 7250
Wire Wire Line
	13750 7350 13250 7350
Wire Wire Line
	13750 7450 13250 7450
Wire Wire Line
	13750 7550 13250 7550
Wire Wire Line
	13750 7650 13250 7650
Wire Wire Line
	13750 7750 13250 7750
Wire Wire Line
	13750 7850 13250 7850
Wire Wire Line
	13750 7950 13250 7950
Wire Wire Line
	13750 8050 13250 8050
Wire Wire Line
	13750 8150 13250 8150
Wire Wire Line
	13750 8250 13250 8250
Wire Wire Line
	13750 8350 13250 8350
Wire Wire Line
	13750 8450 13250 8450
Wire Wire Line
	13750 8550 13250 8550
Wire Wire Line
	13750 8650 13250 8650
Wire Wire Line
	13750 8750 13250 8750
Wire Wire Line
	13750 8850 13250 8850
Text Label 13250 6150 0    50   ~ 0
PCLK
Text Label 13250 6250 0    50   ~ 0
HSYNC
Text Label 13250 6350 0    50   ~ 0
VSYNC
Text Label 13250 6450 0    50   ~ 0
DE
Text Label 13250 6550 0    50   ~ 0
R0
Text Label 13250 6650 0    50   ~ 0
R1
Text Label 13250 6750 0    50   ~ 0
R2
Text Label 13250 6850 0    50   ~ 0
R3
Text Label 13250 6950 0    50   ~ 0
R4
Text Label 13250 7050 0    50   ~ 0
R5
Text Label 13250 7150 0    50   ~ 0
R6
Text Label 13250 7250 0    50   ~ 0
R7
Text Label 13250 7350 0    50   ~ 0
G0
Text Label 13250 7450 0    50   ~ 0
G1
Text Label 13250 7550 0    50   ~ 0
G2
Text Label 13250 7650 0    50   ~ 0
G3
Text Label 13250 7750 0    50   ~ 0
G4
Text Label 13250 7850 0    50   ~ 0
G5
Text Label 13250 7950 0    50   ~ 0
G6
Text Label 13250 8050 0    50   ~ 0
G7
Text Label 13250 8150 0    50   ~ 0
B0
Text Label 13250 8250 0    50   ~ 0
B1
Text Label 13250 8350 0    50   ~ 0
B2
Text Label 13250 8450 0    50   ~ 0
B3
Text Label 13250 8550 0    50   ~ 0
B4
Text Label 13250 8650 0    50   ~ 0
B5
Text Label 13250 8750 0    50   ~ 0
B6
Text Label 13250 8850 0    50   ~ 0
B7
Text Label 13050 4850 0    50   ~ 0
HDMI_HPD_N_1V8
Wire Wire Line
	13050 4850 13750 4850
Text Label 13250 4950 0    50   ~ 0
HDMI_SCL
Text Label 13250 5050 0    50   ~ 0
HDMI_SDA
Text Label 13250 5150 0    50   ~ 0
HDMI_CEC
Text Label 13250 5250 0    50   ~ 0
HDMI_D2_P
Text Label 13250 5350 0    50   ~ 0
HDMI_D2_N
Text Label 13250 5450 0    50   ~ 0
HDMI_D1_P
Text Label 13250 5550 0    50   ~ 0
HDMI_D1_N
Text Label 13250 5650 0    50   ~ 0
HDMI_D0_P
Text Label 13250 5750 0    50   ~ 0
HDMI_D0_N
Text Label 13250 5850 0    50   ~ 0
HDMI_CLK_P
Text Label 13250 5950 0    50   ~ 0
HDMI_CLK_N
Text Label 13250 3750 0    50   ~ 0
AUD_PWM0
Text Label 13250 3850 0    50   ~ 0
AUD_PWM1
Text Label 13250 4050 0    50   ~ 0
CTS0
Text Label 13250 4150 0    50   ~ 0
RTS0
Text Label 13250 4250 0    50   ~ 0
TXD
Text Label 13250 4350 0    50   ~ 0
RXD
Text Label 13200 4550 0    50   ~ 0
CTRL_USB_D-
Text Label 13200 4650 0    50   ~ 0
CTRL_USB_D+
Wire Wire Line
	4300 3300 4950 3300
Text Label 4950 3300 2    50   ~ 0
~USB_RESET_N
Text Label 11000 6100 2    50   ~ 0
~USB_RESET_N
Wire Wire Line
	11000 6100 10400 6100
Text Notes 10100 5500 0    50   ~ 0
100mA MAX
$EndSCHEMATC
