EESchema Schematic File Version 4
LIBS:GameIO-cache
EELAYER 29 0
EELAYER END
$Descr B 17000 11000
encoding utf-8
Sheet 3 3
Title ""
Date ""
Rev ""
Comp ""
Comment1 ""
Comment2 ""
Comment3 ""
Comment4 ""
$EndDescr
$Comp
L GameIO:54132-4062 J?
U 1 1 5CDE2887
P 2350 1850
AR Path="/5BE78A7B/5CDE2887" Ref="J?"  Part="1" 
AR Path="/5BE7857C/5CDE2887" Ref="J?"  Part="1" 
F 0 "J?" H 2350 2537 60  0000 C CNN
F 1 "54132-4062" H 2350 2431 60  0000 C CNN
F 2 "GameIO:MOLEX_0541324062" H 2000 2300 60  0001 C CNN
F 3 "" H 2100 2400 60  0001 C CNN
F 4 "54132-4062" H 2350 2475 118 0001 C CNN "MPN"
F 5 "Molex" H 2350 2668 118 0001 C CNN "Manf"
	1    2350 1850
	1    0    0    -1  
$EndComp
Wire Notes Line
	600  600  4000 600 
Wire Notes Line
	4000 600  4000 3950
Wire Notes Line
	4000 3950 600  3950
Wire Notes Line
	600  3950 600  600 
Text Notes 2000 850  0    118  ~ 24
Display
Wire Wire Line
	2850 1450 2950 1450
Wire Wire Line
	2850 1550 2950 1550
Wire Wire Line
	2850 1650 2950 1650
Wire Wire Line
	2850 1750 2950 1750
Wire Wire Line
	2850 1850 2950 1850
Wire Wire Line
	2850 1950 2950 1950
Wire Wire Line
	2850 2050 2950 2050
Wire Wire Line
	2850 2150 2950 2150
Wire Wire Line
	2850 2250 2950 2250
Wire Wire Line
	2850 2350 2950 2350
Wire Wire Line
	2850 2450 2950 2450
Wire Wire Line
	2850 2550 2950 2550
Wire Wire Line
	2850 2650 2950 2650
Wire Wire Line
	2850 2750 2950 2750
Wire Wire Line
	2850 2850 2950 2850
Wire Wire Line
	2850 2950 2950 2950
Wire Wire Line
	1850 1850 1650 1850
Wire Wire Line
	1850 1950 1650 1950
Wire Wire Line
	1850 2050 1650 2050
Wire Wire Line
	1850 2150 1650 2150
Wire Wire Line
	1850 2250 1650 2250
Wire Wire Line
	1850 2350 1650 2350
Wire Wire Line
	1850 2450 1650 2450
Wire Wire Line
	1850 2550 1650 2550
Wire Wire Line
	2850 3350 2900 3350
Wire Wire Line
	2900 3350 2900 3500
Wire Wire Line
	1850 3350 1800 3350
Wire Wire Line
	1800 3350 1800 3500
$Comp
L power:GND #PWR?
U 1 1 5CDE28BE
P 2900 3500
F 0 "#PWR?" H 2900 3250 50  0001 C CNN
F 1 "GND" H 2905 3327 50  0000 C CNN
F 2 "" H 2900 3500 50  0001 C CNN
F 3 "" H 2900 3500 50  0001 C CNN
	1    2900 3500
	1    0    0    -1  
$EndComp
$Comp
L power:GND #PWR?
U 1 1 5CDE28C4
P 1800 3500
F 0 "#PWR?" H 1800 3250 50  0001 C CNN
F 1 "GND" H 1805 3327 50  0000 C CNN
F 2 "" H 1800 3500 50  0001 C CNN
F 3 "" H 1800 3500 50  0001 C CNN
	1    1800 3500
	1    0    0    -1  
$EndComp
Wire Wire Line
	1850 1650 1800 1650
Wire Wire Line
	1800 1650 1800 3350
Connection ~ 1800 3350
Wire Wire Line
	1850 2650 1650 2650
Wire Wire Line
	1650 3050 1850 3050
Wire Wire Line
	1850 2950 1650 2950
Wire Wire Line
	1850 2850 1650 2850
Wire Wire Line
	1850 1750 1100 1750
Wire Wire Line
	1100 1750 1100 1700
Wire Wire Line
	1100 1750 1100 1800
Connection ~ 1100 1750
$Comp
L Device:C_Small C?
U 1 1 5CDE28E3
P 1100 1900
F 0 "C?" H 1192 1946 50  0000 L CNN
F 1 "1uF" H 1192 1855 50  0000 L CNN
F 2 "Capacitor_SMD:C_0603_1608Metric" H 1100 1900 50  0001 C CNN
F 3 "~" H 1100 1900 50  0001 C CNN
F 4 "CL10A105KB8NNNC" H -8600 50  50  0001 C CNN "MPN"
F 5 "Samsung" H -8600 50  50  0001 C CNN "Manf"
	1    1100 1900
	1    0    0    -1  
$EndComp
$Comp
L power:GND #PWR?
U 1 1 5CDE28E9
P 1100 2050
F 0 "#PWR?" H 1100 1800 50  0001 C CNN
F 1 "GND" H 1105 1877 50  0000 C CNN
F 2 "" H 1100 2050 50  0001 C CNN
F 3 "" H 1100 2050 50  0001 C CNN
	1    1100 2050
	1    0    0    -1  
$EndComp
Wire Wire Line
	1100 2050 1100 2000
$Comp
L power:+3V3 #PWR?
U 1 1 5CDE28F0
P 1100 1700
F 0 "#PWR?" H 1100 1550 50  0001 C CNN
F 1 "+3V3" H 1115 1873 50  0000 C CNN
F 2 "" H 1100 1700 50  0001 C CNN
F 3 "" H 1100 1700 50  0001 C CNN
	1    1100 1700
	1    0    0    -1  
$EndComp
Wire Wire Line
	1850 1450 1700 1450
Wire Wire Line
	1850 1550 1700 1550
NoConn ~ 1850 2750
Wire Notes Line
	4100 600  9150 600 
Wire Notes Line
	9150 600  9150 3100
Wire Notes Line
	9150 3100 4100 3100
Text Notes 6400 850  0    118  ~ 24
Audio
$Comp
L Device:R_US R?
U 1 1 5CDE2900
P 6200 2400
AR Path="/5BE78A7B/5CDE2900" Ref="R?"  Part="1" 
AR Path="/5BE7857C/5CDE2900" Ref="R?"  Part="1" 
F 0 "R?" V 5995 2400 50  0000 C CNN
F 1 "220" V 6086 2400 50  0000 C CNN
F 2 "Resistor_SMD:R_0402_1005Metric" V 6240 2390 50  0001 C CNN
F 3 "http://www.yageo.com/documents/recent/PYu-RC_Group_51_RoHS_L_10.pdf" H 6200 2400 50  0001 C CNN
F 4 "RC0402FR-07220RL" H -4100 -3350 50  0001 C CNN "MPN"
F 5 "Yageo" H -4100 -3350 50  0001 C CNN "Manf"
	1    6200 2400
	0    1    1    0   
$EndComp
$Comp
L Device:R_US R?
U 1 1 5CDE2908
P 6900 2550
AR Path="/5BE78A7B/5CDE2908" Ref="R?"  Part="1" 
AR Path="/5BE7857C/5CDE2908" Ref="R?"  Part="1" 
F 0 "R?" H 6832 2504 50  0000 R CNN
F 1 "100" H 6832 2595 50  0000 R CNN
F 2 "Resistor_SMD:R_0402_1005Metric" V 6940 2540 50  0001 C CNN
F 3 "http://www.yageo.com/documents/recent/PYu-RC_Group_51_RoHS_L_10.pdf" H 6900 2550 50  0001 C CNN
F 4 "RT0402BRD07100RL" H -4250 -3350 50  0001 C CNN "MPN"
F 5 "Yageo" H -4250 -3350 50  0001 C CNN "Manf"
	1    6900 2550
	-1   0    0    1   
$EndComp
$Comp
L Device:C C?
U 1 1 5CDE2910
P 6450 2550
AR Path="/5BE78A7B/5CDE2910" Ref="C?"  Part="1" 
AR Path="/5BE7857C/5CDE2910" Ref="C?"  Part="1" 
F 0 "C?" H 6565 2596 50  0000 L CNN
F 1 "100nF" H 6565 2505 50  0000 L CNN
F 2 "Capacitor_SMD:C_0402_1005Metric" H 6488 2400 50  0001 C CNN
F 3 "~" H 6450 2550 50  0001 C CNN
F 4 "CL05A104KA5NNNC" H -4300 -3350 50  0001 C CNN "MPN"
F 5 "Samsung" H -4300 -3350 50  0001 C CNN "Manf"
	1    6450 2550
	1    0    0    -1  
$EndComp
Wire Wire Line
	6450 2700 6450 2750
Wire Wire Line
	6450 2750 6700 2750
Wire Wire Line
	6900 2750 6900 2700
Wire Wire Line
	6700 2750 6700 2800
Connection ~ 6700 2750
Wire Wire Line
	6700 2750 6900 2750
$Comp
L power:GND #PWR?
U 1 1 5CDE291C
P 6700 2800
AR Path="/5BE78A7B/5CDE291C" Ref="#PWR?"  Part="1" 
AR Path="/5BE7857C/5CDE291C" Ref="#PWR?"  Part="1" 
F 0 "#PWR?" H 6700 2550 50  0001 C CNN
F 1 "GND" H 6705 2627 50  0000 C CNN
F 2 "" H 6700 2800 50  0001 C CNN
F 3 "" H 6700 2800 50  0001 C CNN
	1    6700 2800
	1    0    0    -1  
$EndComp
Wire Wire Line
	6350 2400 6450 2400
Wire Wire Line
	6900 2400 6450 2400
Connection ~ 6450 2400
Wire Wire Line
	6050 2400 6000 2400
$Comp
L Device:C C?
U 1 1 5CDE2928
P 7200 2400
AR Path="/5BE78A7B/5CDE2928" Ref="C?"  Part="1" 
AR Path="/5BE7857C/5CDE2928" Ref="C?"  Part="1" 
F 0 "C?" V 6948 2400 50  0000 C CNN
F 1 "100nF" V 7039 2400 50  0000 C CNN
F 2 "Capacitor_SMD:C_0402_1005Metric" H 7238 2250 50  0001 C CNN
F 3 "~" H 7200 2400 50  0001 C CNN
F 4 "CL05A104KA5NNNC" H -4350 -3350 50  0001 C CNN "MPN"
F 5 "Samsung" H -4350 -3350 50  0001 C CNN "Manf"
	1    7200 2400
	0    1    1    0   
$EndComp
Wire Wire Line
	7050 2400 6900 2400
Connection ~ 6900 2400
$Comp
L GameIO:35RASMT4BHNTRX J?
U 1 1 5CDE2932
P 8150 2050
AR Path="/5BE78A7B/5CDE2932" Ref="J?"  Part="1" 
AR Path="/5BE7857C/5CDE2932" Ref="J?"  Part="1" 
F 0 "J?" H 7400 2350 50  0000 R CNN
F 1 "35RASMT4BHNTRX" H 8000 1750 50  0000 R CNN
F 2 "GameIO:SWITCHCRAFT_35RASMT4BHNTRX" H 8150 2050 50  0001 L BNN
F 3 "http://www.switchcraft.com/Drawings/35rasmt4bhntrx_cd.pdf" H 8150 2050 50  0001 L BNN
F 4 "Switchcraft" H 8150 2050 50  0001 L BNN "Manf"
F 5 "35RASMT4BHNTRX" H 8150 2050 50  0001 L BNN "MPN"
	1    8150 2050
	-1   0    0    -1  
$EndComp
$Comp
L Device:R_US R?
U 1 1 5CDE293A
P 6200 1700
AR Path="/5BE78A7B/5CDE293A" Ref="R?"  Part="1" 
AR Path="/5BE7857C/5CDE293A" Ref="R?"  Part="1" 
F 0 "R?" V 5995 1700 50  0000 C CNN
F 1 "220" V 6086 1700 50  0000 C CNN
F 2 "Resistor_SMD:R_0402_1005Metric" V 6240 1690 50  0001 C CNN
F 3 "http://www.yageo.com/documents/recent/PYu-RC_Group_51_RoHS_L_10.pdf" H 6200 1700 50  0001 C CNN
F 4 "RC0402FR-07220RL" H -4100 -3350 50  0001 C CNN "MPN"
F 5 "Yageo" H -4100 -3350 50  0001 C CNN "Manf"
	1    6200 1700
	0    1    1    0   
$EndComp
$Comp
L Device:R_US R?
U 1 1 5CDE2942
P 6900 1850
AR Path="/5BE78A7B/5CDE2942" Ref="R?"  Part="1" 
AR Path="/5BE7857C/5CDE2942" Ref="R?"  Part="1" 
F 0 "R?" H 6832 1804 50  0000 R CNN
F 1 "100" H 6832 1895 50  0000 R CNN
F 2 "Resistor_SMD:R_0402_1005Metric" V 6940 1840 50  0001 C CNN
F 3 "http://www.yageo.com/documents/recent/PYu-RC_Group_51_RoHS_L_10.pdf" H 6900 1850 50  0001 C CNN
F 4 "RT0402BRD07100RL" H -4250 -3350 50  0001 C CNN "MPN"
F 5 "Yageo" H -4250 -3350 50  0001 C CNN "Manf"
	1    6900 1850
	-1   0    0    1   
$EndComp
$Comp
L Device:C C?
U 1 1 5CDE294A
P 6450 1850
AR Path="/5BE78A7B/5CDE294A" Ref="C?"  Part="1" 
AR Path="/5BE7857C/5CDE294A" Ref="C?"  Part="1" 
F 0 "C?" H 6565 1896 50  0000 L CNN
F 1 "100nF" H 6565 1805 50  0000 L CNN
F 2 "Capacitor_SMD:C_0402_1005Metric" H 6488 1700 50  0001 C CNN
F 3 "~" H 6450 1850 50  0001 C CNN
F 4 "CL05A104KA5NNNC" H -4300 -3350 50  0001 C CNN "MPN"
F 5 "Samsung" H -4300 -3350 50  0001 C CNN "Manf"
	1    6450 1850
	1    0    0    -1  
$EndComp
Wire Wire Line
	6450 2000 6450 2050
Wire Wire Line
	6450 2050 6700 2050
Wire Wire Line
	6900 2050 6900 2000
Wire Wire Line
	6700 2050 6700 2100
Connection ~ 6700 2050
Wire Wire Line
	6700 2050 6900 2050
$Comp
L power:GND #PWR?
U 1 1 5CDE2956
P 6700 2100
AR Path="/5BE78A7B/5CDE2956" Ref="#PWR?"  Part="1" 
AR Path="/5BE7857C/5CDE2956" Ref="#PWR?"  Part="1" 
F 0 "#PWR?" H 6700 1850 50  0001 C CNN
F 1 "GND" H 6705 1927 50  0000 C CNN
F 2 "" H 6700 2100 50  0001 C CNN
F 3 "" H 6700 2100 50  0001 C CNN
	1    6700 2100
	1    0    0    -1  
$EndComp
Wire Wire Line
	6350 1700 6450 1700
Wire Wire Line
	6900 1700 6450 1700
Connection ~ 6450 1700
$Comp
L Device:C C?
U 1 1 5CDE2962
P 7200 1700
AR Path="/5BE78A7B/5CDE2962" Ref="C?"  Part="1" 
AR Path="/5BE7857C/5CDE2962" Ref="C?"  Part="1" 
F 0 "C?" V 6948 1700 50  0000 C CNN
F 1 "100nF" V 7039 1700 50  0000 C CNN
F 2 "Capacitor_SMD:C_0402_1005Metric" H 7238 1550 50  0001 C CNN
F 3 "~" H 7200 1700 50  0001 C CNN
F 4 "CL05A104KA5NNNC" H -4350 -3350 50  0001 C CNN "MPN"
F 5 "Samsung" H -4350 -3350 50  0001 C CNN "Manf"
	1    7200 1700
	0    1    1    0   
$EndComp
Wire Wire Line
	7050 1700 6900 1700
Connection ~ 6900 1700
Wire Wire Line
	7350 2400 7850 2400
Wire Wire Line
	7350 1700 7850 1700
Text Label 7400 2400 0    50   ~ 0
AUD_OUT_L
Text Label 7400 1700 0    50   ~ 0
AUD_OUT_R
Wire Wire Line
	7850 1700 7850 1850
Wire Wire Line
	7850 1850 8150 1850
Wire Wire Line
	7850 2400 7850 2150
Wire Wire Line
	7850 2150 8150 2150
Wire Wire Line
	8150 2250 8100 2250
Wire Wire Line
	8100 2250 8100 2350
$Comp
L power:GND #PWR?
U 1 1 5CDE2974
P 8100 2350
AR Path="/5BE78A7B/5CDE2974" Ref="#PWR?"  Part="1" 
AR Path="/5BE7857C/5CDE2974" Ref="#PWR?"  Part="1" 
F 0 "#PWR?" H 8100 2100 50  0001 C CNN
F 1 "GND" H 8105 2177 50  0000 C CNN
F 2 "" H 8100 2350 50  0001 C CNN
F 3 "" H 8100 2350 50  0001 C CNN
	1    8100 2350
	1    0    0    -1  
$EndComp
$Comp
L Device:Speaker LS?
U 1 1 5CDE297C
P 8750 1200
AR Path="/5BE78A7B/5CDE297C" Ref="LS?"  Part="1" 
AR Path="/5BE7857C/5CDE297C" Ref="LS?"  Part="1" 
F 0 "LS?" H 8600 1550 50  0000 L CNN
F 1 "Speaker" H 8600 1450 50  0000 L CNN
F 2 "GameIO:SPKR" H 8750 1000 50  0001 C CNN
F 3 "https://www.cui.com/product/resource/digikeypdf/cds-25148-l100.pdf" H 8740 1150 50  0001 C CNN
F 4 "CDS-25148-L100" H -4500 -3350 50  0001 C CNN "MPN"
F 5 "CUI" H -4500 -3350 50  0001 C CNN "Manf"
	1    8750 1200
	1    0    0    -1  
$EndComp
Wire Wire Line
	8150 1950 8050 1950
Wire Wire Line
	8050 1950 8050 1300
Wire Wire Line
	8050 1300 8550 1300
Wire Wire Line
	7950 2050 7950 1200
Wire Wire Line
	7950 1200 8550 1200
Wire Wire Line
	7950 2050 8150 2050
Text Label 8200 1300 0    50   ~ 0
SPKR+
Text Label 8200 1200 0    50   ~ 0
SPKR-
Text GLabel 1700 1450 0    50   UnSpc ~ 0
LED-
Text GLabel 1700 1550 0    50   UnSpc ~ 0
LED+
$Comp
L Connector:HDMI_A_1.4 J?
U 1 1 5CDE2A26
P 3150 8150
F 0 "J?" H 2850 9200 50  0000 L CNN
F 1 "HDMI_A_1.4" H 3200 9200 50  0000 L CNN
F 2 "GameIO:HDMI_10029449-111RLF" H 3175 8150 50  0001 C CNN
F 3 "https://en.wikipedia.org/wiki/HDMI" H 3175 8150 50  0001 C CNN
F 4 "10029449-111RLF" H -9700 150 50  0001 C CNN "MPN"
F 5 "Amphenol" H -9700 150 50  0001 C CNN "Manf"
	1    3150 8150
	1    0    0    -1  
$EndComp
Wire Wire Line
	2950 9250 2950 9350
Wire Wire Line
	2950 9350 3050 9350
Wire Wire Line
	3450 9350 3450 9250
Wire Wire Line
	3350 9250 3350 9350
Connection ~ 3350 9350
Wire Wire Line
	3350 9350 3450 9350
Wire Wire Line
	3250 9250 3250 9350
Connection ~ 3250 9350
Wire Wire Line
	3250 9350 3350 9350
Wire Wire Line
	3150 9250 3150 9350
Connection ~ 3150 9350
Wire Wire Line
	3150 9350 3200 9350
Wire Wire Line
	3050 9250 3050 9350
Connection ~ 3050 9350
Wire Wire Line
	3050 9350 3150 9350
Wire Wire Line
	3200 9350 3200 9400
Connection ~ 3200 9350
Wire Wire Line
	3200 9350 3250 9350
$Comp
L power:GND #PWR?
U 1 1 5CDE2A3E
P 3200 9400
AR Path="/5BE78A7B/5CDE2A3E" Ref="#PWR?"  Part="1" 
AR Path="/5BE7857C/5CDE2A3E" Ref="#PWR?"  Part="1" 
F 0 "#PWR?" H 3200 9150 50  0001 C CNN
F 1 "GND" H 3205 9227 50  0000 C CNN
F 2 "" H 3200 9400 50  0001 C CNN
F 3 "" H 3200 9400 50  0001 C CNN
	1    3200 9400
	1    0    0    -1  
$EndComp
$Comp
L Device:Q_NMOS_DGS Q?
U 1 1 5CDE2A46
P 1350 9450
F 0 "Q?" V 1600 9400 50  0000 L CNN
F 1 "DMG1012T" V 1700 9400 50  0000 L CNN
F 2 "GameIO:SOT523" H 1550 9550 50  0001 C CNN
F 3 "https://www.diodes.com/assets/Datasheets/ds31783.pdf" H 1350 9450 50  0001 C CNN
F 4 "DMG1012T-7" H -9700 150 50  0001 C CNN "MPN"
F 5 "Diodes Inc." H -9700 150 50  0001 C CNN "Manf"
	1    1350 9450
	0    1    1    0   
$EndComp
$Comp
L power:GND #PWR?
U 1 1 5CDE2A4C
P 1050 9600
AR Path="/5BE78A7B/5CDE2A4C" Ref="#PWR?"  Part="1" 
AR Path="/5BE7857C/5CDE2A4C" Ref="#PWR?"  Part="1" 
F 0 "#PWR?" H 1050 9350 50  0001 C CNN
F 1 "GND" H 1055 9427 50  0000 C CNN
F 2 "" H 1050 9600 50  0001 C CNN
F 3 "" H 1050 9600 50  0001 C CNN
	1    1050 9600
	1    0    0    -1  
$EndComp
$Comp
L Device:R_US R?
U 1 1 5CDE2A54
P 1850 9350
F 0 "R?" H 1918 9396 50  0000 L CNN
F 1 "100k" H 1918 9305 50  0000 L CNN
F 2 "Resistor_SMD:R_0402_1005Metric" V 1890 9340 50  0001 C CNN
F 3 "http://www.yageo.com/documents/recent/PYu-RT_1-to-0.01_RoHS_L_9.pdf" H 1850 9350 50  0001 C CNN
F 4 "RT0402BRD07100KL" H -9700 150 50  0001 C CNN "MPN"
F 5 "Yageo" H -9700 150 50  0001 C CNN "Manf"
	1    1850 9350
	1    0    0    -1  
$EndComp
Wire Wire Line
	1850 9500 1850 9550
Wire Wire Line
	1850 9200 1850 9150
$Comp
L power:+1V8 #PWR?
U 1 1 5CDE2A5C
P 1850 9150
F 0 "#PWR?" H 1850 9000 50  0001 C CNN
F 1 "+1V8" H 1865 9323 50  0000 C CNN
F 2 "" H 1850 9150 50  0001 C CNN
F 3 "" H 1850 9150 50  0001 C CNN
	1    1850 9150
	1    0    0    -1  
$EndComp
Wire Wire Line
	1850 9550 2000 9550
Connection ~ 1850 9550
Wire Wire Line
	1850 9550 1550 9550
Wire Wire Line
	2750 8050 2600 8050
Wire Wire Line
	2750 7950 2600 7950
Wire Wire Line
	2750 7850 2600 7850
Wire Wire Line
	2750 7750 2600 7750
Wire Wire Line
	2750 7650 2600 7650
Wire Wire Line
	2750 7550 2600 7550
Wire Wire Line
	2750 7450 2600 7450
Wire Wire Line
	2750 7350 2600 7350
Wire Wire Line
	2750 8250 2600 8250
Wire Wire Line
	2750 8550 1750 8550
Wire Wire Line
	2750 8450 1500 8450
NoConn ~ 2750 8750
$Comp
L Device:R_US R?
U 1 1 5CDE2A86
P 1500 8200
AR Path="/5BE784A5/5CDE2A86" Ref="R?"  Part="1" 
AR Path="/5BE7857C/5CDE2A86" Ref="R?"  Part="1" 
F 0 "R?" H 1432 8154 50  0000 R CNN
F 1 "10k" H 1432 8245 50  0000 R CNN
F 2 "Resistor_SMD:R_0402_1005Metric" V 1540 8190 50  0001 C CNN
F 3 "http://www.susumu.co.jp/common/pdf/n_catalog_partition05_en.pdf" H 1500 8200 50  0001 C CNN
F 4 "RR0510P-103-D" H -9700 150 50  0001 C CNN "MPN"
F 5 "Susumu" H -9700 150 50  0001 C CNN "Manf"
	1    1500 8200
	-1   0    0    1   
$EndComp
Wire Wire Line
	1500 8350 1500 8450
$Comp
L Device:R_US R?
U 1 1 5CDE2A8F
P 1750 8200
AR Path="/5BE784A5/5CDE2A8F" Ref="R?"  Part="1" 
AR Path="/5BE7857C/5CDE2A8F" Ref="R?"  Part="1" 
F 0 "R?" H 1682 8154 50  0000 R CNN
F 1 "10k" H 1682 8245 50  0000 R CNN
F 2 "Resistor_SMD:R_0402_1005Metric" V 1790 8190 50  0001 C CNN
F 3 "http://www.susumu.co.jp/common/pdf/n_catalog_partition05_en.pdf" H 1750 8200 50  0001 C CNN
F 4 "RR0510P-103-D" H -9700 150 50  0001 C CNN "MPN"
F 5 "Susumu" H -9700 150 50  0001 C CNN "Manf"
	1    1750 8200
	-1   0    0    1   
$EndComp
Connection ~ 1500 8450
Wire Wire Line
	1500 8450 1250 8450
Wire Wire Line
	1750 8350 1750 8550
Connection ~ 1750 8550
Wire Wire Line
	1750 8550 1250 8550
Wire Wire Line
	1750 8050 1750 8000
Wire Wire Line
	1750 8000 1500 8000
Wire Wire Line
	1500 8000 1500 8050
Wire Wire Line
	1050 9550 1050 9600
Wire Wire Line
	1050 9550 1150 9550
Wire Wire Line
	1350 8850 2750 8850
Wire Wire Line
	1350 8850 1350 9250
Wire Notes Line
	4000 6650 4000 9950
Wire Notes Line
	4000 9950 600  9950
Wire Notes Line
	600  9950 600  6650
Wire Notes Line
	600  6650 4000 6650
$Comp
L RF_Module:ESP-WROOM-02 U?
U 1 1 5CBE9BB5
P 2300 5550
F 0 "U?" H 1950 6100 50  0000 C CNN
F 1 "ESP-WROOM-02" H 2650 5000 50  0000 C CNN
F 2 "RF_Module:ESP-WROOM-02" H 2900 5000 50  0001 C CNN
F 3 "https://www.espressif.com/sites/default/files/documentation/0c-esp-wroom-02_datasheet_en.pdf" H 2350 7050 50  0001 C CNN
	1    2300 5550
	1    0    0    -1  
$EndComp
Wire Wire Line
	1800 5650 1150 5650
Wire Wire Line
	1800 5750 1150 5750
Text HLabel 1150 5650 0    50   Output ~ 0
RXD
Text HLabel 1150 5750 0    50   Input ~ 0
TXD
Wire Wire Line
	2300 6150 2300 6200
$Comp
L power:GND #PWR?
U 1 1 5CC4D3D3
P 2300 6200
F 0 "#PWR?" H 2300 5950 50  0001 C CNN
F 1 "GND" H 2305 6027 50  0000 C CNN
F 2 "" H 2300 6200 50  0001 C CNN
F 3 "" H 2300 6200 50  0001 C CNN
	1    2300 6200
	1    0    0    -1  
$EndComp
Wire Wire Line
	2800 5850 3450 5850
Wire Wire Line
	2800 5650 3450 5650
Text HLabel 3450 5850 2    50   Output ~ 0
RTS0
Text HLabel 3450 5650 2    50   Input ~ 0
CTS0
Wire Wire Line
	2300 4950 2300 4800
$Comp
L power:+3.3V #PWR?
U 1 1 5CC9A973
P 2300 4750
F 0 "#PWR?" H 2300 4600 50  0001 C CNN
F 1 "+3.3V" H 2315 4923 50  0000 C CNN
F 2 "" H 2300 4750 50  0001 C CNN
F 3 "" H 2300 4750 50  0001 C CNN
	1    2300 4750
	1    0    0    -1  
$EndComp
Connection ~ 2300 4800
Wire Wire Line
	2300 4800 2300 4750
$Comp
L Device:R_Small_US R?
U 1 1 5CCA047E
P 1550 4950
F 0 "R?" H 1618 4996 50  0000 L CNN
F 1 "10k" H 1618 4905 50  0000 L CNN
F 2 "" H 1550 4950 50  0001 C CNN
F 3 "~" H 1550 4950 50  0001 C CNN
	1    1550 4950
	1    0    0    -1  
$EndComp
Wire Wire Line
	1550 4800 1550 4850
Wire Wire Line
	1550 4800 2300 4800
Wire Wire Line
	1550 5050 1550 5150
Wire Wire Line
	1550 5150 1800 5150
$Comp
L Device:R_Small_US R?
U 1 1 5CCAA54B
P 1250 4950
F 0 "R?" H 1318 4996 50  0000 L CNN
F 1 "10k" H 1318 4905 50  0000 L CNN
F 2 "" H 1250 4950 50  0001 C CNN
F 3 "~" H 1250 4950 50  0001 C CNN
	1    1250 4950
	1    0    0    -1  
$EndComp
Wire Wire Line
	1250 4850 1250 4800
Wire Wire Line
	1250 4800 1550 4800
Connection ~ 1550 4800
Wire Wire Line
	1250 5050 1250 5250
Wire Wire Line
	1250 5250 1800 5250
NoConn ~ 1800 5450
NoConn ~ 2800 5150
NoConn ~ 2800 5250
NoConn ~ 2800 5350
NoConn ~ 2800 5450
NoConn ~ 2800 5550
NoConn ~ 2800 5750
NoConn ~ 2800 5950
$Comp
L power:GND #PWR?
U 1 1 5CCEF5B5
P 2850 4800
F 0 "#PWR?" H 2850 4550 50  0001 C CNN
F 1 "GND" H 2855 4627 50  0000 C CNN
F 2 "" H 2850 4800 50  0001 C CNN
F 3 "" H 2850 4800 50  0001 C CNN
	1    2850 4800
	1    0    0    -1  
$EndComp
Wire Wire Line
	2800 4800 2850 4800
Wire Wire Line
	2300 4800 2600 4800
$Comp
L Device:C_Small C?
U 1 1 5CCB4B30
P 2700 4800
F 0 "C?" V 2471 4800 50  0000 C CNN
F 1 "0.1uF" V 2562 4800 50  0000 C CNN
F 2 "" H 2700 4800 50  0001 C CNN
F 3 "~" H 2700 4800 50  0001 C CNN
	1    2700 4800
	0    1    1    0   
$EndComp
Wire Notes Line
	600  4050 600  6550
Wire Notes Line
	600  6550 4000 6550
Wire Notes Line
	4000 6550 4000 4050
Wire Notes Line
	4000 4050 600  4050
Text Notes 1700 4300 0    118  ~ 24
WiFi Module
$Comp
L Switch:SW_Push SW?
U 1 1 5D0B8FF5
P 10300 3800
AR Path="/5BE78505/5D0B8FF5" Ref="SW?"  Part="1" 
AR Path="/5BE7857C/5D0B8FF5" Ref="SW?"  Part="1" 
AR Path="/5CD408C7/5D0B8FF5" Ref="SW?"  Part="1" 
F 0 "SW?" H 10500 3850 50  0000 C CNN
F 1 "UP" H 10300 3994 50  0000 C CNN
F 2 "GameIO:SW_PUSH_8mm" H 10300 4000 50  0001 C CNN
F 3 "" H 10300 4000 50  0001 C CNN
F 4 "1825910-6" H -4850 -1100 50  0001 C CNN "MPN"
F 5 "TE Conn" H -4850 -1100 50  0001 C CNN "Manf"
	1    10300 3800
	1    0    0    -1  
$EndComp
$Comp
L Switch:SW_Push SW?
U 1 1 5D0B8FFD
P 10300 4200
AR Path="/5BE78505/5D0B8FFD" Ref="SW?"  Part="1" 
AR Path="/5BE7857C/5D0B8FFD" Ref="SW?"  Part="1" 
AR Path="/5CD408C7/5D0B8FFD" Ref="SW?"  Part="1" 
F 0 "SW?" H 10500 4250 50  0000 C CNN
F 1 "DOWN" H 10300 4394 50  0000 C CNN
F 2 "GameIO:SW_PUSH_8mm" H 10300 4400 50  0001 C CNN
F 3 "" H 10300 4400 50  0001 C CNN
F 4 "1825910-6" H -4850 -1100 50  0001 C CNN "MPN"
F 5 "TE Conn" H -4850 -1100 50  0001 C CNN "Manf"
	1    10300 4200
	1    0    0    -1  
$EndComp
$Comp
L Switch:SW_Push SW?
U 1 1 5D0B9005
P 10300 4600
AR Path="/5BE78505/5D0B9005" Ref="SW?"  Part="1" 
AR Path="/5BE7857C/5D0B9005" Ref="SW?"  Part="1" 
AR Path="/5CD408C7/5D0B9005" Ref="SW?"  Part="1" 
F 0 "SW?" H 10500 4650 50  0000 C CNN
F 1 "LEFT" H 10300 4794 50  0000 C CNN
F 2 "GameIO:SW_PUSH_8mm" H 10300 4800 50  0001 C CNN
F 3 "" H 10300 4800 50  0001 C CNN
F 4 "1825910-6" H -4850 -1100 50  0001 C CNN "MPN"
F 5 "TE Conn" H -4850 -1100 50  0001 C CNN "Manf"
	1    10300 4600
	1    0    0    -1  
$EndComp
$Comp
L Switch:SW_Push SW?
U 1 1 5D0B900D
P 10300 5000
AR Path="/5BE78505/5D0B900D" Ref="SW?"  Part="1" 
AR Path="/5BE7857C/5D0B900D" Ref="SW?"  Part="1" 
AR Path="/5CD408C7/5D0B900D" Ref="SW?"  Part="1" 
F 0 "SW?" H 10500 5050 50  0000 C CNN
F 1 "RIGHT" H 10300 5194 50  0000 C CNN
F 2 "GameIO:SW_PUSH_8mm" H 10300 5200 50  0001 C CNN
F 3 "" H 10300 5200 50  0001 C CNN
F 4 "1825910-6" H -4850 -1100 50  0001 C CNN "MPN"
F 5 "TE Conn" H -4850 -1100 50  0001 C CNN "Manf"
	1    10300 5000
	1    0    0    -1  
$EndComp
$Comp
L Switch:SW_Push SW?
U 1 1 5D0B9015
P 10300 5400
AR Path="/5BE78505/5D0B9015" Ref="SW?"  Part="1" 
AR Path="/5BE7857C/5D0B9015" Ref="SW?"  Part="1" 
AR Path="/5CD408C7/5D0B9015" Ref="SW?"  Part="1" 
F 0 "SW?" H 10500 5450 50  0000 C CNN
F 1 "A" H 10300 5594 50  0000 C CNN
F 2 "GameIO:SW_PUSH_8mm" H 10300 5600 50  0001 C CNN
F 3 "" H 10300 5600 50  0001 C CNN
F 4 "1825910-6" H -4850 -1100 50  0001 C CNN "MPN"
F 5 "TE Conn" H -4850 -1100 50  0001 C CNN "Manf"
	1    10300 5400
	1    0    0    -1  
$EndComp
$Comp
L Switch:SW_Push SW?
U 1 1 5D0B901D
P 10300 5800
AR Path="/5BE78505/5D0B901D" Ref="SW?"  Part="1" 
AR Path="/5BE7857C/5D0B901D" Ref="SW?"  Part="1" 
AR Path="/5CD408C7/5D0B901D" Ref="SW?"  Part="1" 
F 0 "SW?" H 10500 5850 50  0000 C CNN
F 1 "B" H 10300 5994 50  0000 C CNN
F 2 "GameIO:SW_PUSH_8mm" H 10300 6000 50  0001 C CNN
F 3 "" H 10300 6000 50  0001 C CNN
F 4 "1825910-6" H -4850 -1100 50  0001 C CNN "MPN"
F 5 "TE Conn" H -4850 -1100 50  0001 C CNN "Manf"
	1    10300 5800
	1    0    0    -1  
$EndComp
$Comp
L Switch:SW_Push SW?
U 1 1 5D0B9025
P 10300 6200
AR Path="/5BE78505/5D0B9025" Ref="SW?"  Part="1" 
AR Path="/5BE7857C/5D0B9025" Ref="SW?"  Part="1" 
AR Path="/5CD408C7/5D0B9025" Ref="SW?"  Part="1" 
F 0 "SW?" H 10500 6250 50  0000 C CNN
F 1 "X" H 10300 6394 50  0000 C CNN
F 2 "GameIO:SW_PUSH_8mm" H 10300 6400 50  0001 C CNN
F 3 "" H 10300 6400 50  0001 C CNN
F 4 "1825910-6" H -4850 -1100 50  0001 C CNN "MPN"
F 5 "TE Conn" H -4850 -1100 50  0001 C CNN "Manf"
	1    10300 6200
	1    0    0    -1  
$EndComp
$Comp
L Switch:SW_Push SW?
U 1 1 5D0B902D
P 10300 6600
AR Path="/5BE78505/5D0B902D" Ref="SW?"  Part="1" 
AR Path="/5BE7857C/5D0B902D" Ref="SW?"  Part="1" 
AR Path="/5CD408C7/5D0B902D" Ref="SW?"  Part="1" 
F 0 "SW?" H 10500 6650 50  0000 C CNN
F 1 "Y" H 10300 6794 50  0000 C CNN
F 2 "GameIO:SW_PUSH_8mm" H 10300 6800 50  0001 C CNN
F 3 "" H 10300 6800 50  0001 C CNN
F 4 "1825910-6" H -4850 -1100 50  0001 C CNN "MPN"
F 5 "TE Conn" H -4850 -1100 50  0001 C CNN "Manf"
	1    10300 6600
	1    0    0    -1  
$EndComp
$Comp
L Switch:SW_Push SW?
U 1 1 5D0B9035
P 10300 7050
AR Path="/5BE78505/5D0B9035" Ref="SW?"  Part="1" 
AR Path="/5BE7857C/5D0B9035" Ref="SW?"  Part="1" 
AR Path="/5CD408C7/5D0B9035" Ref="SW?"  Part="1" 
F 0 "SW?" H 10500 7100 50  0000 C CNN
F 1 "START" H 10300 7244 50  0000 C CNN
F 2 "GameIO:SW_PUSH_8mm" H 10300 7250 50  0001 C CNN
F 3 "" H 10300 7250 50  0001 C CNN
F 4 "1825910-6" H -4850 -1100 50  0001 C CNN "MPN"
F 5 "TE Conn" H -4850 -1100 50  0001 C CNN "Manf"
	1    10300 7050
	1    0    0    -1  
$EndComp
$Comp
L Switch:SW_Push SW?
U 1 1 5D0B903D
P 10300 7450
AR Path="/5BE78505/5D0B903D" Ref="SW?"  Part="1" 
AR Path="/5BE7857C/5D0B903D" Ref="SW?"  Part="1" 
AR Path="/5CD408C7/5D0B903D" Ref="SW?"  Part="1" 
F 0 "SW?" H 10500 7500 50  0000 C CNN
F 1 "SELECT" H 10300 7644 50  0000 C CNN
F 2 "GameIO:SW_PUSH_8mm" H 10300 7650 50  0001 C CNN
F 3 "" H 10300 7650 50  0001 C CNN
F 4 "1825910-6" H -4850 -1100 50  0001 C CNN "MPN"
F 5 "TE Conn" H -4850 -1100 50  0001 C CNN "Manf"
	1    10300 7450
	1    0    0    -1  
$EndComp
Wire Wire Line
	10500 3800 10650 3800
Wire Wire Line
	10650 3800 10650 4200
Wire Wire Line
	10500 8250 10650 8250
Connection ~ 10650 8250
Wire Wire Line
	10650 8250 10650 8700
Wire Wire Line
	10500 7850 10650 7850
Connection ~ 10650 7850
Wire Wire Line
	10650 7850 10650 8250
Wire Wire Line
	10500 7450 10650 7450
Connection ~ 10650 7450
Wire Wire Line
	10650 7450 10650 7850
Wire Wire Line
	10500 7050 10650 7050
Connection ~ 10650 7050
Wire Wire Line
	10650 7050 10650 7450
Wire Wire Line
	10500 6600 10650 6600
Connection ~ 10650 6600
Wire Wire Line
	10650 6600 10650 7050
Wire Wire Line
	10500 6200 10650 6200
Connection ~ 10650 6200
Wire Wire Line
	10650 6200 10650 6600
Wire Wire Line
	10500 5800 10650 5800
Connection ~ 10650 5800
Wire Wire Line
	10650 5800 10650 6200
Wire Wire Line
	10500 5400 10650 5400
Connection ~ 10650 5400
Wire Wire Line
	10650 5400 10650 5800
Wire Wire Line
	10500 5000 10650 5000
Connection ~ 10650 5000
Wire Wire Line
	10650 5000 10650 5400
Wire Wire Line
	10500 4600 10650 4600
Connection ~ 10650 4600
Wire Wire Line
	10650 4600 10650 5000
Wire Wire Line
	10500 4200 10650 4200
Connection ~ 10650 4200
Wire Wire Line
	10650 4200 10650 4600
$Comp
L power:GND #PWR?
U 1 1 5D0B9066
P 10650 9600
AR Path="/5BE78505/5D0B9066" Ref="#PWR?"  Part="1" 
AR Path="/5BE7857C/5D0B9066" Ref="#PWR?"  Part="1" 
AR Path="/5CD408C7/5D0B9066" Ref="#PWR?"  Part="1" 
F 0 "#PWR?" H 10650 9350 50  0001 C CNN
F 1 "GND" H 10655 9427 50  0000 C CNN
F 2 "" H 10650 9600 50  0001 C CNN
F 3 "" H 10650 9600 50  0001 C CNN
	1    10650 9600
	1    0    0    -1  
$EndComp
Text Label 9450 3800 0    50   ~ 0
UP
Text Label 9450 4200 0    50   ~ 0
DOWN
Text Label 9450 5000 0    50   ~ 0
RIGHT
Text Label 9450 4600 0    50   ~ 0
LEFT
Text Label 9450 5400 0    50   ~ 0
A
Text Label 9450 5800 0    50   ~ 0
B
Text Label 9450 6200 0    50   ~ 0
X
Text Label 9450 6600 0    50   ~ 0
Y
Text Label 9450 7050 0    50   ~ 0
START
Text Label 9450 7450 0    50   ~ 0
SELECT
Text Label 9450 7850 0    50   ~ 0
RT
Text Label 9450 8250 0    50   ~ 0
LT
Text Notes 7550 3500 0    118  ~ 24
Controls
$Comp
L GameIO:SW_Push SW?
U 1 1 5D0B907A
P 10300 7850
AR Path="/5D0B907A" Ref="SW?"  Part="1" 
AR Path="/5BE7857C/5D0B907A" Ref="SW?"  Part="1" 
AR Path="/5CD408C7/5D0B907A" Ref="SW?"  Part="1" 
F 0 "SW?" H 10500 7900 50  0000 C CNN
F 1 "RT" H 10300 8044 50  0000 C CNN
F 2 "GameIO:TL3340AF160QG" H 10300 8050 50  0001 C CNN
F 3 "http://spec_sheets.e-switch.com/specs/P021301.pdf" H 10300 8050 50  0001 C CNN
F 4 "TL3340AF160QG" H 10450 8050 50  0001 C CNN "MPN"
	1    10300 7850
	1    0    0    -1  
$EndComp
$Comp
L GameIO:SW_Push SW?
U 1 1 5D0B9081
P 10300 8250
AR Path="/5D0B9081" Ref="SW?"  Part="1" 
AR Path="/5BE7857C/5D0B9081" Ref="SW?"  Part="1" 
AR Path="/5CD408C7/5D0B9081" Ref="SW?"  Part="1" 
F 0 "SW?" H 10500 8300 50  0000 C CNN
F 1 "LT" H 10300 8444 50  0000 C CNN
F 2 "GameIO:TL3340AF160QG" H 10300 8450 50  0001 C CNN
F 3 "http://spec_sheets.e-switch.com/specs/P021301.pdf" H 10300 8450 50  0001 C CNN
F 4 "TL3340AF160QG" H 10450 8450 50  0001 C CNN "MPN"
	1    10300 8250
	1    0    0    -1  
$EndComp
Wire Wire Line
	8050 5000 8400 5000
Wire Wire Line
	8050 5100 8400 5100
Wire Wire Line
	8050 5200 8400 5200
Text Label 8400 5200 2    50   ~ 0
MISO
Text Label 8400 5100 2    50   ~ 0
MOSI
Text Label 8400 5000 2    50   ~ 0
SCLK
Text Label 8400 6100 2    50   ~ 0
UP
Text Label 8400 6200 2    50   ~ 0
DOWN
Text Label 8400 6300 2    50   ~ 0
LEFT
Text Label 8400 6400 2    50   ~ 0
RIGHT
Text Label 8400 6500 2    50   ~ 0
A
Text Label 8400 6600 2    50   ~ 0
B
Text Label 8400 6700 2    50   ~ 0
X
Text Label 8400 6800 2    50   ~ 0
Y
Text Label 8400 5300 2    50   ~ 0
START
Text Label 8400 5400 2    50   ~ 0
SELECT
Text Label 8400 5500 2    50   ~ 0
RT
Text Label 8400 5800 2    50   ~ 0
LT
Text Label 8400 5900 2    50   ~ 0
LB
Text Label 8400 7100 2    50   ~ 0
RB
$Comp
L GameIO:SW_Push SW?
U 1 1 5D0B909C
P 10300 8700
AR Path="/5D0B909C" Ref="SW?"  Part="1" 
AR Path="/5BE7857C/5D0B909C" Ref="SW?"  Part="1" 
AR Path="/5CD408C7/5D0B909C" Ref="SW?"  Part="1" 
F 0 "SW?" H 10500 8750 50  0000 C CNN
F 1 "RB" H 10300 8894 50  0000 C CNN
F 2 "GameIO:TL3340AF160QG" H 10300 8900 50  0001 C CNN
F 3 "http://spec_sheets.e-switch.com/specs/P021301.pdf" H 10300 8900 50  0001 C CNN
F 4 "TL3340AF160QG" H 10450 8900 50  0001 C CNN "MPN"
	1    10300 8700
	1    0    0    -1  
$EndComp
$Comp
L GameIO:SW_Push SW?
U 1 1 5D0B90A3
P 10300 9050
AR Path="/5D0B90A3" Ref="SW?"  Part="1" 
AR Path="/5BE7857C/5D0B90A3" Ref="SW?"  Part="1" 
AR Path="/5CD408C7/5D0B90A3" Ref="SW?"  Part="1" 
F 0 "SW?" H 10500 9100 50  0000 C CNN
F 1 "LB" H 10300 9244 50  0000 C CNN
F 2 "GameIO:TL3340AF160QG" H 10300 9250 50  0001 C CNN
F 3 "http://spec_sheets.e-switch.com/specs/P021301.pdf" H 10300 9250 50  0001 C CNN
F 4 "TL3340AF160QG" H 10450 9250 50  0001 C CNN "MPN"
	1    10300 9050
	1    0    0    -1  
$EndComp
Text Label 9450 8700 0    50   ~ 0
RB
Text Label 9450 9050 0    50   ~ 0
LB
Text Label 8400 5600 2    50   ~ 0
HOME
$Comp
L GameIO:SW_Push SW?
U 1 1 5D0B90AD
P 10300 9500
AR Path="/5D0B90AD" Ref="SW?"  Part="1" 
AR Path="/5BE7857C/5D0B90AD" Ref="SW?"  Part="1" 
AR Path="/5CD408C7/5D0B90AD" Ref="SW?"  Part="1" 
F 0 "SW?" H 10500 9550 50  0000 C CNN
F 1 "HOME" H 10300 9694 50  0000 C CNN
F 2 "GameIO:TL3340AF160QG" H 10300 9700 50  0001 C CNN
F 3 "http://spec_sheets.e-switch.com/specs/P021301.pdf" H 10300 9700 50  0001 C CNN
F 4 "TL3340AF160QG" H 10450 9700 50  0001 C CNN "MPN"
	1    10300 9500
	1    0    0    -1  
$EndComp
Text Label 9450 9500 0    50   ~ 0
HOME
Wire Wire Line
	8050 7300 8400 7300
Text Label 8400 7300 2    50   ~ 0
L_JOY_X
Wire Wire Line
	8050 7400 8400 7400
Text Label 8400 7400 2    50   ~ 0
L_JOY_Y
Wire Wire Line
	8050 7500 8400 7500
Wire Wire Line
	8050 7600 8400 7600
Text Label 8400 7500 2    50   ~ 0
R_JOY_X
Text Label 8400 7600 2    50   ~ 0
R_JOY_Y
Wire Wire Line
	7350 8200 7350 8250
Wire Wire Line
	7350 8250 7400 8250
Wire Wire Line
	7450 8250 7450 8200
Wire Wire Line
	7400 8250 7400 8300
Connection ~ 7400 8250
Wire Wire Line
	7400 8250 7450 8250
$Comp
L power:GND #PWR?
U 1 1 5D0B90C2
P 7400 8300
F 0 "#PWR?" H 7400 8050 50  0001 C CNN
F 1 "GND" H 7405 8127 50  0000 C CNN
F 2 "" H 7400 8300 50  0001 C CNN
F 3 "" H 7400 8300 50  0001 C CNN
	1    7400 8300
	1    0    0    -1  
$EndComp
Wire Wire Line
	6600 4900 6850 4900
Wire Wire Line
	7350 4600 7350 4550
Wire Wire Line
	7350 4550 7450 4550
Wire Wire Line
	7550 4550 7550 4600
Wire Wire Line
	7450 4600 7450 4550
Connection ~ 7450 4550
Wire Wire Line
	7450 4550 7550 4550
$Comp
L power:+5V #PWR?
U 1 1 5D0B90CF
P 7450 4450
F 0 "#PWR?" H 7450 4300 50  0001 C CNN
F 1 "+5V" H 7465 4623 50  0000 C CNN
F 2 "" H 7450 4450 50  0001 C CNN
F 3 "" H 7450 4450 50  0001 C CNN
	1    7450 4450
	1    0    0    -1  
$EndComp
Wire Wire Line
	7450 4450 7450 4550
$Comp
L Device:R_Small_US R?
U 1 1 5D0B90D6
P 6600 4700
F 0 "R?" H 6668 4746 50  0000 L CNN
F 1 "10k" H 6668 4655 50  0000 L CNN
F 2 "" H 6600 4700 50  0001 C CNN
F 3 "~" H 6600 4700 50  0001 C CNN
	1    6600 4700
	1    0    0    -1  
$EndComp
Wire Wire Line
	6600 4550 7350 4550
Connection ~ 7350 4550
$Comp
L MCU_Microchip_ATmega:ATmega32U4-MU U?
U 1 1 5D0B90DE
P 7450 6400
F 0 "U?" H 7000 8150 50  0000 C CNN
F 1 "ATmega32U4-MU" V 7450 6500 50  0000 C CNN
F 2 "Package_DFN_QFN:QFN-44-1EP_7x7mm_P0.5mm_EP5.2x5.2mm" H 7450 6400 50  0001 C CIN
F 3 "http://ww1.microchip.com/downloads/en/DeviceDoc/Atmel-7766-8-bit-AVR-ATmega16U4-32U4_Datasheet.pdf" H 7450 6400 50  0001 C CNN
	1    7450 6400
	1    0    0    -1  
$EndComp
Wire Wire Line
	6600 4800 6600 4900
Wire Wire Line
	6600 4600 6600 4550
Text HLabel 5150 5900 0    50   BiDi ~ 0
CTRL_USB_D+
Text HLabel 5150 6000 0    50   BiDi ~ 0
CTRL_USB_D-
$Comp
L Device:C_Small C?
U 1 1 5D0B90E8
P 6250 5100
F 0 "C?" V 6021 5100 50  0000 C CNN
F 1 "22pF" V 6112 5100 50  0000 C CNN
F 2 "" H 6250 5100 50  0001 C CNN
F 3 "~" H 6250 5100 50  0001 C CNN
	1    6250 5100
	0    1    1    0   
$EndComp
$Comp
L Device:C_Small C?
U 1 1 5D0B90EE
P 6250 5300
F 0 "C?" V 6050 5300 50  0000 C CNN
F 1 "22pF" V 6150 5300 50  0000 C CNN
F 2 "" H 6250 5300 50  0001 C CNN
F 3 "~" H 6250 5300 50  0001 C CNN
	1    6250 5300
	0    -1   -1   0   
$EndComp
Wire Wire Line
	6850 5100 6450 5100
Wire Wire Line
	6350 5300 6450 5300
Wire Wire Line
	6150 5100 6050 5100
Wire Wire Line
	6150 5300 6050 5300
$Comp
L power:GND #PWR?
U 1 1 5D0B90F8
P 6050 5350
F 0 "#PWR?" H 6050 5100 50  0001 C CNN
F 1 "GND" H 6055 5177 50  0000 C CNN
F 2 "" H 6050 5350 50  0001 C CNN
F 3 "" H 6050 5350 50  0001 C CNN
	1    6050 5350
	1    0    0    -1  
$EndComp
Wire Wire Line
	10500 8700 10650 8700
Connection ~ 10650 8700
Wire Wire Line
	10650 8700 10650 9050
Wire Wire Line
	10500 9050 10650 9050
Connection ~ 10650 9050
Wire Wire Line
	10650 9050 10650 9500
Wire Wire Line
	10500 9500 10650 9500
Connection ~ 10650 9500
Wire Wire Line
	10650 9500 10650 9600
$Comp
L Device:Crystal_Small Y?
U 1 1 5D0B9107
P 6450 5200
F 0 "Y?" V 6404 5288 50  0000 L CNN
F 1 "16MHz" V 6495 5288 50  0000 L CNN
F 2 "" H 6450 5200 50  0001 C CNN
F 3 "~" H 6450 5200 50  0001 C CNN
	1    6450 5200
	0    1    1    0   
$EndComp
Connection ~ 6450 5100
Wire Wire Line
	6450 5100 6350 5100
Connection ~ 6450 5300
Wire Wire Line
	6450 5300 6850 5300
Wire Wire Line
	6050 5100 6050 5300
Connection ~ 6050 5300
Wire Wire Line
	6050 5300 6050 5350
$Comp
L Device:C_Small C?
U 1 1 5D0B9114
P 6600 6350
F 0 "C?" H 6692 6396 50  0000 L CNN
F 1 "1uF" H 6692 6305 50  0000 L CNN
F 2 "" H 6600 6350 50  0001 C CNN
F 3 "~" H 6600 6350 50  0001 C CNN
	1    6600 6350
	1    0    0    -1  
$EndComp
Wire Wire Line
	6850 6200 6600 6200
Wire Wire Line
	6600 6200 6600 6250
Wire Wire Line
	6600 6450 6600 6550
$Comp
L power:GND #PWR?
U 1 1 5D0B911D
P 6600 6550
F 0 "#PWR?" H 6600 6300 50  0001 C CNN
F 1 "GND" H 6605 6377 50  0000 C CNN
F 2 "" H 6600 6550 50  0001 C CNN
F 3 "" H 6600 6550 50  0001 C CNN
	1    6600 6550
	1    0    0    -1  
$EndComp
Wire Wire Line
	6850 5700 5650 5700
Wire Wire Line
	5650 5700 5650 4550
Wire Wire Line
	5650 4550 6600 4550
Connection ~ 6600 4550
NoConn ~ 6850 5500
$Comp
L Device:R_Small_US R?
U 1 1 5D0B9128
P 5450 5900
F 0 "R?" V 5245 5900 50  0000 C CNN
F 1 "22" V 5336 5900 50  0000 C CNN
F 2 "" H 5450 5900 50  0001 C CNN
F 3 "~" H 5450 5900 50  0001 C CNN
	1    5450 5900
	0    1    1    0   
$EndComp
Wire Wire Line
	5350 5900 5150 5900
$Comp
L Device:R_Small_US R?
U 1 1 5D0B912F
P 5450 6000
F 0 "R?" V 5650 6000 50  0000 C CNN
F 1 "22" V 5550 6000 50  0000 C CNN
F 2 "" H 5450 6000 50  0001 C CNN
F 3 "~" H 5450 6000 50  0001 C CNN
	1    5450 6000
	0    1    1    0   
$EndComp
Wire Wire Line
	5350 6000 5150 6000
Wire Wire Line
	5550 5900 6850 5900
Wire Wire Line
	5550 6000 6850 6000
Wire Wire Line
	8400 5300 8050 5300
Wire Wire Line
	8400 5400 8050 5400
Wire Wire Line
	8400 5500 8050 5500
Wire Wire Line
	8050 5600 8400 5600
Wire Wire Line
	8400 5800 8050 5800
Wire Wire Line
	8050 5900 8400 5900
Wire Wire Line
	8050 6100 8400 6100
Wire Wire Line
	8400 6200 8050 6200
Wire Wire Line
	8400 6300 8050 6300
Wire Wire Line
	8050 6400 8400 6400
Wire Wire Line
	8400 6500 8050 6500
Wire Wire Line
	8050 6600 8400 6600
Wire Wire Line
	8400 6700 8050 6700
Wire Wire Line
	8050 6800 8400 6800
Wire Wire Line
	8400 7100 8050 7100
Wire Wire Line
	9450 3800 10100 3800
Wire Wire Line
	9450 4200 10100 4200
Wire Wire Line
	9450 4600 10100 4600
Wire Wire Line
	9450 5000 10100 5000
Wire Wire Line
	9450 5400 10100 5400
Wire Wire Line
	9450 5800 10100 5800
Wire Wire Line
	9450 6200 10100 6200
Wire Wire Line
	9450 6600 10100 6600
Wire Wire Line
	9450 7050 10100 7050
Wire Wire Line
	9450 7450 10100 7450
Wire Wire Line
	9450 7850 10100 7850
Wire Wire Line
	9450 8250 10100 8250
Wire Wire Line
	9450 8700 10100 8700
Wire Wire Line
	9450 9050 10100 9050
Wire Wire Line
	9450 9500 10100 9500
Wire Notes Line
	4100 3200 11300 3200
Wire Notes Line
	11300 3200 11300 9950
Wire Notes Line
	11300 9950 4100 9950
Wire Notes Line
	4100 3100 4100 600 
Wire Notes Line
	4100 3200 4100 9950
Text Notes 2000 6900 0    118  ~ 24
HDMI
Text GLabel 3000 6950 0    50   Input ~ 0
HDMI_5V
Wire Wire Line
	3000 6950 3150 6950
Wire Wire Line
	3150 6950 3150 7050
Text GLabel 1400 8000 0    50   Input ~ 0
HDMI_5V
Wire Wire Line
	1400 8000 1500 8000
Connection ~ 1500 8000
Text HLabel 2000 9550 2    50   Output ~ 0
HDMI_HPD_N_1V8
Text HLabel 1250 8450 0    50   Input ~ 0
HDMI_SCL
Text HLabel 1250 8550 0    50   Input ~ 0
HDMI_SDA
Text HLabel 2600 8250 0    50   Input ~ 0
HDMI_CEC
Text HLabel 2600 7350 0    50   Input ~ 0
HDMI_D2_P
Text HLabel 2600 7450 0    50   Input ~ 0
HDMI_D2_N
Text HLabel 2600 7550 0    50   Input ~ 0
HDMI_D1_P
Text HLabel 2600 7650 0    50   Input ~ 0
HDMI_D1_N
Text HLabel 2600 7750 0    50   Input ~ 0
HDMI_D0_P
Text HLabel 2600 7850 0    50   Input ~ 0
HDMI_D0_N
Text HLabel 2600 7950 0    50   Input ~ 0
HDMI_CLK_P
Text HLabel 2600 8050 0    50   Input ~ 0
HDMI_CLK_N
Text HLabel 4700 1900 0    50   Input ~ 0
AUD_PWM0
Text HLabel 4700 2200 0    50   Input ~ 0
AUD_PWM1
$Comp
L GameIO:NC7WZ16P6X U?
U 1 1 5D06D4ED
P 5200 2050
F 0 "U?" H 5200 2465 50  0000 C CNN
F 1 "NC7WZ16P6X" H 5200 2374 50  0000 C CNN
F 2 "Package_TO_SOT_SMD:SOT-363_SC-70-6" H 5200 2050 50  0001 C CNN
F 3 "https://www.onsemi.com/pub/Collateral/NC7WZ16-D.PDF" H 5200 2050 50  0001 C CNN
	1    5200 2050
	1    0    0    -1  
$EndComp
Wire Wire Line
	4700 1900 4800 1900
Wire Wire Line
	4800 2200 4700 2200
Wire Wire Line
	5600 2200 6000 2200
Wire Wire Line
	6000 2200 6000 2400
Wire Wire Line
	6050 1700 6000 1700
Wire Wire Line
	6000 1700 6000 1900
Wire Wire Line
	6000 1900 5600 1900
Wire Wire Line
	5600 2050 5700 2050
$Comp
L power:GND #PWR?
U 1 1 5D18CFBD
P 5700 2600
AR Path="/5BE78A7B/5D18CFBD" Ref="#PWR?"  Part="1" 
AR Path="/5BE7857C/5D18CFBD" Ref="#PWR?"  Part="1" 
F 0 "#PWR?" H 5700 2350 50  0001 C CNN
F 1 "GND" H 5705 2427 50  0000 C CNN
F 2 "" H 5700 2600 50  0001 C CNN
F 3 "" H 5700 2600 50  0001 C CNN
	1    5700 2600
	1    0    0    -1  
$EndComp
$Comp
L power:GND #PWR?
U 1 1 5D18D8B0
P 4800 2050
AR Path="/5BE78A7B/5D18D8B0" Ref="#PWR?"  Part="1" 
AR Path="/5BE7857C/5D18D8B0" Ref="#PWR?"  Part="1" 
F 0 "#PWR?" H 4800 1800 50  0001 C CNN
F 1 "GND" H 4805 1877 50  0000 C CNN
F 2 "" H 4800 2050 50  0001 C CNN
F 3 "" H 4800 2050 50  0001 C CNN
	1    4800 2050
	0    1    1    0   
$EndComp
Text HLabel 1650 1850 0    50   Input ~ 0
R0
Text HLabel 1650 1950 0    50   Input ~ 0
R1
Text HLabel 1650 2050 0    50   Input ~ 0
R2
Text HLabel 1650 2150 0    50   Input ~ 0
R3
Text HLabel 1650 2250 0    50   Input ~ 0
R4
Text HLabel 1650 2850 0    50   Input ~ 0
HSYNC
Text HLabel 1650 2950 0    50   Input ~ 0
VSYNC
Text HLabel 1650 3050 0    50   Input ~ 0
DE
Text HLabel 2950 1450 2    50   Input ~ 0
G0
Text HLabel 2950 1550 2    50   Input ~ 0
G1
Text HLabel 2950 1650 2    50   Input ~ 0
G2
Text HLabel 2950 1750 2    50   Input ~ 0
G3
Text HLabel 2950 1850 2    50   Input ~ 0
G4
Text HLabel 2950 1950 2    50   Input ~ 0
G5
Text HLabel 2950 2050 2    50   Input ~ 0
G6
Text HLabel 2950 2150 2    50   Input ~ 0
G7
Text HLabel 2950 2250 2    50   Input ~ 0
B0
Text HLabel 2950 2350 2    50   Input ~ 0
B1
Text HLabel 2950 2450 2    50   Input ~ 0
B2
Text HLabel 2950 2550 2    50   Input ~ 0
B3
Text HLabel 2950 2650 2    50   Input ~ 0
B4
Text HLabel 2950 2750 2    50   Input ~ 0
B5
Text HLabel 2950 2850 2    50   Input ~ 0
B6
Text HLabel 2950 2950 2    50   Input ~ 0
B7
$Comp
L Device:C_Small C?
U 1 1 5D8B906A
P 5700 2400
F 0 "C?" H 5792 2446 50  0000 L CNN
F 1 "100nF" H 5792 2355 50  0000 L CNN
F 2 "" H 5700 2400 50  0001 C CNN
F 3 "~" H 5700 2400 50  0001 C CNN
	1    5700 2400
	1    0    0    -1  
$EndComp
Wire Wire Line
	5700 2500 5700 2600
Wire Wire Line
	5700 2300 5700 2050
Wire Wire Line
	5700 2050 5700 1800
Connection ~ 5700 2050
$Comp
L power:+3.3V #PWR?
U 1 1 5D980CE3
P 5700 1800
F 0 "#PWR?" H 5700 1650 50  0001 C CNN
F 1 "+3.3V" H 5715 1973 50  0000 C CNN
F 2 "" H 5700 1800 50  0001 C CNN
F 3 "" H 5700 1800 50  0001 C CNN
	1    5700 1800
	1    0    0    -1  
$EndComp
Text HLabel 1650 2650 0    50   Input ~ 0
PCLK
Text HLabel 1650 2550 0    50   Input ~ 0
R7
Text HLabel 1650 2450 0    50   Input ~ 0
R6
Text HLabel 1650 2350 0    50   Input ~ 0
R5
Text Notes 650  1750 0    50   ~ 0
25mA Typ.
Text Notes 1800 4750 0    50   ~ 0
170mA Typ.
Text Notes 6950 4500 0    50   ~ 0
27mA Typ.
$EndSCHEMATC
