EESchema Schematic File Version 4
LIBS:GameIO-cache
EELAYER 29 0
EELAYER END
$Descr B 17000 11000
encoding utf-8
Sheet 2 3
Title "GameIO"
Date "2019-03-23"
Rev "B"
Comp ""
Comment1 ""
Comment2 ""
Comment3 ""
Comment4 ""
$EndDescr
$Comp
L GameIO:PAM2306AYPKE U1
U 1 1 5C0DFBEC
P 4100 4750
F 0 "U1" H 4100 5317 50  0000 C CNN
F 1 "PAM2306AYPKE" H 4100 5226 50  0000 C CNN
F 2 "GameIO:SON45P300X300X80-13N" H 4100 4750 50  0001 L BNN
F 3 "https://www.diodes.com/assets/Datasheets/PAM2306.pdf" H 4100 4750 50  0001 L BNN
F 4 "PAM2306AYPKE" H 4100 4750 50  0001 L BNN "MPN"
F 5 "Diodes Inc." H 4100 4750 50  0001 L BNN "Manf"
	1    4100 4750
	1    0    0    -1  
$EndComp
Wire Wire Line
	3500 4450 3450 4450
$Comp
L power:+5V #PWR0101
U 1 1 5C0DFCF6
P 1700 4250
F 0 "#PWR0101" H 1700 4100 50  0001 C CNN
F 1 "+5V" H 1715 4423 50  0000 C CNN
F 2 "" H 1700 4250 50  0001 C CNN
F 3 "" H 1700 4250 50  0001 C CNN
	1    1700 4250
	1    0    0    -1  
$EndComp
$Comp
L Device:R_US R4
U 1 1 5C0DFD36
P 2550 4650
F 0 "R4" H 2618 4696 50  0000 L CNN
F 1 "100k" H 2618 4605 50  0000 L CNN
F 2 "Resistor_SMD:R_0402_1005Metric" V 2590 4640 50  0001 C CNN
F 3 "http://www.yageo.com/documents/recent/PYu-RT_1-to-0.01_RoHS_L_9.pdf" H 2550 4650 50  0001 C CNN
F 4 "RT0402BRD07100KL" H -750 -100 50  0001 C CNN "MPN"
F 5 "Yageo" H -750 -100 50  0001 C CNN "Manf"
	1    2550 4650
	1    0    0    -1  
$EndComp
$Comp
L Device:L_Small L1
U 1 1 5C0E0071
P 5100 4300
F 0 "L1" V 5285 4300 50  0000 C CNN
F 1 "4.7uH" V 5194 4300 50  0000 C CNN
F 2 "GameIO:L_Bourns-SRN4018" H 5100 4300 50  0001 C CNN
F 3 "https://www.bourns.com/docs/Product-Datasheets/SRN4018.pdf" H 5100 4300 50  0001 C CNN
F 4 "SRN4018-4R7M" H 5100 4300 50  0001 C CNN "MPN"
F 5 "Bourns" H -750 0   50  0001 C CNN "Manf"
	1    5100 4300
	0    -1   -1   0   
$EndComp
$Comp
L Device:C C1
U 1 1 5C0E0131
P 2150 5150
F 0 "C1" H 2265 5196 50  0000 L CNN
F 1 "10uF" H 2265 5105 50  0000 L CNN
F 2 "Capacitor_SMD:C_0805_2012Metric" H 2188 5000 50  0001 C CNN
F 3 "~" H 2150 5150 50  0001 C CNN
F 4 "CL21A106KOQNNNG" H -750 0   50  0001 C CNN "MPN"
F 5 "Samsung" H -750 0   50  0001 C CNN "Manf"
	1    2150 5150
	1    0    0    -1  
$EndComp
Wire Wire Line
	4700 4850 4800 4850
Wire Wire Line
	4800 4850 4800 4950
Wire Wire Line
	4700 4950 4800 4950
Connection ~ 4800 4950
Wire Wire Line
	4800 4950 4800 5050
Wire Wire Line
	4700 5050 4800 5050
Connection ~ 4800 5050
Wire Wire Line
	4800 5050 4800 5150
$Comp
L power:GND #PWR0102
U 1 1 5C0E0213
P 4800 5150
F 0 "#PWR0102" H 4800 4900 50  0001 C CNN
F 1 "GND" H 4805 4977 50  0000 C CNN
F 2 "" H 4800 5150 50  0001 C CNN
F 3 "" H 4800 5150 50  0001 C CNN
	1    4800 5150
	1    0    0    -1  
$EndComp
$Comp
L Device:L_Small L2
U 1 1 5C0E0331
P 5100 4650
F 0 "L2" V 5285 4650 50  0000 C CNN
F 1 "4.7uH" V 5194 4650 50  0000 C CNN
F 2 "GameIO:L_Bourns-SRN4018" H 5100 4650 50  0001 C CNN
F 3 "https://www.bourns.com/docs/Product-Datasheets/SRN4018.pdf" H 5100 4650 50  0001 C CNN
F 4 "SRN4018-4R7M" H 5100 4650 50  0001 C CNN "MPN"
F 5 "Bourns" H -750 0   50  0001 C CNN "Manf"
	1    5100 4650
	0    -1   -1   0   
$EndComp
Wire Wire Line
	4700 4450 4750 4450
Wire Wire Line
	4750 4450 4750 4300
Wire Wire Line
	4750 4300 5000 4300
Wire Wire Line
	4700 4650 5000 4650
Wire Wire Line
	2550 4500 2550 4450
Connection ~ 2550 4450
Wire Wire Line
	3500 4850 3000 4850
Wire Wire Line
	3000 4850 3000 5000
$Comp
L Device:C C4
U 1 1 5C0E07C1
P 3000 5150
F 0 "C4" H 3115 5196 50  0000 L CNN
F 1 "10uF" H 3115 5105 50  0000 L CNN
F 2 "Capacitor_SMD:C_0805_2012Metric" H 3038 5000 50  0001 C CNN
F 3 "~" H 3000 5150 50  0001 C CNN
F 4 "CL21A106KOQNNNG" H -750 0   50  0001 C CNN "MPN"
F 5 "Samsung" H -750 0   50  0001 C CNN "Manf"
	1    3000 5150
	1    0    0    -1  
$EndComp
$Comp
L Device:C C3
U 1 1 5C0E0801
P 2550 5150
F 0 "C3" H 2665 5196 50  0000 L CNN
F 1 "100nF" H 2665 5105 50  0000 L CNN
F 2 "Capacitor_SMD:C_0402_1005Metric" H 2588 5000 50  0001 C CNN
F 3 "~" H 2550 5150 50  0001 C CNN
F 4 "CL05A104KA5NNNC" H -750 0   50  0001 C CNN "MPN"
F 5 "Samsung" H -750 0   50  0001 C CNN "Manf"
	1    2550 5150
	1    0    0    -1  
$EndComp
Wire Wire Line
	2550 4800 2550 4950
Wire Wire Line
	2150 5300 2150 5350
Wire Wire Line
	3000 5350 3000 5300
Wire Wire Line
	2550 5300 2550 5350
$Comp
L power:GND #PWR0103
U 1 1 5C0E11D6
P 2550 5350
F 0 "#PWR0103" H 2550 5100 50  0001 C CNN
F 1 "GND" H 2555 5177 50  0000 C CNN
F 2 "" H 2550 5350 50  0001 C CNN
F 3 "" H 2550 5350 50  0001 C CNN
	1    2550 5350
	1    0    0    -1  
$EndComp
Wire Wire Line
	2150 5000 2150 4450
Wire Wire Line
	2150 4450 2550 4450
Wire Wire Line
	3500 4550 3450 4550
Wire Wire Line
	3450 4550 3450 4450
Wire Wire Line
	3500 4650 3450 4650
Wire Wire Line
	3450 4650 3450 5450
Wire Wire Line
	3450 5450 5450 5450
Wire Wire Line
	5450 5450 5450 4300
Wire Wire Line
	5450 4300 5200 4300
$Comp
L power:GND #PWR0105
U 1 1 5C0E62DF
P 3000 5350
F 0 "#PWR0105" H 3000 5100 50  0001 C CNN
F 1 "GND" H 3005 5177 50  0000 C CNN
F 2 "" H 3000 5350 50  0001 C CNN
F 3 "" H 3000 5350 50  0001 C CNN
	1    3000 5350
	1    0    0    -1  
$EndComp
$Comp
L power:GND #PWR0106
U 1 1 5C0E6350
P 2150 5350
F 0 "#PWR0106" H 2150 5100 50  0001 C CNN
F 1 "GND" H 2155 5177 50  0000 C CNN
F 2 "" H 2150 5350 50  0001 C CNN
F 3 "" H 2150 5350 50  0001 C CNN
	1    2150 5350
	1    0    0    -1  
$EndComp
Wire Wire Line
	5200 4650 5550 4650
Wire Wire Line
	5550 4650 5550 5550
Wire Wire Line
	5550 5550 3350 5550
Wire Wire Line
	3350 5550 3350 5050
Wire Wire Line
	3350 5050 3500 5050
Wire Wire Line
	3500 4950 2550 4950
Connection ~ 2550 4950
Wire Wire Line
	2550 4950 2550 5000
$Comp
L power:+3V3 #PWR0107
U 1 1 5C0ED5D2
P 6400 4250
F 0 "#PWR0107" H 6400 4100 50  0001 C CNN
F 1 "+3V3" H 6415 4423 50  0000 C CNN
F 2 "" H 6400 4250 50  0001 C CNN
F 3 "" H 6400 4250 50  0001 C CNN
	1    6400 4250
	1    0    0    -1  
$EndComp
$Comp
L Device:C C7
U 1 1 5C0EDCB1
P 5850 4900
F 0 "C7" H 5965 4946 50  0000 L CNN
F 1 "10uF" H 5965 4855 50  0000 L CNN
F 2 "Capacitor_SMD:C_0805_2012Metric" H 5888 4750 50  0001 C CNN
F 3 "~" H 5850 4900 50  0001 C CNN
F 4 "CL21A106KOQNNNG" H -750 0   50  0001 C CNN "MPN"
F 5 "Samsung" H -750 0   50  0001 C CNN "Manf"
	1    5850 4900
	1    0    0    -1  
$EndComp
$Comp
L Device:C C8
U 1 1 5C0EDD47
P 6300 4900
F 0 "C8" H 6415 4946 50  0000 L CNN
F 1 "10uF" H 6415 4855 50  0000 L CNN
F 2 "Capacitor_SMD:C_0805_2012Metric" H 6338 4750 50  0001 C CNN
F 3 "~" H 6300 4900 50  0001 C CNN
F 4 "CL21A106KOQNNNG" H -750 0   50  0001 C CNN "MPN"
F 5 "Samsung" H -750 0   50  0001 C CNN "Manf"
	1    6300 4900
	1    0    0    -1  
$EndComp
Wire Wire Line
	5850 5050 5850 5150
Wire Wire Line
	6300 5050 6300 5150
$Comp
L power:GND #PWR0108
U 1 1 5C0EF907
P 6300 5150
F 0 "#PWR0108" H 6300 4900 50  0001 C CNN
F 1 "GND" H 6305 4977 50  0000 C CNN
F 2 "" H 6300 5150 50  0001 C CNN
F 3 "" H 6300 5150 50  0001 C CNN
	1    6300 5150
	1    0    0    -1  
$EndComp
$Comp
L power:GND #PWR0109
U 1 1 5C0EF92B
P 5850 5150
F 0 "#PWR0109" H 5850 4900 50  0001 C CNN
F 1 "GND" H 5855 4977 50  0000 C CNN
F 2 "" H 5850 5150 50  0001 C CNN
F 3 "" H 5850 5150 50  0001 C CNN
	1    5850 5150
	1    0    0    -1  
$EndComp
Wire Wire Line
	6300 4650 6300 4750
$Comp
L power:+1V8 #PWR0110
U 1 1 5C0F08EB
P 6850 4600
F 0 "#PWR0110" H 6850 4450 50  0001 C CNN
F 1 "+1V8" H 6865 4773 50  0000 C CNN
F 2 "" H 6850 4600 50  0001 C CNN
F 3 "" H 6850 4600 50  0001 C CNN
	1    6850 4600
	1    0    0    -1  
$EndComp
Wire Notes Line
	7400 5800 7400 3600
Wire Notes Line
	7400 3600 1450 3600
Wire Notes Line
	1450 3600 1450 5800
Wire Notes Line
	1450 5800 7400 5800
Text Notes 4200 3850 0    118  ~ 24
3V3 and 1V8 Power\n
$Comp
L GameIO:FAN5333BSX U3
U 1 1 5C0F7256
P 8800 5000
F 0 "U3" H 8800 5537 60  0000 C CNN
F 1 "FAN5333ASX" H 8800 5431 60  0000 C CNN
F 2 "Package_TO_SOT_SMD:SOT-23-5" H 8450 5300 60  0001 C CNN
F 3 "https://www.onsemi.com/pub/Collateral/FAN5333B-D.pdf" H 8550 5400 60  0001 C CNN
F 4 "FAN5333ASX" H 8800 5475 118 0001 C CNN "MPN"
F 5 "ON Semiconductors" H 8800 5668 118 0001 C CNN "Manf"
	1    8800 5000
	1    0    0    -1  
$EndComp
Wire Wire Line
	8300 4750 8250 4750
Wire Wire Line
	8250 4750 8250 4300
$Comp
L power:+5V #PWR0111
U 1 1 5C0F890D
P 7900 4200
F 0 "#PWR0111" H 7900 4050 50  0001 C CNN
F 1 "+5V" H 7915 4373 50  0000 C CNN
F 2 "" H 7900 4200 50  0001 C CNN
F 3 "" H 7900 4200 50  0001 C CNN
	1    7900 4200
	1    0    0    -1  
$EndComp
$Comp
L Device:C C9
U 1 1 5C0F894A
P 7900 4550
F 0 "C9" H 8015 4596 50  0000 L CNN
F 1 "10uF" H 8015 4505 50  0000 L CNN
F 2 "Capacitor_SMD:C_0805_2012Metric" H 7938 4400 50  0001 C CNN
F 3 "~" H 7900 4550 50  0001 C CNN
F 4 "CL21A106KOQNNNG" H 0   0   50  0001 C CNN "MPN"
F 5 "Samsung" H 0   0   50  0001 C CNN "Manf"
	1    7900 4550
	1    0    0    -1  
$EndComp
Wire Wire Line
	7900 4400 7900 4300
Wire Wire Line
	7900 4300 8250 4300
Wire Wire Line
	7900 4300 7900 4200
Connection ~ 7900 4300
Wire Wire Line
	7900 4700 7900 4750
$Comp
L power:GND #PWR0112
U 1 1 5C0FE9E3
P 7900 4750
F 0 "#PWR0112" H 7900 4500 50  0001 C CNN
F 1 "GND" H 7905 4577 50  0000 C CNN
F 2 "" H 7900 4750 50  0001 C CNN
F 3 "" H 7900 4750 50  0001 C CNN
	1    7900 4750
	1    0    0    -1  
$EndComp
$Comp
L Device:R_US R12
U 1 1 5C0FEA9F
P 8250 5000
F 0 "R12" H 8318 5046 50  0000 L CNN
F 1 "10k" H 8318 4955 50  0000 L CNN
F 2 "Resistor_SMD:R_0402_1005Metric" V 8290 4990 50  0001 C CNN
F 3 "http://www.susumu.co.jp/common/pdf/n_catalog_partition05_en.pdf" H 8250 5000 50  0001 C CNN
F 4 "RR0510P-103-D" H 0   0   50  0001 C CNN "MPN"
F 5 "Susumu" H 0   0   50  0001 C CNN "Manf"
	1    8250 5000
	1    0    0    -1  
$EndComp
Wire Wire Line
	8250 4750 8250 4850
Connection ~ 8250 4750
Wire Wire Line
	8250 5150 8250 5300
Wire Wire Line
	8250 5300 8300 5300
Connection ~ 8250 4300
$Comp
L Device:L L3
U 1 1 5C10ADAA
P 8800 4300
F 0 "L3" V 8990 4300 50  0000 C CNN
F 1 "10uH" V 8899 4300 50  0000 C CNN
F 2 "GameIO:L_Taiyo-Yuden_NR-50xx" H 8800 4300 50  0001 C CNN
F 3 "https://www.yuden.co.jp/productdata/catalog/wound04_e.pdf" H 8800 4300 50  0001 C CNN
F 4 "NRS5020T100MMGJ" H 8800 4300 50  0001 C CNN "MPN"
F 5 "Taiyo-Yuden" H 0   0   50  0001 C CNN "Manf"
	1    8800 4300
	0    -1   -1   0   
$EndComp
Wire Wire Line
	8250 4300 8650 4300
Wire Wire Line
	8950 4300 9350 4300
Wire Wire Line
	9350 4300 9350 4750
Wire Wire Line
	9350 4750 9300 4750
Wire Wire Line
	9300 5000 9600 5000
Wire Wire Line
	9300 5300 9350 5300
Wire Wire Line
	9350 5300 9350 5400
$Comp
L power:GND #PWR0113
U 1 1 5C10FC50
P 9350 5400
F 0 "#PWR0113" H 9350 5150 50  0001 C CNN
F 1 "GND" H 9355 5227 50  0000 C CNN
F 2 "" H 9350 5400 50  0001 C CNN
F 3 "" H 9350 5400 50  0001 C CNN
	1    9350 5400
	1    0    0    -1  
$EndComp
$Comp
L Device:R_US R16
U 1 1 5C10FCE8
P 9600 5150
F 0 "R16" H 9668 5196 50  0000 L CNN
F 1 "1.5" H 9668 5105 50  0000 L CNN
F 2 "Resistor_SMD:R_0603_1608Metric" V 9640 5140 50  0001 C CNN
F 3 "http://www.yageo.com/documents/recent/PYu-RC_Group_51_RoHS_L_10.pdf" H 9600 5150 50  0001 C CNN
F 4 "ERJ-3RQF1R5V" H 0   0   50  0001 C CNN "MPN"
F 5 "Panasonic" H 0   0   50  0001 C CNN "Manf"
	1    9600 5150
	1    0    0    -1  
$EndComp
Connection ~ 9600 5000
Wire Wire Line
	9600 5000 10000 5000
Wire Wire Line
	9350 5300 9600 5300
Connection ~ 9350 5300
Wire Wire Line
	9600 5300 10000 5300
Connection ~ 9600 5300
$Comp
L Device:C C13
U 1 1 5C1122F3
P 10000 5150
F 0 "C13" H 10115 5196 50  0000 L CNN
F 1 "100nF" H 10115 5105 50  0000 L CNN
F 2 "Capacitor_SMD:C_0402_1005Metric" H 10038 5000 50  0001 C CNN
F 3 "~" H 10000 5150 50  0001 C CNN
F 4 "CL05A104KA5NNNC" H 0   0   50  0001 C CNN "MPN"
F 5 "Samsung" H 0   0   50  0001 C CNN "Manf"
	1    10000 5150
	1    0    0    -1  
$EndComp
Connection ~ 10000 5000
$Comp
L Device:D_Schottky D3
U 1 1 5C112516
P 9550 4300
F 0 "D3" H 9550 4084 50  0000 C CNN
F 1 "MBR0540" H 9550 4175 50  0000 C CNN
F 2 "Diode_SMD:D_SOD-123" H 9550 4300 50  0001 C CNN
F 3 "~" H 9550 4300 50  0001 C CNN
F 4 "MBR0540-TP" H 9550 4300 50  0001 C CNN "MPN"
F 5 "Micro Commercial" H 0   0   50  0001 C CNN "Manf"
	1    9550 4300
	-1   0    0    1   
$EndComp
Wire Wire Line
	9400 4300 9350 4300
Connection ~ 9350 4300
$Comp
L Device:D_Zener D4
U 1 1 5C113A63
P 10300 4600
F 0 "D4" V 10254 4679 50  0000 L CNN
F 1 "24V_Zener" V 10345 4679 50  0000 L CNN
F 2 "Diode_SMD:D_SMA" H 10300 4600 50  0001 C CNN
F 3 "https://www.onsemi.com/pub/Collateral/1SMA5913BT3-D.PDF" H 10300 4600 50  0001 C CNN
F 4 "1SMA5934BT3G" H 10300 4600 50  0001 C CNN "MPN"
F 5 "ON Semiconductor" H 0   0   50  0001 C CNN "Manf"
	1    10300 4600
	0    1    1    0   
$EndComp
Wire Wire Line
	10000 5000 10300 5000
Wire Wire Line
	9850 4300 9850 4350
Wire Wire Line
	9700 4300 9850 4300
$Comp
L Device:C C12
U 1 1 5C118FAE
P 9850 4500
F 0 "C12" H 9965 4546 50  0000 L CNN
F 1 "1uF" H 9965 4455 50  0000 L CNN
F 2 "Capacitor_SMD:C_0603_1608Metric" H 9888 4350 50  0001 C CNN
F 3 "~" H 9850 4500 50  0001 C CNN
F 4 "CL10A105KB8NNNC" H 0   0   50  0001 C CNN "MPN"
F 5 "Samsung" H 0   0   50  0001 C CNN "Manf"
	1    9850 4500
	1    0    0    -1  
$EndComp
Wire Wire Line
	9850 4650 9850 4700
$Comp
L power:GND #PWR0114
U 1 1 5C11BB66
P 9850 4700
F 0 "#PWR0114" H 9850 4450 50  0001 C CNN
F 1 "GND" H 9855 4527 50  0000 C CNN
F 2 "" H 9850 4700 50  0001 C CNN
F 3 "" H 9850 4700 50  0001 C CNN
	1    9850 4700
	1    0    0    -1  
$EndComp
Wire Wire Line
	9850 4300 10300 4300
Connection ~ 9850 4300
Wire Wire Line
	10300 4450 10300 4300
Connection ~ 10300 4300
Wire Wire Line
	10300 4750 10300 5000
Connection ~ 10300 5000
Wire Wire Line
	10300 5000 10800 5000
Text Notes 7650 5700 0    50   ~ 0
Set for aprox. 78mA output current.\nIz = 16mA\nI_led = 40mA
Wire Notes Line
	7500 5800 11100 5800
Wire Notes Line
	11100 5800 11100 3600
Wire Notes Line
	11100 3600 7500 3600
Wire Notes Line
	7500 3600 7500 5800
Text Notes 8300 3850 0    118  ~ 24
LED Backlight Driver\n
$Comp
L Battery_Management:MCP73871-1CC U2
U 1 1 5C137EF9
P 3000 2100
F 0 "U2" H 2450 2950 50  0000 C CNN
F 1 "MCP73871-1CC" H 3350 2950 50  0000 C CNN
F 2 "Package_DFN_QFN:QFN-20-1EP_4x4mm_P0.5mm_EP2.5x2.5mm" H 3200 1200 50  0001 L CIN
F 3 "http://www.mouser.com/ds/2/268/22090a-52174.pdf" H 2850 2650 50  0001 C CNN
F 4 "MCP73871-2CCI/ML" H 3000 2100 50  0001 C CNN "MPN"
F 5 "Microchip" H 0   0   50  0001 C CNN "Manf"
	1    3000 2100
	1    0    0    -1  
$EndComp
$Comp
L power:VBUS #PWR0115
U 1 1 5C138DD2
P 1300 950
F 0 "#PWR0115" H 1300 800 50  0001 C CNN
F 1 "VBUS" H 1315 1123 50  0000 C CNN
F 2 "" H 1300 950 50  0001 C CNN
F 3 "" H 1300 950 50  0001 C CNN
	1    1300 950 
	1    0    0    -1  
$EndComp
Wire Wire Line
	3000 3000 3000 3100
$Comp
L power:GND #PWR0116
U 1 1 5C13A7D5
P 3000 3100
F 0 "#PWR0116" H 3000 2850 50  0001 C CNN
F 1 "GND" H 3005 2927 50  0000 C CNN
F 2 "" H 3000 3100 50  0001 C CNN
F 3 "" H 3000 3100 50  0001 C CNN
	1    3000 3100
	1    0    0    -1  
$EndComp
Wire Wire Line
	1300 950  1300 1050
Wire Wire Line
	1300 1050 1850 1050
Wire Wire Line
	3000 1050 3000 1200
Wire Wire Line
	2200 1050 2200 1700
Wire Wire Line
	2200 1050 3000 1050
Wire Wire Line
	2300 2500 2200 2500
Wire Wire Line
	2200 2500 2200 1700
Wire Wire Line
	2300 2700 2200 2700
Wire Wire Line
	2200 2700 2200 2500
Connection ~ 2200 2500
$Comp
L Device:C C2
U 1 1 5C14200D
P 1050 1050
F 0 "C2" V 798 1050 50  0000 C CNN
F 1 "10uF" V 889 1050 50  0000 C CNN
F 2 "Capacitor_SMD:C_0805_2012Metric" H 1088 900 50  0001 C CNN
F 3 "~" H 1050 1050 50  0001 C CNN
F 4 "CL21A106KOQNNNG" H 0   0   50  0001 C CNN "MPN"
F 5 "Samsung" H 0   0   50  0001 C CNN "Manf"
	1    1050 1050
	0    1    1    0   
$EndComp
$Comp
L Device:R_US R2
U 1 1 5C14207C
P 1300 1300
F 0 "R2" H 1368 1346 50  0000 L CNN
F 1 "270k" H 1368 1255 50  0000 L CNN
F 2 "Resistor_SMD:R_0402_1005Metric" V 1340 1290 50  0001 C CNN
F 3 "http://www.yageo.com/NewPortal/yageodocoutput?fileName=/pdf/R-Chip/PYu-AC_51_RoHS_L_6.pdf" H 1300 1300 50  0001 C CNN
F 4 "AC0402FR-07270KL" H 0   0   50  0001 C CNN "MPN"
F 5 "Yageo" H 0   0   50  0001 C CNN "Manf"
	1    1300 1300
	1    0    0    -1  
$EndComp
Connection ~ 1300 1050
Wire Wire Line
	1300 1150 1300 1050
Wire Wire Line
	2300 1500 1300 1500
Wire Wire Line
	1300 1500 1300 1450
Connection ~ 2200 1050
Connection ~ 2200 1700
Wire Wire Line
	2200 1700 2300 1700
$Comp
L Device:R_US R6
U 1 1 5C1693BD
P 1850 1300
F 0 "R6" H 1918 1346 50  0000 L CNN
F 1 "10k" H 1918 1255 50  0000 L CNN
F 2 "Resistor_SMD:R_0402_1005Metric" V 1890 1290 50  0001 C CNN
F 3 "http://www.susumu.co.jp/common/pdf/n_catalog_partition05_en.pdf" H 1850 1300 50  0001 C CNN
F 4 "RR0510P-103-D" H 0   0   50  0001 C CNN "MPN"
F 5 "Susumu" H 0   0   50  0001 C CNN "Manf"
	1    1850 1300
	1    0    0    -1  
$EndComp
Wire Wire Line
	2300 2000 1850 2000
Wire Wire Line
	1850 2000 1850 1450
Wire Wire Line
	1850 1150 1850 1050
Connection ~ 1850 1050
Wire Wire Line
	1850 1050 2200 1050
$Comp
L Device:R_US R7
U 1 1 5C170CBF
P 1900 2550
F 0 "R7" H 1832 2504 50  0000 R CNN
F 1 "10k" H 1832 2595 50  0000 R CNN
F 2 "Resistor_SMD:R_0402_1005Metric" V 1940 2540 50  0001 C CNN
F 3 "http://www.susumu.co.jp/common/pdf/n_catalog_partition05_en.pdf" H 1900 2550 50  0001 C CNN
F 4 "RR0510P-103-D" H 0   0   50  0001 C CNN "MPN"
F 5 "Susumu" H 0   0   50  0001 C CNN "Manf"
	1    1900 2550
	-1   0    0    1   
$EndComp
$Comp
L Device:R_US R5
U 1 1 5C170F1C
P 1600 2550
F 0 "R5" H 1532 2504 50  0000 R CNN
F 1 "100k" H 1532 2595 50  0000 R CNN
F 2 "Resistor_SMD:R_0402_1005Metric" V 1640 2540 50  0001 C CNN
F 3 "http://www.yageo.com/documents/recent/PYu-RT_1-to-0.01_RoHS_L_9.pdf" H 1600 2550 50  0001 C CNN
F 4 "RT0402BRD07100KL" H 0   0   50  0001 C CNN "MPN"
F 5 "Yageo" H 0   0   50  0001 C CNN "Manf"
	1    1600 2550
	-1   0    0    1   
$EndComp
$Comp
L Device:R_US R3
U 1 1 5C1739A2
P 1350 2550
F 0 "R3" H 1282 2504 50  0000 R CNN
F 1 "1k" H 1282 2595 50  0000 R CNN
F 2 "Resistor_SMD:R_0402_1005Metric" V 1390 2540 50  0001 C CNN
F 3 "http://www.susumu.co.jp/common/pdf/n_catalog_partition05_en.pdf" H 1350 2550 50  0001 C CNN
F 4 "RR0510P-102-D" H 0   0   50  0001 C CNN "MPN"
F 5 "Susumu" H 0   0   50  0001 C CNN "Manf"
	1    1350 2550
	-1   0    0    1   
$EndComp
Wire Wire Line
	2300 1900 1350 1900
Wire Wire Line
	1350 1900 1350 2400
Wire Wire Line
	2300 2100 1600 2100
Wire Wire Line
	1600 2100 1600 2400
Wire Wire Line
	1900 2400 1900 2300
Wire Wire Line
	1900 2300 2300 2300
Wire Wire Line
	1900 2700 1900 2800
Wire Wire Line
	1600 2700 1600 2800
Wire Wire Line
	1350 2700 1350 2800
$Comp
L power:GND #PWR0117
U 1 1 5C188B75
P 1900 2800
F 0 "#PWR0117" H 1900 2550 50  0001 C CNN
F 1 "GND" H 1905 2627 50  0000 C CNN
F 2 "" H 1900 2800 50  0001 C CNN
F 3 "" H 1900 2800 50  0001 C CNN
	1    1900 2800
	1    0    0    -1  
$EndComp
$Comp
L power:GND #PWR0118
U 1 1 5C188C16
P 1600 2800
F 0 "#PWR0118" H 1600 2550 50  0001 C CNN
F 1 "GND" H 1605 2627 50  0000 C CNN
F 2 "" H 1600 2800 50  0001 C CNN
F 3 "" H 1600 2800 50  0001 C CNN
	1    1600 2800
	1    0    0    -1  
$EndComp
$Comp
L power:GND #PWR0119
U 1 1 5C188C53
P 1350 2800
F 0 "#PWR0119" H 1350 2550 50  0001 C CNN
F 1 "GND" H 1355 2627 50  0000 C CNN
F 2 "" H 1350 2800 50  0001 C CNN
F 3 "" H 1350 2800 50  0001 C CNN
	1    1350 2800
	1    0    0    -1  
$EndComp
$Comp
L Device:R_US R1
U 1 1 5C188D94
P 1050 1500
F 0 "R1" V 845 1500 50  0000 C CNN
F 1 "100k" V 936 1500 50  0000 C CNN
F 2 "Resistor_SMD:R_0402_1005Metric" V 1090 1490 50  0001 C CNN
F 3 "http://www.yageo.com/documents/recent/PYu-RT_1-to-0.01_RoHS_L_9.pdf" H 1050 1500 50  0001 C CNN
F 4 "RT0402BRD07100KL" H 0   0   50  0001 C CNN "MPN"
F 5 "Yageo" H 0   0   50  0001 C CNN "Manf"
	1    1050 1500
	0    1    1    0   
$EndComp
Wire Wire Line
	1200 1050 1300 1050
Wire Wire Line
	900  1050 850  1050
Wire Wire Line
	850  1050 850  1500
$Comp
L power:GND #PWR0120
U 1 1 5C1B97CE
P 850 1550
F 0 "#PWR0120" H 850 1300 50  0001 C CNN
F 1 "GND" H 855 1377 50  0000 C CNN
F 2 "" H 850 1550 50  0001 C CNN
F 3 "" H 850 1550 50  0001 C CNN
	1    850  1550
	1    0    0    -1  
$EndComp
Wire Wire Line
	1200 1500 1300 1500
Connection ~ 1300 1500
Wire Wire Line
	900  1500 850  1500
Connection ~ 850  1500
Wire Wire Line
	850  1500 850  1550
Text Notes 650  2550 0    50   ~ 0
1k sets 1A CHG
Wire Wire Line
	3700 1500 3750 1500
Wire Wire Line
	3750 1500 3750 1300
$Comp
L Device:C C5
U 1 1 5C1FACF0
P 4050 1500
F 0 "C5" H 4165 1546 50  0000 L CNN
F 1 "4.7uF" H 4165 1455 50  0000 L CNN
F 2 "Capacitor_SMD:C_0603_1608Metric" H 4088 1350 50  0001 C CNN
F 3 "~" H 4050 1500 50  0001 C CNN
F 4 "CL10A475MA8NQNC" H 0   0   50  0001 C CNN "MPN"
F 5 "Samsung" H 0   0   50  0001 C CNN "Manf"
	1    4050 1500
	1    0    0    -1  
$EndComp
Wire Wire Line
	3700 1800 3750 1800
Wire Wire Line
	3750 1800 3750 2000
Wire Wire Line
	3750 2000 3700 2000
Wire Wire Line
	3750 2000 4250 2000
Connection ~ 3750 2000
$Comp
L power:GND #PWR0144
U 1 1 5C202DA7
P 4050 1700
F 0 "#PWR0144" H 4050 1450 50  0001 C CNN
F 1 "GND" H 4055 1527 50  0000 C CNN
F 2 "" H 4050 1700 50  0001 C CNN
F 3 "" H 4050 1700 50  0001 C CNN
	1    4050 1700
	1    0    0    -1  
$EndComp
Wire Wire Line
	4050 1700 4050 1650
Wire Wire Line
	4050 1350 4050 1300
$Comp
L Device:C C6
U 1 1 5C20B3DD
P 4250 2200
F 0 "C6" H 4365 2246 50  0000 L CNN
F 1 "4.7uF" H 4365 2155 50  0000 L CNN
F 2 "Capacitor_SMD:C_0603_1608Metric" H 4288 2050 50  0001 C CNN
F 3 "~" H 4250 2200 50  0001 C CNN
F 4 "CL10A475MA8NQNC" H 0   0   50  0001 C CNN "MPN"
F 5 "Samsung" H 0   0   50  0001 C CNN "Manf"
	1    4250 2200
	1    0    0    -1  
$EndComp
NoConn ~ 3700 2300
Wire Wire Line
	4250 2050 4250 2000
Connection ~ 4250 2000
Wire Wire Line
	4250 2000 4750 2000
$Comp
L Device:LED D2
U 1 1 5C2181E2
P 5650 2550
F 0 "D2" V 5688 2433 50  0000 R CNN
F 1 "CHG/LBO" V 5597 2433 50  0000 R CNN
F 2 "LED_SMD:LED_0603_1608Metric" H 5650 2550 50  0001 C CNN
F 3 "~" H 5650 2550 50  0001 C CNN
F 4 "150060VS75000" H 0   0   50  0001 C CNN "MPN"
F 5 "Wurth Electronics" H 0   0   50  0001 C CNN "Manf"
	1    5650 2550
	0    -1   -1   0   
$EndComp
$Comp
L Device:LED D1
U 1 1 5C2182C6
P 5250 2550
F 0 "D1" V 5288 2433 50  0000 R CNN
F 1 "DONE" V 5197 2433 50  0000 R CNN
F 2 "LED_SMD:LED_0603_1608Metric" H 5250 2550 50  0001 C CNN
F 3 "~" H 5250 2550 50  0001 C CNN
F 4 "150060VS75000" H 0   0   50  0001 C CNN "MPN"
F 5 "Wurth Electronics" H 0   0   50  0001 C CNN "Manf"
	1    5250 2550
	0    -1   -1   0   
$EndComp
$Comp
L Device:R_US R8
U 1 1 5C21C042
P 5250 2200
F 0 "R8" H 5318 2246 50  0000 L CNN
F 1 "330" H 5318 2155 50  0000 L CNN
F 2 "Resistor_SMD:R_0402_1005Metric" V 5290 2190 50  0001 C CNN
F 3 "http://www.yageo.com/documents/recent/PYu-RC_Group_51_RoHS_L_10.pdf" H 5250 2200 50  0001 C CNN
F 4 "RC0402JR-07330RL" H 0   0   50  0001 C CNN "MPN"
F 5 "Yageo" H 0   0   50  0001 C CNN "Manf"
	1    5250 2200
	1    0    0    -1  
$EndComp
Wire Wire Line
	5250 2350 5250 2400
Wire Wire Line
	5650 2400 5650 2350
$Comp
L Device:R_US R9
U 1 1 5C22379D
P 5650 2200
F 0 "R9" H 5718 2246 50  0000 L CNN
F 1 "330" H 5718 2155 50  0000 L CNN
F 2 "Resistor_SMD:R_0402_1005Metric" V 5690 2190 50  0001 C CNN
F 3 "http://www.yageo.com/documents/recent/PYu-RC_Group_51_RoHS_L_10.pdf" H 5650 2200 50  0001 C CNN
F 4 "RC0402JR-07330RL" H 0   0   50  0001 C CNN "MPN"
F 5 "Yageo" H 0   0   50  0001 C CNN "Manf"
	1    5650 2200
	1    0    0    -1  
$EndComp
Wire Wire Line
	5250 2050 5250 2000
Wire Wire Line
	5650 2000 5650 2050
Wire Wire Line
	4250 2350 4250 2400
$Comp
L power:GND #PWR0145
U 1 1 5C236CBE
P 4250 2400
F 0 "#PWR0145" H 4250 2150 50  0001 C CNN
F 1 "GND" H 4255 2227 50  0000 C CNN
F 2 "" H 4250 2400 50  0001 C CNN
F 3 "" H 4250 2400 50  0001 C CNN
	1    4250 2400
	1    0    0    -1  
$EndComp
$Comp
L Device:Battery_Cell BT1
U 1 1 5C236DB7
P 4750 2250
F 0 "BT1" H 4868 2346 50  0000 L CNN
F 1 "BATT" H 4868 2255 50  0000 L CNN
F 2 "GameIO:JST_PH_S2B-PH-SM4-TB_1x02-1MP_P2.00mm_Horizontal" V 4750 2310 50  0001 C CNN
F 3 "http://www.jst-mfg.com/product/pdf/eng/ePH.pdf" V 4750 2310 50  0001 C CNN
F 4 "	S2B-PH-SM4-TB(LF)(SN)" H 0   0   50  0001 C CNN "MPN"
F 5 "JST" H 0   0   50  0001 C CNN "Manf"
	1    4750 2250
	1    0    0    -1  
$EndComp
Wire Wire Line
	4750 2050 4750 2000
$Comp
L power:GND #PWR0146
U 1 1 5C242FEF
P 4750 2400
F 0 "#PWR0146" H 4750 2150 50  0001 C CNN
F 1 "GND" H 4755 2227 50  0000 C CNN
F 2 "" H 4750 2400 50  0001 C CNN
F 3 "" H 4750 2400 50  0001 C CNN
	1    4750 2400
	1    0    0    -1  
$EndComp
Wire Wire Line
	4750 2400 4750 2350
Text Label 4400 2000 0    50   ~ 0
V_BAT
Text Notes 4250 1900 0    50   ~ 0
3.7V Nominal
Text Label 4600 1300 2    50   ~ 0
V_SYS
Wire Wire Line
	5250 2000 5450 2000
$Comp
L power:VBUS #PWR0147
U 1 1 5C254AB9
P 5450 1950
F 0 "#PWR0147" H 5450 1800 50  0001 C CNN
F 1 "VBUS" H 5465 2123 50  0000 C CNN
F 2 "" H 5450 1950 50  0001 C CNN
F 3 "" H 5450 1950 50  0001 C CNN
	1    5450 1950
	1    0    0    -1  
$EndComp
Wire Wire Line
	5450 1950 5450 2000
Connection ~ 5450 2000
Wire Wire Line
	5450 2000 5650 2000
Wire Wire Line
	5250 2700 5250 2900
Wire Wire Line
	5250 2900 4100 2900
Wire Wire Line
	4100 2900 4100 2500
Wire Wire Line
	4100 2500 3700 2500
Wire Wire Line
	3700 2600 4000 2600
Wire Wire Line
	4000 2600 4000 3000
Wire Wire Line
	4000 3000 5650 3000
Wire Wire Line
	5650 3000 5650 2700
Wire Wire Line
	5250 2900 5800 2900
Connection ~ 5250 2900
Wire Wire Line
	5650 3000 5800 3000
Connection ~ 5650 3000
$Comp
L Device:R_US R10
U 1 1 5C278D08
P 5950 2900
F 0 "R10" V 5900 2700 50  0000 C CNN
F 1 "0" V 5850 2900 50  0000 C CNN
F 2 "Resistor_SMD:R_0603_1608Metric" V 5990 2890 50  0001 C CNN
F 3 "http://www.yageo.com/documents/recent/PYu-RC_Group_51_RoHS_L_10.pdf" H 5950 2900 50  0001 C CNN
F 4 "RC0603JR-070RL" H 0   0   50  0001 C CNN "MPN"
F 5 "Yageo" H 0   0   50  0001 C CNN "Manf"
	1    5950 2900
	0    1    1    0   
$EndComp
$Comp
L Device:R_US R11
U 1 1 5C286936
P 5950 3000
F 0 "R11" V 5900 3200 50  0000 C CNN
F 1 "0" V 5850 3000 50  0000 C CNN
F 2 "Resistor_SMD:R_0603_1608Metric" V 5990 2990 50  0001 C CNN
F 3 "http://www.yageo.com/documents/recent/PYu-RC_Group_51_RoHS_L_10.pdf" H 5950 3000 50  0001 C CNN
F 4 "RC0603JR-070RL" H 0   0   50  0001 C CNN "MPN"
F 5 "Yageo" H 0   0   50  0001 C CNN "Manf"
	1    5950 3000
	0    -1   -1   0   
$EndComp
Wire Wire Line
	6100 2900 6200 2900
Wire Wire Line
	6100 3000 6200 3000
$Comp
L Regulator_Switching:TPS61090 U4
U 1 1 5C2B696D
P 8300 1800
F 0 "U4" H 8300 2525 50  0000 C CNN
F 1 "TPS61090" H 8300 2434 50  0000 C CNN
F 2 "Package_DFN_QFN:QFN-16-1EP_4x4mm_P0.65mm_EP2.5x2.5mm" H 7350 750 50  0001 L CNN
F 3 "http://www.ti.com/lit/ds/symlink/tps61090.pdf" H 8450 650 50  0001 L CNN
F 4 "TPS61090RSAR" H 0   0   50  0001 C CNN "MPN"
F 5 "Texas Instruments" H 0   0   50  0001 C CNN "Manf"
	1    8300 1800
	1    0    0    -1  
$EndComp
$Comp
L Device:L L4
U 1 1 5C2BC4B2
P 7600 1300
F 0 "L4" V 7790 1300 50  0000 C CNN
F 1 "5.6uH" V 7699 1300 50  0000 C CNN
F 2 "GameIO:L_WURTH_5020" H 7600 1300 50  0001 C CNN
F 3 "https://katalog.we-online.de/pbs/datasheet/74404052056.pdf" H 7600 1300 50  0001 C CNN
F 4 "74404052056" H 7600 1300 50  0001 C CNN "MPN"
F 5 "Wurth Electronics" H 0   0   50  0001 C CNN "Manf"
	1    7600 1300
	0    -1   -1   0   
$EndComp
Wire Wire Line
	7750 1300 7850 1300
Wire Wire Line
	7850 1300 7850 1400
Wire Wire Line
	7850 1400 7900 1400
Connection ~ 7850 1300
Wire Wire Line
	7850 1300 7900 1300
Wire Wire Line
	7450 1300 7350 1300
Wire Wire Line
	7350 1300 7350 1600
Connection ~ 7350 1300
$Comp
L Device:C C10
U 1 1 5C2D76A4
P 6150 1500
F 0 "C10" H 6265 1546 50  0000 L CNN
F 1 "10uF" H 6265 1455 50  0000 L CNN
F 2 "Capacitor_SMD:C_0805_2012Metric" H 6188 1350 50  0001 C CNN
F 3 "~" H 6150 1500 50  0001 C CNN
F 4 "CL21A106KOQNNNG" H -200 0   50  0001 C CNN "MPN"
F 5 "Samsung" H -200 0   50  0001 C CNN "Manf"
	1    6150 1500
	1    0    0    -1  
$EndComp
$Comp
L Device:C C11
U 1 1 5C2D77FE
P 6600 1500
F 0 "C11" H 6715 1546 50  0000 L CNN
F 1 "100nF" H 6715 1455 50  0000 L CNN
F 2 "Capacitor_SMD:C_0402_1005Metric" H 6638 1350 50  0001 C CNN
F 3 "~" H 6600 1500 50  0001 C CNN
F 4 "CL05A104KA5NNNC" H -150 0   50  0001 C CNN "MPN"
F 5 "Samsung" H -150 0   50  0001 C CNN "Manf"
	1    6600 1500
	1    0    0    -1  
$EndComp
$Comp
L Device:R_US R13
U 1 1 5C2D78E7
P 7150 1500
F 0 "R13" H 7218 1546 50  0000 L CNN
F 1 "2M" H 7218 1455 50  0000 L CNN
F 2 "Resistor_SMD:R_0402_1005Metric" V 7190 1490 50  0001 C CNN
F 3 "http://www.yageo.com/documents/recent/PYu-RC_Group_51_RoHS_L_10.pdf" H 7150 1500 50  0001 C CNN
F 4 "RC0402JR-072ML" H 0   0   50  0001 C CNN "MPN"
F 5 "Yageo" H 0   0   50  0001 C CNN "Manf"
	1    7150 1500
	1    0    0    -1  
$EndComp
$Comp
L Device:R_US R14
U 1 1 5C2D79B5
P 7150 2000
F 0 "R14" H 7218 2046 50  0000 L CNN
F 1 "390k" H 7218 1955 50  0000 L CNN
F 2 "Resistor_SMD:R_0402_1005Metric" V 7190 1990 50  0001 C CNN
F 3 "http://www.yageo.com/documents/recent/PYu-RC_Group_51_RoHS_L_10.pdf" H 7150 2000 50  0001 C CNN
F 4 "RC0402JR-07390KL" H 0   0   50  0001 C CNN "MPN"
F 5 "Yageo" H 0   0   50  0001 C CNN "Manf"
	1    7150 2000
	1    0    0    -1  
$EndComp
Wire Wire Line
	7150 2150 7150 2200
Wire Wire Line
	7900 2000 7850 2000
Wire Wire Line
	7850 2000 7850 2450
Wire Wire Line
	7850 2450 8100 2450
Wire Wire Line
	8500 2450 8500 2400
Wire Wire Line
	8400 2450 8400 2400
Connection ~ 8400 2450
Wire Wire Line
	8400 2450 8500 2450
Wire Wire Line
	8300 2450 8300 2400
Connection ~ 8300 2450
Wire Wire Line
	8300 2450 8400 2450
Wire Wire Line
	8200 2450 8200 2400
Connection ~ 8200 2450
Wire Wire Line
	8200 2450 8300 2450
Wire Wire Line
	8100 2450 8100 2400
Connection ~ 8100 2450
Wire Wire Line
	8100 2450 8200 2450
Wire Wire Line
	8300 2450 8300 2500
$Comp
L power:GND #PWR0148
U 1 1 5C301674
P 8300 2500
F 0 "#PWR0148" H 8300 2250 50  0001 C CNN
F 1 "GND" H 8305 2327 50  0000 C CNN
F 2 "" H 8300 2500 50  0001 C CNN
F 3 "" H 8300 2500 50  0001 C CNN
	1    8300 2500
	1    0    0    -1  
$EndComp
Wire Wire Line
	7150 1650 7150 1800
Wire Wire Line
	7900 1800 7150 1800
Connection ~ 7150 1800
Wire Wire Line
	7150 1800 7150 1850
$Comp
L power:GND #PWR0149
U 1 1 5C30E77F
P 7150 2200
F 0 "#PWR0149" H 7150 1950 50  0001 C CNN
F 1 "GND" H 7155 2027 50  0000 C CNN
F 2 "" H 7150 2200 50  0001 C CNN
F 3 "" H 7150 2200 50  0001 C CNN
	1    7150 2200
	1    0    0    -1  
$EndComp
Wire Wire Line
	6600 1350 6600 1300
Wire Wire Line
	6600 1650 6600 1700
Wire Wire Line
	6150 1650 6150 1700
Wire Wire Line
	6150 1350 6150 1300
$Comp
L power:GND #PWR0150
U 1 1 5C351160
P 6600 1700
F 0 "#PWR0150" H 6600 1450 50  0001 C CNN
F 1 "GND" H 6605 1527 50  0000 C CNN
F 2 "" H 6600 1700 50  0001 C CNN
F 3 "" H 6600 1700 50  0001 C CNN
	1    6600 1700
	1    0    0    -1  
$EndComp
$Comp
L power:GND #PWR0151
U 1 1 5C3511BD
P 6150 1700
F 0 "#PWR0151" H 6150 1450 50  0001 C CNN
F 1 "GND" H 6155 1527 50  0000 C CNN
F 2 "" H 6150 1700 50  0001 C CNN
F 3 "" H 6150 1700 50  0001 C CNN
	1    6150 1700
	1    0    0    -1  
$EndComp
Wire Wire Line
	7150 1350 7150 1300
Connection ~ 7150 1300
Wire Wire Line
	7150 1300 7350 1300
$Comp
L Device:R_US R17
U 1 1 5C367314
P 8900 1500
F 0 "R17" H 8968 1546 50  0000 L CNN
F 1 "1.8M" H 8968 1455 50  0000 L CNN
F 2 "Resistor_SMD:R_0402_1005Metric" V 8940 1490 50  0001 C CNN
F 3 "http://www.yageo.com/documents/recent/PYu-RC_Group_51_RoHS_L_10.pdf" H 8900 1500 50  0001 C CNN
F 4 "RC0402JR-071M8L" H 0   0   50  0001 C CNN "MPN"
F 5 "Yageo" H 0   0   50  0001 C CNN "Manf"
	1    8900 1500
	1    0    0    -1  
$EndComp
Wire Wire Line
	8700 1500 8750 1500
Wire Wire Line
	8750 1500 8750 1400
Wire Wire Line
	8750 1300 8700 1300
Wire Wire Line
	8700 1400 8750 1400
Connection ~ 8750 1400
Wire Wire Line
	8750 1400 8750 1300
Wire Wire Line
	8750 1300 8900 1300
Connection ~ 8750 1300
$Comp
L power:+5V #PWR0152
U 1 1 5C37D74C
P 10750 1200
F 0 "#PWR0152" H 10750 1050 50  0001 C CNN
F 1 "+5V" H 10765 1373 50  0000 C CNN
F 2 "" H 10750 1200 50  0001 C CNN
F 3 "" H 10750 1200 50  0001 C CNN
	1    10750 1200
	1    0    0    -1  
$EndComp
$Comp
L Device:R_US R18
U 1 1 5C37D7E6
P 8900 2050
F 0 "R18" H 8968 2096 50  0000 L CNN
F 1 "200k" H 8968 2005 50  0000 L CNN
F 2 "Resistor_SMD:R_0402_1005Metric" V 8940 2040 50  0001 C CNN
F 3 "http://www.yageo.com/documents/recent/PYu-RC_Group_51_RoHS_L_10.pdf" H 8900 2050 50  0001 C CNN
F 4 "RC0402FR-07200KL" H 0   0   50  0001 C CNN "MPN"
F 5 "Yageo" H 0   0   50  0001 C CNN "Manf"
	1    8900 2050
	1    0    0    -1  
$EndComp
$Comp
L Device:C C14
U 1 1 5C37D910
P 9250 1500
F 0 "C14" H 9365 1546 50  0000 L CNN
F 1 "2.2uF" H 9365 1455 50  0000 L CNN
F 2 "Capacitor_SMD:C_0603_1608Metric" H 9288 1350 50  0001 C CNN
F 3 "~" H 9250 1500 50  0001 C CNN
F 4 "GRM188R61E225KA12D" H 0   0   50  0001 C CNN "MPN"
F 5 "Murata" H 0   0   50  0001 C CNN "Manf"
	1    9250 1500
	1    0    0    -1  
$EndComp
$Comp
L Device:C C15
U 1 1 5C37DABF
P 9700 1500
F 0 "C15" H 9815 1546 50  0000 L CNN
F 1 "100uF" H 9815 1455 50  0000 L CNN
F 2 "Capacitor_Tantalum_SMD:CP_EIA-6032-15_Kemet-U" H 9738 1350 50  0001 C CNN
F 3 "~" H 9700 1500 50  0001 C CNN
F 4 "F931C107MCCAJ6" H 0   0   50  0001 C CNN "MPN"
F 5 "AVX" H 0   0   50  0001 C CNN "Manf"
	1    9700 1500
	1    0    0    -1  
$EndComp
$Comp
L Device:R_US R19
U 1 1 5C37DB6E
P 10100 1500
F 0 "R19" H 10168 1546 50  0000 L CNN
F 1 "1M" H 10168 1455 50  0000 L CNN
F 2 "Resistor_SMD:R_0402_1005Metric" V 10140 1490 50  0001 C CNN
F 3 "http://www.yageo.com/documents/recent/PYu-RC_Group_51_RoHS_L_10.pdf" H 10100 1500 50  0001 C CNN
F 4 "RC0402JR-071ML" H 0   0   50  0001 C CNN "MPN"
F 5 "Yageo" H 0   0   50  0001 C CNN "Manf"
	1    10100 1500
	1    0    0    -1  
$EndComp
Connection ~ 9250 1300
Wire Wire Line
	9250 1350 9250 1300
Wire Wire Line
	8900 1350 8900 1300
Connection ~ 8900 1300
Wire Wire Line
	8900 1300 9250 1300
Wire Wire Line
	8700 1700 8900 1700
Wire Wire Line
	8900 1700 8900 1650
Wire Wire Line
	8900 1700 8900 1900
Connection ~ 8900 1700
Wire Wire Line
	8900 2200 8900 2250
$Comp
L power:GND #PWR0153
U 1 1 5C3DB747
P 8900 2250
F 0 "#PWR0153" H 8900 2000 50  0001 C CNN
F 1 "GND" H 8905 2077 50  0000 C CNN
F 2 "" H 8900 2250 50  0001 C CNN
F 3 "" H 8900 2250 50  0001 C CNN
	1    8900 2250
	1    0    0    -1  
$EndComp
$Comp
L power:GND #PWR0154
U 1 1 5C3DB7AE
P 9250 2250
F 0 "#PWR0154" H 9250 2000 50  0001 C CNN
F 1 "GND" H 9255 2077 50  0000 C CNN
F 2 "" H 9250 2250 50  0001 C CNN
F 3 "" H 9250 2250 50  0001 C CNN
	1    9250 2250
	1    0    0    -1  
$EndComp
$Comp
L power:GND #PWR0155
U 1 1 5C3DB815
P 9700 2250
F 0 "#PWR0155" H 9700 2000 50  0001 C CNN
F 1 "GND" H 9705 2077 50  0000 C CNN
F 2 "" H 9700 2250 50  0001 C CNN
F 3 "" H 9700 2250 50  0001 C CNN
	1    9700 2250
	1    0    0    -1  
$EndComp
Wire Wire Line
	9700 1350 9700 1300
Wire Wire Line
	9250 1300 9700 1300
Wire Wire Line
	9700 1650 9700 2250
Wire Wire Line
	9250 2250 9250 1650
Wire Wire Line
	9700 1300 10100 1300
Wire Wire Line
	10100 1300 10100 1350
Connection ~ 9700 1300
Wire Wire Line
	10100 1650 10100 1800
Wire Wire Line
	8700 1800 10100 1800
Wire Wire Line
	10750 1300 10750 1400
$Comp
L Device:R_US R20
U 1 1 5C52C614
P 10750 1550
F 0 "R20" H 10818 1596 50  0000 L CNN
F 1 "330" H 10818 1505 50  0000 L CNN
F 2 "Resistor_SMD:R_0402_1005Metric" V 10790 1540 50  0001 C CNN
F 3 "http://www.yageo.com/documents/recent/PYu-RC_Group_51_RoHS_L_10.pdf" H 10750 1550 50  0001 C CNN
F 4 "RC0402JR-07330RL" H 0   0   50  0001 C CNN "MPN"
F 5 "Yageo" H 0   0   50  0001 C CNN "Manf"
	1    10750 1550
	1    0    0    -1  
$EndComp
Wire Wire Line
	10750 1800 10750 1700
$Comp
L Device:LED D5
U 1 1 5C53E4A1
P 10750 1950
F 0 "D5" V 10788 1832 50  0000 R CNN
F 1 "5V" V 10697 1832 50  0000 R CNN
F 2 "LED_SMD:LED_0603_1608Metric" H 10750 1950 50  0001 C CNN
F 3 "https://katalog.we-online.de/led/datasheet/150060VS75000.pdf" H 10750 1950 50  0001 C CNN
F 4 "150060VS75000" H 0   0   50  0001 C CNN "MPN"
F 5 "Wurth Electronics" H 0   0   50  0001 C CNN "Manf"
	1    10750 1950
	0    -1   -1   0   
$EndComp
Wire Wire Line
	10750 2100 10750 2250
$Comp
L power:GND #PWR0156
U 1 1 5C550B3B
P 10750 2250
F 0 "#PWR0156" H 10750 2000 50  0001 C CNN
F 1 "GND" H 10755 2077 50  0000 C CNN
F 2 "" H 10750 2250 50  0001 C CNN
F 3 "" H 10750 2250 50  0001 C CNN
	1    10750 2250
	1    0    0    -1  
$EndComp
Wire Notes Line
	550  3500 550  600 
Wire Notes Line
	550  600  11100 600 
Wire Notes Line
	11100 600  11100 3500
Wire Notes Line
	11100 3500 550  3500
Text Notes 4950 800  0    118  ~ 24
Battery Charger & Boost
Text Notes 6800 4200 0    50   ~ 0
1A Max\n
$Comp
L Switch:SW_Push_SPDT SW1
U 1 1 5BF12DE3
P 7350 2700
F 0 "SW1" H 7350 2985 50  0000 C CNN
F 1 "ON/OFF" H 7350 2894 50  0000 C CNN
F 2 "GameIO:EG1270" H 7350 2700 50  0001 C CNN
F 3 "http://spec_sheets.e-switch.com/specs/P040045.pdf" H 7350 2700 50  0001 C CNN
F 4 "EG1270" H 1950 1400 50  0001 C CNN "MPN"
F 5 "E-Switch" H 1950 1400 50  0001 C CNN "Manf"
	1    7350 2700
	1    0    0    -1  
$EndComp
$Comp
L Device:R_US R15
U 1 1 5BF131E5
P 7600 2250
F 0 "R15" H 7400 2200 50  0000 L CNN
F 1 "0" H 7500 2300 50  0000 L CNN
F 2 "Resistor_SMD:R_0603_1608Metric" V 7640 2240 50  0001 C CNN
F 3 "http://www.yageo.com/documents/recent/PYu-RC_Group_51_RoHS_L_10.pdf" H 7600 2250 50  0001 C CNN
F 4 "RC0603JR-070RL" H 0   0   50  0001 C CNN "MPN"
F 5 "Yageo" H 0   0   50  0001 C CNN "Manf"
	1    7600 2250
	-1   0    0    1   
$EndComp
Wire Wire Line
	7350 1600 7900 1600
Text GLabel 10800 4300 2    50   UnSpc ~ 10
LED+
Text GLabel 10800 5000 2    50   UnSpc ~ 10
LED-
Wire Wire Line
	3750 1300 4050 1300
Connection ~ 4050 1300
$Comp
L Device:R_US R37
U 1 1 5C4B5C51
P 10550 4300
F 0 "R37" V 10350 4300 50  0000 C CNN
F 1 "0" V 10450 4300 50  0000 C CNN
F 2 "Resistor_SMD:R_0603_1608Metric" V 10590 4290 50  0001 C CNN
F 3 "http://www.yageo.com/documents/recent/PYu-RC_Group_51_RoHS_L_10.pdf" H 10550 4300 50  0001 C CNN
F 4 "RC0603JR-070RL" H 0   0   50  0001 C CNN "MPN"
F 5 "Yageo" H 0   0   50  0001 C CNN "Manf"
	1    10550 4300
	0    1    1    0   
$EndComp
Wire Wire Line
	10300 4300 10400 4300
Wire Wire Line
	10700 4300 10800 4300
$Comp
L power:VBUS #PWR0169
U 1 1 5C601D10
P 2650 6250
F 0 "#PWR0169" H 2650 6100 50  0001 C CNN
F 1 "VBUS" H 2665 6423 50  0000 C CNN
F 2 "" H 2650 6250 50  0001 C CNN
F 3 "" H 2650 6250 50  0001 C CNN
	1    2650 6250
	1    0    0    -1  
$EndComp
$Comp
L Device:R_US R33
U 1 1 5C6100F4
P 1900 4450
F 0 "R33" V 1700 4450 50  0000 C CNN
F 1 "0" V 1800 4450 50  0000 C CNN
F 2 "Resistor_SMD:R_0603_1608Metric" V 1940 4440 50  0001 C CNN
F 3 "http://www.yageo.com/documents/recent/PYu-RC_Group_51_RoHS_L_10.pdf" H 1900 4450 50  0001 C CNN
F 4 "RC0603JR-070RL" H -1850 0   50  0001 C CNN "MPN"
F 5 "Yageo" H -1850 0   50  0001 C CNN "Manf"
	1    1900 4450
	0    1    1    0   
$EndComp
Connection ~ 3450 4450
$Comp
L Device:R_US R36
U 1 1 5C6331F8
P 10450 1300
F 0 "R36" V 10250 1300 50  0000 C CNN
F 1 "0" V 10350 1300 50  0000 C CNN
F 2 "Resistor_SMD:R_0603_1608Metric" V 10490 1290 50  0001 C CNN
F 3 "http://www.yageo.com/documents/recent/PYu-RC_Group_51_RoHS_L_10.pdf" H 10450 1300 50  0001 C CNN
F 4 "RC0603JR-070RL" H 0   0   50  0001 C CNN "MPN"
F 5 "Yageo" H 0   0   50  0001 C CNN "Manf"
	1    10450 1300
	0    1    1    0   
$EndComp
Wire Wire Line
	10750 1300 10600 1300
Wire Wire Line
	10750 1200 10750 1300
Connection ~ 10750 1300
Wire Wire Line
	10300 1300 10100 1300
Connection ~ 10100 1300
$Comp
L Device:R_US R35
U 1 1 5C66D9E4
P 6550 4650
F 0 "R35" V 6350 4650 50  0000 C CNN
F 1 "0" V 6450 4650 50  0000 C CNN
F 2 "Resistor_SMD:R_0603_1608Metric" V 6590 4640 50  0001 C CNN
F 3 "http://www.yageo.com/documents/recent/PYu-RC_Group_51_RoHS_L_10.pdf" H 6550 4650 50  0001 C CNN
F 4 "RC0603JR-070RL" H -250 0   50  0001 C CNN "MPN"
F 5 "Yageo" H -250 0   50  0001 C CNN "Manf"
	1    6550 4650
	0    1    1    0   
$EndComp
Connection ~ 5550 4650
$Comp
L Device:R_US R34
U 1 1 5C69C67C
P 6100 4300
F 0 "R34" V 5900 4300 50  0000 C CNN
F 1 "0" V 6000 4300 50  0000 C CNN
F 2 "Resistor_SMD:R_0603_1608Metric" V 6140 4290 50  0001 C CNN
F 3 "http://www.yageo.com/documents/recent/PYu-RC_Group_51_RoHS_L_10.pdf" H 6100 4300 50  0001 C CNN
F 4 "RC0603JR-070RL" H -300 0   50  0001 C CNN "MPN"
F 5 "Yageo" H -300 0   50  0001 C CNN "Manf"
	1    6100 4300
	0    1    1    0   
$EndComp
Connection ~ 5450 4300
Wire Wire Line
	5850 4300 5850 4750
$Comp
L Device:R_US R38
U 1 1 5C720A52
P 10100 2000
F 0 "R38" H 10200 2050 50  0000 C CNN
F 1 "0" H 10150 1950 50  0000 L CNN
F 2 "Resistor_SMD:R_0603_1608Metric" V 10140 1990 50  0001 C CNN
F 3 "http://www.yageo.com/documents/recent/PYu-RC_Group_51_RoHS_L_10.pdf" H 10100 2000 50  0001 C CNN
F 4 "RC0603JR-070RL" H 0   0   50  0001 C CNN "MPN"
F 5 "Yageo" H 0   0   50  0001 C CNN "Manf"
	1    10100 2000
	1    0    0    -1  
$EndComp
Wire Wire Line
	10100 1850 10100 1800
Connection ~ 10100 1800
Wire Wire Line
	10100 2150 10100 2250
Wire Wire Line
	10100 2250 10150 2250
Text GLabel 10150 2250 2    50   Output ~ 0
LO_BATT
Text GLabel 6200 2900 2    50   Output ~ 0
CHG_LBO
Text GLabel 6200 3000 2    50   Output ~ 0
DONE
Wire Wire Line
	7600 1700 7600 2100
Wire Wire Line
	7600 1700 7900 1700
Wire Wire Line
	7550 2600 7600 2600
Wire Wire Line
	7600 2600 7600 2400
Wire Wire Line
	7150 2700 6950 2700
Wire Wire Line
	6950 2700 6950 1300
Connection ~ 6950 1300
Wire Wire Line
	6950 1300 7150 1300
Connection ~ 6150 1300
Connection ~ 6600 1300
Wire Wire Line
	6600 1300 6950 1300
Wire Wire Line
	6150 1300 6600 1300
Wire Wire Line
	4050 1300 6150 1300
$Comp
L Connector:USB_B_Micro J7
U 1 1 5C5078D0
P 2150 6550
F 0 "J7" H 2205 7017 50  0000 C CNN
F 1 "USB_B_Micro" H 2205 6926 50  0000 C CNN
F 2 "GameIO:USB_Micro-B_Wuerth_629105150521" H 2300 6500 50  0001 C CNN
F 3 "https://katalog.we-online.de/em/datasheet/629105150521.pdf" H 2300 6500 50  0001 C CNN
F 4 "629105150521" H 2150 6550 50  0001 C CNN "MPN"
	1    2150 6550
	1    0    0    -1  
$EndComp
Wire Wire Line
	2050 6950 2050 7050
Wire Wire Line
	2050 7050 2100 7050
Wire Wire Line
	2150 7050 2150 6950
$Comp
L power:GND #PWR0168
U 1 1 5C514994
P 2100 7050
F 0 "#PWR0168" H 2100 6800 50  0001 C CNN
F 1 "GND" H 2105 6877 50  0000 C CNN
F 2 "" H 2100 7050 50  0001 C CNN
F 3 "" H 2100 7050 50  0001 C CNN
	1    2100 7050
	1    0    0    -1  
$EndComp
Connection ~ 2100 7050
Wire Wire Line
	2100 7050 2150 7050
Wire Wire Line
	2650 6250 2650 6350
Wire Wire Line
	2650 6350 2450 6350
Wire Wire Line
	2450 6550 2550 6550
Wire Wire Line
	2550 6550 2550 6650
Wire Wire Line
	2550 6650 2450 6650
$Comp
L Device:R_US R39
U 1 1 5C578FDA
P 1900 4850
F 0 "R39" V 1700 4850 50  0000 C CNN
F 1 "0" V 1800 4850 50  0000 C CNN
F 2 "Resistor_SMD:R_0603_1608Metric" V 1940 4840 50  0001 C CNN
F 3 "http://www.yageo.com/documents/recent/PYu-RC_Group_51_RoHS_L_10.pdf" H 1900 4850 50  0001 C CNN
F 4 "RC0603JR-070RL" H -1850 400 50  0001 C CNN "MPN"
F 5 "Yageo" H -1850 400 50  0001 C CNN "Manf"
	1    1900 4850
	0    1    1    0   
$EndComp
Wire Wire Line
	2550 4450 3450 4450
Wire Wire Line
	3000 4850 2050 4850
Connection ~ 3000 4850
Wire Wire Line
	2050 4450 2150 4450
Connection ~ 2150 4450
Wire Wire Line
	1750 4450 1700 4450
Wire Wire Line
	1700 4450 1700 4250
Wire Wire Line
	1700 4450 1700 4850
Connection ~ 1700 4450
Wire Wire Line
	1750 4850 1700 4850
Text Label 2850 4450 0    50   ~ 0
+5V_IN1
Text Label 3100 4850 0    50   ~ 0
+5V_IN2
Text Label 5900 4650 0    50   ~ 0
+1V8_OUT
Text Label 5450 4300 0    50   ~ 0
+3V3_OUT
Wire Wire Line
	5450 4300 5850 4300
Wire Wire Line
	5550 4650 6300 4650
Wire Wire Line
	6250 4300 6400 4300
Wire Wire Line
	6400 4300 6400 4250
Wire Wire Line
	5950 4300 5850 4300
Connection ~ 5850 4300
Wire Wire Line
	6300 4650 6400 4650
Connection ~ 6300 4650
Wire Wire Line
	6700 4650 6850 4650
Wire Wire Line
	6850 4650 6850 4600
NoConn ~ 2450 6750
NoConn ~ 7550 2800
Text Notes 9250 6000 0    50   ~ 0
FAN5333A has Vfb = 110mV\n1.5ohm sets Iout = 73.3mA
Text Notes 13950 1800 0    50   ~ 0
Power Voltage Reqs:\nVBAT: MIN = 2.5V, MAX = 5.0 +5%\n3V3: 3.3 +/- 5%\n1V8: 1.8 +/- 5%\nSupplies should stagger so the highest comes up first.\n\nPower Min Req:\nVBAT: 3500mW (recommended min)\n3V3: 250mA\n1V8: 250mA\nGPIO banks: 50mA\nSDX_VDD: 50mA\n
$Comp
L GameIO:MP2166 U?
U 1 1 5CE43A96
P 8350 7650
F 0 "U?" H 8350 7750 50  0000 C CNN
F 1 "MP2166" H 8350 7650 50  0000 C CNN
F 2 "" H 8350 7900 50  0001 C CNN
F 3 "https://www.monolithicpower.com/en/documentview/productdocument/index/doc_url/L20vcC9tcHEyMTY2X3IxLjEzXzEucGRm/prod_id/NzQw/" H 8350 7900 50  0001 C CNN
	1    8350 7650
	1    0    0    -1  
$EndComp
Wire Wire Line
	8350 8450 8350 8500
Wire Wire Line
	8350 8500 8500 8500
Wire Wire Line
	8500 8500 8500 8450
Wire Wire Line
	8500 8500 8650 8500
Wire Wire Line
	8650 8500 8650 8450
Connection ~ 8500 8500
$Comp
L power:GND #PWR?
U 1 1 5CE62738
P 8500 8550
F 0 "#PWR?" H 8500 8300 50  0001 C CNN
F 1 "GND" H 8505 8377 50  0000 C CNN
F 2 "" H 8500 8550 50  0001 C CNN
F 3 "" H 8500 8550 50  0001 C CNN
	1    8500 8550
	1    0    0    -1  
$EndComp
Wire Wire Line
	8500 8550 8500 8500
Wire Wire Line
	8550 6800 8550 6700
Wire Wire Line
	8550 6700 8350 6700
Wire Wire Line
	8150 6800 8150 6700
Connection ~ 8150 6700
Wire Wire Line
	8150 6700 7300 6700
Wire Wire Line
	8350 6800 8350 6700
Connection ~ 8350 6700
Wire Wire Line
	8350 6700 8150 6700
Text Label 6500 6700 0    50   ~ 0
VSYS
$Comp
L Device:L_Small L?
U 1 1 5CEA3ED5
P 9300 7450
F 0 "L?" V 9485 7450 50  0000 C CNN
F 1 "L_Small" V 9394 7450 50  0000 C CNN
F 2 "" H 9300 7450 50  0001 C CNN
F 3 "~" H 9300 7450 50  0001 C CNN
	1    9300 7450
	0    -1   -1   0   
$EndComp
$Comp
L Device:L_Small L?
U 1 1 5CEA5627
P 7450 7450
F 0 "L?" V 7635 7450 50  0000 C CNN
F 1 "L_Small" V 7544 7450 50  0000 C CNN
F 2 "" H 7450 7450 50  0001 C CNN
F 3 "~" H 7450 7450 50  0001 C CNN
	1    7450 7450
	0    -1   -1   0   
$EndComp
$Comp
L Device:R_Small_US R?
U 1 1 5CEA5F21
P 9700 7650
F 0 "R?" H 9768 7696 50  0000 L CNN
F 1 "100k" H 9768 7605 50  0000 L CNN
F 2 "" H 9700 7650 50  0001 C CNN
F 3 "~" H 9700 7650 50  0001 C CNN
	1    9700 7650
	1    0    0    -1  
$EndComp
$Comp
L Device:R_Small_US R?
U 1 1 5CEA70DF
P 9700 8050
F 0 "R?" H 9768 8096 50  0000 L CNN
F 1 "22.1k" H 9768 8005 50  0000 L CNN
F 2 "" H 9700 8050 50  0001 C CNN
F 3 "~" H 9700 8050 50  0001 C CNN
	1    9700 8050
	1    0    0    -1  
$EndComp
$Comp
L Device:C_Small C?
U 1 1 5CEA78FD
P 10600 7550
F 0 "C?" H 10692 7596 50  0000 L CNN
F 1 "C_Small" H 10692 7505 50  0000 L CNN
F 2 "" H 10600 7550 50  0001 C CNN
F 3 "~" H 10600 7550 50  0001 C CNN
	1    10600 7550
	1    0    0    -1  
$EndComp
$Comp
L Device:C_Small C?
U 1 1 5CEA8A51
P 11050 7550
F 0 "C?" H 11142 7596 50  0000 L CNN
F 1 "C_Small" H 11142 7505 50  0000 L CNN
F 2 "" H 11050 7550 50  0001 C CNN
F 3 "~" H 11050 7550 50  0001 C CNN
	1    11050 7550
	1    0    0    -1  
$EndComp
$Comp
L Device:C_Small C?
U 1 1 5CEA92C7
P 9050 8200
F 0 "C?" H 9142 8246 50  0000 L CNN
F 1 "C_Small" H 9142 8155 50  0000 L CNN
F 2 "" H 9050 8200 50  0001 C CNN
F 3 "~" H 9050 8200 50  0001 C CNN
	1    9050 8200
	1    0    0    -1  
$EndComp
$Comp
L Device:R_Small_US R?
U 1 1 5CECCD7E
P 7050 7650
F 0 "R?" H 7118 7696 50  0000 L CNN
F 1 "100k" H 7118 7605 50  0000 L CNN
F 2 "" H 7050 7650 50  0001 C CNN
F 3 "~" H 7050 7650 50  0001 C CNN
	1    7050 7650
	1    0    0    -1  
$EndComp
$Comp
L Device:R_Small_US R?
U 1 1 5CECD676
P 7050 8050
F 0 "R?" H 7118 8096 50  0000 L CNN
F 1 "49.9k" H 7118 8005 50  0000 L CNN
F 2 "" H 7050 8050 50  0001 C CNN
F 3 "~" H 7050 8050 50  0001 C CNN
	1    7050 8050
	1    0    0    -1  
$EndComp
$Comp
L Device:R_Small_US R?
U 1 1 5CECDEE0
P 7300 6900
F 0 "R?" H 7368 6946 50  0000 L CNN
F 1 "R_Small_US" H 7368 6855 50  0000 L CNN
F 2 "" H 7300 6900 50  0001 C CNN
F 3 "~" H 7300 6900 50  0001 C CNN
	1    7300 6900
	1    0    0    -1  
$EndComp
Wire Wire Line
	7750 7100 7300 7100
Wire Wire Line
	7300 7000 7300 7100
Wire Wire Line
	7300 6800 7300 6700
Connection ~ 7300 6700
Wire Wire Line
	7300 6700 7050 6700
$Comp
L Device:R_Small_US R?
U 1 1 5CF1BC89
P 9100 6900
F 0 "R?" H 9168 6946 50  0000 L CNN
F 1 "R_Small_US" H 9168 6855 50  0000 L CNN
F 2 "" H 9100 6900 50  0001 C CNN
F 3 "~" H 9100 6900 50  0001 C CNN
	1    9100 6900
	1    0    0    -1  
$EndComp
Wire Wire Line
	9100 7000 9100 7100
Wire Wire Line
	9100 7100 8950 7100
Wire Wire Line
	9100 6800 9100 6700
Wire Wire Line
	9100 6700 8550 6700
Connection ~ 8550 6700
$Comp
L Device:R_Small_US R?
U 1 1 5CF5BE16
P 7050 7050
F 0 "R?" H 7118 7096 50  0000 L CNN
F 1 "R_Small_US" H 7118 7005 50  0000 L CNN
F 2 "" H 7050 7050 50  0001 C CNN
F 3 "~" H 7050 7050 50  0001 C CNN
	1    7050 7050
	1    0    0    -1  
$EndComp
Wire Wire Line
	7050 6950 7050 6700
Connection ~ 7050 6700
Wire Wire Line
	7050 6700 6500 6700
Wire Wire Line
	7750 7200 7050 7200
Wire Wire Line
	7050 7200 7050 7150
$Comp
L Device:R_Small_US R?
U 1 1 5CF8CDC9
P 9700 7000
F 0 "R?" H 9768 7046 50  0000 L CNN
F 1 "R_Small_US" H 9768 6955 50  0000 L CNN
F 2 "" H 9700 7000 50  0001 C CNN
F 3 "~" H 9700 7000 50  0001 C CNN
	1    9700 7000
	1    0    0    -1  
$EndComp
Wire Wire Line
	8950 7200 9700 7200
Wire Wire Line
	9700 7200 9700 7100
Wire Wire Line
	9700 6900 9700 6700
Wire Wire Line
	9700 6700 9100 6700
Connection ~ 9100 6700
$Comp
L Device:R_Small_US R?
U 1 1 5CE5FFDE
P 9300 7850
F 0 "R?" V 9095 7850 50  0000 C CNN
F 1 "100k" V 9186 7850 50  0000 C CNN
F 2 "" H 9300 7850 50  0001 C CNN
F 3 "~" H 9300 7850 50  0001 C CNN
	1    9300 7850
	0    1    1    0   
$EndComp
Wire Wire Line
	9200 7850 8950 7850
Wire Wire Line
	9400 7850 9700 7850
Wire Wire Line
	9700 7850 9700 7750
Wire Wire Line
	9700 7550 9700 7450
Wire Wire Line
	9700 7450 9400 7450
Wire Wire Line
	9200 7450 8950 7450
Wire Wire Line
	9700 7850 9700 7950
Connection ~ 9700 7850
Wire Wire Line
	9700 8150 9700 8250
$Comp
L power:GND #PWR?
U 1 1 5CEFEB6F
P 9700 8250
F 0 "#PWR?" H 9700 8000 50  0001 C CNN
F 1 "GND" H 9705 8077 50  0000 C CNN
F 2 "" H 9700 8250 50  0001 C CNN
F 3 "" H 9700 8250 50  0001 C CNN
	1    9700 8250
	1    0    0    -1  
$EndComp
$Comp
L power:+3.3V #PWR?
U 1 1 5CEFF516
P 10600 7250
F 0 "#PWR?" H 10600 7100 50  0001 C CNN
F 1 "+3.3V" H 10615 7423 50  0000 C CNN
F 2 "" H 10600 7250 50  0001 C CNN
F 3 "" H 10600 7250 50  0001 C CNN
	1    10600 7250
	1    0    0    -1  
$EndComp
$Comp
L power:+1V8 #PWR?
U 1 1 5CF013DA
P 6700 7400
F 0 "#PWR?" H 6700 7250 50  0001 C CNN
F 1 "+1V8" H 6715 7573 50  0000 C CNN
F 2 "" H 6700 7400 50  0001 C CNN
F 3 "" H 6700 7400 50  0001 C CNN
	1    6700 7400
	1    0    0    -1  
$EndComp
$Comp
L Device:R_Small_US R?
U 1 1 5CF02A0A
P 7450 7850
F 0 "R?" V 7245 7850 50  0000 C CNN
F 1 "100k" V 7336 7850 50  0000 C CNN
F 2 "" H 7450 7850 50  0001 C CNN
F 3 "~" H 7450 7850 50  0001 C CNN
	1    7450 7850
	0    1    1    0   
$EndComp
Wire Wire Line
	7550 7450 7750 7450
Wire Wire Line
	7550 7850 7750 7850
Wire Wire Line
	7050 7750 7050 7850
Wire Wire Line
	7350 7850 7050 7850
Connection ~ 7050 7850
Wire Wire Line
	7050 7850 7050 7950
Wire Wire Line
	7050 7450 7350 7450
Wire Wire Line
	7050 7450 7050 7550
Wire Wire Line
	7050 8150 7050 8200
$Comp
L power:GND #PWR?
U 1 1 5CF9AF20
P 7050 8200
F 0 "#PWR?" H 7050 7950 50  0001 C CNN
F 1 "GND" H 7055 8027 50  0000 C CNN
F 2 "" H 7050 8200 50  0001 C CNN
F 3 "" H 7050 8200 50  0001 C CNN
	1    7050 8200
	1    0    0    -1  
$EndComp
Wire Wire Line
	7050 7450 6800 7450
Connection ~ 7050 7450
Wire Wire Line
	9700 7450 10050 7450
Connection ~ 9700 7450
$Comp
L Device:R_Small_US R?
U 1 1 5D068939
P 8200 8750
F 0 "R?" H 8268 8796 50  0000 L CNN
F 1 "75k" H 8268 8705 50  0000 L CNN
F 2 "" H 8200 8750 50  0001 C CNN
F 3 "~" H 8200 8750 50  0001 C CNN
	1    8200 8750
	-1   0    0    -1  
$EndComp
Wire Wire Line
	8200 8850 8200 8900
$Comp
L power:GND #PWR?
U 1 1 5D08FFB1
P 8200 8900
F 0 "#PWR?" H 8200 8650 50  0001 C CNN
F 1 "GND" H 8205 8727 50  0000 C CNN
F 2 "" H 8200 8900 50  0001 C CNN
F 3 "" H 8200 8900 50  0001 C CNN
	1    8200 8900
	1    0    0    -1  
$EndComp
$Comp
L Device:R_Small_US R?
U 1 1 5D090F1E
P 7750 8550
F 0 "R?" V 7550 8500 50  0000 L CNN
F 1 "0" V 7650 8550 50  0000 C CNN
F 2 "" H 7750 8550 50  0001 C CNN
F 3 "~" H 7750 8550 50  0001 C CNN
	1    7750 8550
	0    1    1    0   
$EndComp
Wire Wire Line
	7650 8550 7400 8550
Text Label 7400 8550 0    50   ~ 0
VSYS
Wire Wire Line
	8050 8450 8050 8550
Wire Wire Line
	8050 8550 7850 8550
Wire Wire Line
	8200 8450 8200 8650
$EndSCHEMATC
