G04 #@! TF.GenerationSoftware,KiCad,Pcbnew,(5.0.2)-1*
G04 #@! TF.CreationDate,2019-02-23T00:54:13-06:00*
G04 #@! TF.ProjectId,GameIO,47616d65-494f-42e6-9b69-6361645f7063,rev?*
G04 #@! TF.SameCoordinates,Original*
G04 #@! TF.FileFunction,Paste,Bot*
G04 #@! TF.FilePolarity,Positive*
%FSLAX46Y46*%
G04 Gerber Fmt 4.6, Leading zero omitted, Abs format (unit mm)*
G04 Created by KiCad (PCBNEW (5.0.2)-1) date 2/23/2019 12:54:13 AM*
%MOMM*%
%LPD*%
G01*
G04 APERTURE LIST*
%ADD10R,2.000000X0.350000*%
%ADD11R,4.600000X4.500000*%
%ADD12R,0.450000X1.300000*%
%ADD13C,0.100000*%
%ADD14C,1.000000*%
%ADD15C,1.500000*%
%ADD16R,2.700000X2.600000*%
%ADD17R,2.100000X2.700000*%
%ADD18R,2.100000X2.200000*%
%ADD19R,2.100000X2.000000*%
%ADD20R,0.300000X1.900000*%
%ADD21R,0.510000X0.400000*%
%ADD22C,0.590000*%
%ADD23C,0.875000*%
G04 APERTURE END LIST*
D10*
G04 #@! TO.C,J1*
X185224000Y-136200000D03*
X193424000Y-135900000D03*
X185224000Y-135600000D03*
X193424000Y-135300000D03*
X185224000Y-135000000D03*
X193424000Y-134700000D03*
X185224000Y-134400000D03*
X193424000Y-134100000D03*
X185224000Y-133800000D03*
X193424000Y-133500000D03*
X185224000Y-133200000D03*
X193424000Y-132900000D03*
X185224000Y-132600000D03*
X193424000Y-132300000D03*
X185224000Y-132000000D03*
X193424000Y-131700000D03*
X185224000Y-131400000D03*
X193424000Y-131100000D03*
X185224000Y-130800000D03*
X193424000Y-130500000D03*
X185224000Y-130200000D03*
X193424000Y-129900000D03*
X185224000Y-129600000D03*
X193424000Y-129300000D03*
X185224000Y-129000000D03*
X193424000Y-128700000D03*
X185224000Y-128400000D03*
X193424000Y-128100000D03*
X185224000Y-127800000D03*
X193424000Y-127500000D03*
X185224000Y-127200000D03*
X193424000Y-126900000D03*
X185224000Y-126600000D03*
X193424000Y-126300000D03*
X185224000Y-126000000D03*
X193424000Y-125700000D03*
X185224000Y-125400000D03*
X193424000Y-125100000D03*
X185224000Y-124800000D03*
X193424000Y-124500000D03*
X185224000Y-120600000D03*
X193424000Y-120300000D03*
X185224000Y-120000000D03*
X193424000Y-119700000D03*
X185224000Y-119400000D03*
X193424000Y-119100000D03*
X185224000Y-118800000D03*
X193424000Y-118500000D03*
X185224000Y-118200000D03*
X193424000Y-117900000D03*
X185224000Y-117600000D03*
X193424000Y-117300000D03*
X185224000Y-117000000D03*
X193424000Y-116700000D03*
X185224000Y-116400000D03*
X193424000Y-116100000D03*
X185224000Y-115800000D03*
X193424000Y-115500000D03*
X185224000Y-115200000D03*
X193424000Y-114900000D03*
X185224000Y-114600000D03*
X193424000Y-114300000D03*
X185224000Y-114000000D03*
X193424000Y-113700000D03*
X185224000Y-113400000D03*
X193424000Y-113100000D03*
X185224000Y-112800000D03*
X193424000Y-112500000D03*
X185224000Y-112200000D03*
X193424000Y-111900000D03*
X185224000Y-111600000D03*
X193424000Y-111300000D03*
X185224000Y-111000000D03*
X193424000Y-110700000D03*
X185224000Y-110400000D03*
X193424000Y-110100000D03*
X185224000Y-109800000D03*
X193424000Y-109500000D03*
X185224000Y-109200000D03*
X193424000Y-108900000D03*
X185224000Y-108600000D03*
X193424000Y-108300000D03*
X185224000Y-108000000D03*
X193424000Y-107700000D03*
X185224000Y-107400000D03*
X193424000Y-107100000D03*
X185224000Y-106800000D03*
X193424000Y-106500000D03*
X185224000Y-106200000D03*
X193424000Y-105900000D03*
X185224000Y-105600000D03*
X193424000Y-105300000D03*
X185224000Y-105000000D03*
X193424000Y-104700000D03*
X185224000Y-104400000D03*
X193424000Y-104100000D03*
X185224000Y-103800000D03*
X193424000Y-103500000D03*
X185224000Y-103200000D03*
X193424000Y-102900000D03*
X185224000Y-102600000D03*
X193424000Y-102300000D03*
X185224000Y-102000000D03*
X193424000Y-101700000D03*
X185224000Y-101400000D03*
X193424000Y-101100000D03*
X185224000Y-100800000D03*
X193424000Y-100500000D03*
X185224000Y-100200000D03*
X193424000Y-99900000D03*
X185224000Y-99600000D03*
X193424000Y-99300000D03*
X185224000Y-99000000D03*
X193424000Y-98700000D03*
X185224000Y-98400000D03*
X193424000Y-98100000D03*
X185224000Y-97800000D03*
X193424000Y-97500000D03*
X185224000Y-97200000D03*
X193424000Y-96900000D03*
X185224000Y-96600000D03*
X193424000Y-96300000D03*
X185224000Y-96000000D03*
X193424000Y-95700000D03*
X185224000Y-95400000D03*
X193424000Y-95100000D03*
X185224000Y-94800000D03*
X193424000Y-94500000D03*
X185224000Y-94200000D03*
X193424000Y-93900000D03*
X185224000Y-93600000D03*
X193424000Y-93300000D03*
X185224000Y-93000000D03*
X193424000Y-92700000D03*
X185224000Y-92400000D03*
X193424000Y-92100000D03*
X185224000Y-91800000D03*
X193424000Y-91500000D03*
X185224000Y-91200000D03*
X193424000Y-90900000D03*
X185224000Y-90600000D03*
X193424000Y-90300000D03*
X185224000Y-90000000D03*
X193424000Y-89700000D03*
X185224000Y-89400000D03*
X193424000Y-89100000D03*
X185224000Y-88800000D03*
X193424000Y-88500000D03*
X185224000Y-88200000D03*
X193424000Y-87900000D03*
X185224000Y-87600000D03*
X193424000Y-87300000D03*
X185224000Y-87000000D03*
X193424000Y-86700000D03*
X185224000Y-86400000D03*
X193424000Y-86100000D03*
X185224000Y-85800000D03*
X193424000Y-85500000D03*
X185224000Y-85200000D03*
X193424000Y-84900000D03*
X185224000Y-84600000D03*
X193424000Y-84300000D03*
X185224000Y-84000000D03*
X193424000Y-83700000D03*
X185224000Y-83400000D03*
X193424000Y-83100000D03*
X185224000Y-82800000D03*
X193424000Y-82500000D03*
X185224000Y-82200000D03*
X193424000Y-81900000D03*
X185224000Y-81600000D03*
X193424000Y-81300000D03*
X185224000Y-81000000D03*
X193424000Y-80700000D03*
X185224000Y-80400000D03*
X193424000Y-80100000D03*
X185224000Y-79800000D03*
X193424000Y-79500000D03*
X185224000Y-79200000D03*
X193424000Y-78900000D03*
X185224000Y-78600000D03*
X193424000Y-78300000D03*
X185224000Y-78000000D03*
X193424000Y-77700000D03*
X185224000Y-77400000D03*
X193424000Y-77100000D03*
X185224000Y-76800000D03*
X193424000Y-76500000D03*
X185224000Y-76200000D03*
X193424000Y-75900000D03*
X185224000Y-75600000D03*
X193424000Y-75300000D03*
X185224000Y-75000000D03*
X193424000Y-74700000D03*
X185224000Y-74400000D03*
X193424000Y-74100000D03*
X185224000Y-73800000D03*
X193424000Y-73500000D03*
X185224000Y-73200000D03*
X193424000Y-72900000D03*
D11*
X201324000Y-72000000D03*
X201324000Y-137100000D03*
G04 #@! TD*
D12*
G04 #@! TO.C,J2*
X176687000Y-71940500D03*
X176037000Y-71940500D03*
X175387000Y-71940500D03*
X174737000Y-71940500D03*
X174087000Y-71940500D03*
G04 #@! TD*
D13*
G04 #@! TO.C,BT1*
G36*
X139357004Y-89728204D02*
X139381273Y-89731804D01*
X139405071Y-89737765D01*
X139428171Y-89746030D01*
X139450349Y-89756520D01*
X139471393Y-89769133D01*
X139491098Y-89783747D01*
X139509277Y-89800223D01*
X139525753Y-89818402D01*
X139540367Y-89838107D01*
X139552980Y-89859151D01*
X139563470Y-89881329D01*
X139571735Y-89904429D01*
X139577696Y-89928227D01*
X139581296Y-89952496D01*
X139582500Y-89977000D01*
X139582500Y-90477000D01*
X139581296Y-90501504D01*
X139577696Y-90525773D01*
X139571735Y-90549571D01*
X139563470Y-90572671D01*
X139552980Y-90594849D01*
X139540367Y-90615893D01*
X139525753Y-90635598D01*
X139509277Y-90653777D01*
X139491098Y-90670253D01*
X139471393Y-90684867D01*
X139450349Y-90697480D01*
X139428171Y-90707970D01*
X139405071Y-90716235D01*
X139381273Y-90722196D01*
X139357004Y-90725796D01*
X139332500Y-90727000D01*
X136332500Y-90727000D01*
X136307996Y-90725796D01*
X136283727Y-90722196D01*
X136259929Y-90716235D01*
X136236829Y-90707970D01*
X136214651Y-90697480D01*
X136193607Y-90684867D01*
X136173902Y-90670253D01*
X136155723Y-90653777D01*
X136139247Y-90635598D01*
X136124633Y-90615893D01*
X136112020Y-90594849D01*
X136101530Y-90572671D01*
X136093265Y-90549571D01*
X136087304Y-90525773D01*
X136083704Y-90501504D01*
X136082500Y-90477000D01*
X136082500Y-89977000D01*
X136083704Y-89952496D01*
X136087304Y-89928227D01*
X136093265Y-89904429D01*
X136101530Y-89881329D01*
X136112020Y-89859151D01*
X136124633Y-89838107D01*
X136139247Y-89818402D01*
X136155723Y-89800223D01*
X136173902Y-89783747D01*
X136193607Y-89769133D01*
X136214651Y-89756520D01*
X136236829Y-89746030D01*
X136259929Y-89737765D01*
X136283727Y-89731804D01*
X136307996Y-89728204D01*
X136332500Y-89727000D01*
X139332500Y-89727000D01*
X139357004Y-89728204D01*
X139357004Y-89728204D01*
G37*
D14*
X137832500Y-90227000D03*
D13*
G36*
X139357004Y-87728204D02*
X139381273Y-87731804D01*
X139405071Y-87737765D01*
X139428171Y-87746030D01*
X139450349Y-87756520D01*
X139471393Y-87769133D01*
X139491098Y-87783747D01*
X139509277Y-87800223D01*
X139525753Y-87818402D01*
X139540367Y-87838107D01*
X139552980Y-87859151D01*
X139563470Y-87881329D01*
X139571735Y-87904429D01*
X139577696Y-87928227D01*
X139581296Y-87952496D01*
X139582500Y-87977000D01*
X139582500Y-88477000D01*
X139581296Y-88501504D01*
X139577696Y-88525773D01*
X139571735Y-88549571D01*
X139563470Y-88572671D01*
X139552980Y-88594849D01*
X139540367Y-88615893D01*
X139525753Y-88635598D01*
X139509277Y-88653777D01*
X139491098Y-88670253D01*
X139471393Y-88684867D01*
X139450349Y-88697480D01*
X139428171Y-88707970D01*
X139405071Y-88716235D01*
X139381273Y-88722196D01*
X139357004Y-88725796D01*
X139332500Y-88727000D01*
X136332500Y-88727000D01*
X136307996Y-88725796D01*
X136283727Y-88722196D01*
X136259929Y-88716235D01*
X136236829Y-88707970D01*
X136214651Y-88697480D01*
X136193607Y-88684867D01*
X136173902Y-88670253D01*
X136155723Y-88653777D01*
X136139247Y-88635598D01*
X136124633Y-88615893D01*
X136112020Y-88594849D01*
X136101530Y-88572671D01*
X136093265Y-88549571D01*
X136087304Y-88525773D01*
X136083704Y-88501504D01*
X136082500Y-88477000D01*
X136082500Y-87977000D01*
X136083704Y-87952496D01*
X136087304Y-87928227D01*
X136093265Y-87904429D01*
X136101530Y-87881329D01*
X136112020Y-87859151D01*
X136124633Y-87838107D01*
X136139247Y-87818402D01*
X136155723Y-87800223D01*
X136173902Y-87783747D01*
X136193607Y-87769133D01*
X136214651Y-87756520D01*
X136236829Y-87746030D01*
X136259929Y-87737765D01*
X136283727Y-87731804D01*
X136307996Y-87728204D01*
X136332500Y-87727000D01*
X139332500Y-87727000D01*
X139357004Y-87728204D01*
X139357004Y-87728204D01*
G37*
D14*
X137832500Y-88227000D03*
D13*
G36*
X133557004Y-91828204D02*
X133581273Y-91831804D01*
X133605071Y-91837765D01*
X133628171Y-91846030D01*
X133650349Y-91856520D01*
X133671393Y-91869133D01*
X133691098Y-91883747D01*
X133709277Y-91900223D01*
X133725753Y-91918402D01*
X133740367Y-91938107D01*
X133752980Y-91959151D01*
X133763470Y-91981329D01*
X133771735Y-92004429D01*
X133777696Y-92028227D01*
X133781296Y-92052496D01*
X133782500Y-92077000D01*
X133782500Y-93077000D01*
X133781296Y-93101504D01*
X133777696Y-93125773D01*
X133771735Y-93149571D01*
X133763470Y-93172671D01*
X133752980Y-93194849D01*
X133740367Y-93215893D01*
X133725753Y-93235598D01*
X133709277Y-93253777D01*
X133691098Y-93270253D01*
X133671393Y-93284867D01*
X133650349Y-93297480D01*
X133628171Y-93307970D01*
X133605071Y-93316235D01*
X133581273Y-93322196D01*
X133557004Y-93325796D01*
X133532500Y-93327000D01*
X130632500Y-93327000D01*
X130607996Y-93325796D01*
X130583727Y-93322196D01*
X130559929Y-93316235D01*
X130536829Y-93307970D01*
X130514651Y-93297480D01*
X130493607Y-93284867D01*
X130473902Y-93270253D01*
X130455723Y-93253777D01*
X130439247Y-93235598D01*
X130424633Y-93215893D01*
X130412020Y-93194849D01*
X130401530Y-93172671D01*
X130393265Y-93149571D01*
X130387304Y-93125773D01*
X130383704Y-93101504D01*
X130382500Y-93077000D01*
X130382500Y-92077000D01*
X130383704Y-92052496D01*
X130387304Y-92028227D01*
X130393265Y-92004429D01*
X130401530Y-91981329D01*
X130412020Y-91959151D01*
X130424633Y-91938107D01*
X130439247Y-91918402D01*
X130455723Y-91900223D01*
X130473902Y-91883747D01*
X130493607Y-91869133D01*
X130514651Y-91856520D01*
X130536829Y-91846030D01*
X130559929Y-91837765D01*
X130583727Y-91831804D01*
X130607996Y-91828204D01*
X130632500Y-91827000D01*
X133532500Y-91827000D01*
X133557004Y-91828204D01*
X133557004Y-91828204D01*
G37*
D15*
X132082500Y-92577000D03*
D13*
G36*
X133557004Y-85128204D02*
X133581273Y-85131804D01*
X133605071Y-85137765D01*
X133628171Y-85146030D01*
X133650349Y-85156520D01*
X133671393Y-85169133D01*
X133691098Y-85183747D01*
X133709277Y-85200223D01*
X133725753Y-85218402D01*
X133740367Y-85238107D01*
X133752980Y-85259151D01*
X133763470Y-85281329D01*
X133771735Y-85304429D01*
X133777696Y-85328227D01*
X133781296Y-85352496D01*
X133782500Y-85377000D01*
X133782500Y-86377000D01*
X133781296Y-86401504D01*
X133777696Y-86425773D01*
X133771735Y-86449571D01*
X133763470Y-86472671D01*
X133752980Y-86494849D01*
X133740367Y-86515893D01*
X133725753Y-86535598D01*
X133709277Y-86553777D01*
X133691098Y-86570253D01*
X133671393Y-86584867D01*
X133650349Y-86597480D01*
X133628171Y-86607970D01*
X133605071Y-86616235D01*
X133581273Y-86622196D01*
X133557004Y-86625796D01*
X133532500Y-86627000D01*
X130632500Y-86627000D01*
X130607996Y-86625796D01*
X130583727Y-86622196D01*
X130559929Y-86616235D01*
X130536829Y-86607970D01*
X130514651Y-86597480D01*
X130493607Y-86584867D01*
X130473902Y-86570253D01*
X130455723Y-86553777D01*
X130439247Y-86535598D01*
X130424633Y-86515893D01*
X130412020Y-86494849D01*
X130401530Y-86472671D01*
X130393265Y-86449571D01*
X130387304Y-86425773D01*
X130383704Y-86401504D01*
X130382500Y-86377000D01*
X130382500Y-85377000D01*
X130383704Y-85352496D01*
X130387304Y-85328227D01*
X130393265Y-85304429D01*
X130401530Y-85281329D01*
X130412020Y-85259151D01*
X130424633Y-85238107D01*
X130439247Y-85218402D01*
X130455723Y-85200223D01*
X130473902Y-85183747D01*
X130493607Y-85169133D01*
X130514651Y-85156520D01*
X130536829Y-85146030D01*
X130559929Y-85137765D01*
X130583727Y-85131804D01*
X130607996Y-85128204D01*
X130632500Y-85127000D01*
X133532500Y-85127000D01*
X133557004Y-85128204D01*
X133557004Y-85128204D01*
G37*
D15*
X132082500Y-85877000D03*
G04 #@! TD*
D16*
G04 #@! TO.C,J4*
X78000000Y-124950000D03*
D17*
X73200000Y-129050000D03*
D18*
X73200000Y-138350000D03*
X81300000Y-136450000D03*
D19*
X81300000Y-139150000D03*
G04 #@! TD*
D20*
G04 #@! TO.C,J5*
X149102500Y-74737000D03*
X149602500Y-74737000D03*
X150102500Y-74737000D03*
X150602500Y-74737000D03*
X151102500Y-74737000D03*
X151602500Y-74737000D03*
X152102500Y-74737000D03*
X152602500Y-74737000D03*
X153102500Y-74737000D03*
X153602500Y-74737000D03*
X154102500Y-74737000D03*
X154602500Y-74737000D03*
X155102500Y-74737000D03*
X155602500Y-74737000D03*
X156102500Y-74737000D03*
X156602500Y-74737000D03*
X157102500Y-74737000D03*
X157602500Y-74737000D03*
X158102500Y-74737000D03*
G04 #@! TD*
D21*
G04 #@! TO.C,Q1*
X147091900Y-80748800D03*
X147091900Y-79748800D03*
X145801900Y-80248800D03*
G04 #@! TD*
D13*
G04 #@! TO.C,C18*
G36*
X87668458Y-136139710D02*
X87682776Y-136141834D01*
X87696817Y-136145351D01*
X87710446Y-136150228D01*
X87723531Y-136156417D01*
X87735947Y-136163858D01*
X87747573Y-136172481D01*
X87758298Y-136182202D01*
X87768019Y-136192927D01*
X87776642Y-136204553D01*
X87784083Y-136216969D01*
X87790272Y-136230054D01*
X87795149Y-136243683D01*
X87798666Y-136257724D01*
X87800790Y-136272042D01*
X87801500Y-136286500D01*
X87801500Y-136631500D01*
X87800790Y-136645958D01*
X87798666Y-136660276D01*
X87795149Y-136674317D01*
X87790272Y-136687946D01*
X87784083Y-136701031D01*
X87776642Y-136713447D01*
X87768019Y-136725073D01*
X87758298Y-136735798D01*
X87747573Y-136745519D01*
X87735947Y-136754142D01*
X87723531Y-136761583D01*
X87710446Y-136767772D01*
X87696817Y-136772649D01*
X87682776Y-136776166D01*
X87668458Y-136778290D01*
X87654000Y-136779000D01*
X87359000Y-136779000D01*
X87344542Y-136778290D01*
X87330224Y-136776166D01*
X87316183Y-136772649D01*
X87302554Y-136767772D01*
X87289469Y-136761583D01*
X87277053Y-136754142D01*
X87265427Y-136745519D01*
X87254702Y-136735798D01*
X87244981Y-136725073D01*
X87236358Y-136713447D01*
X87228917Y-136701031D01*
X87222728Y-136687946D01*
X87217851Y-136674317D01*
X87214334Y-136660276D01*
X87212210Y-136645958D01*
X87211500Y-136631500D01*
X87211500Y-136286500D01*
X87212210Y-136272042D01*
X87214334Y-136257724D01*
X87217851Y-136243683D01*
X87222728Y-136230054D01*
X87228917Y-136216969D01*
X87236358Y-136204553D01*
X87244981Y-136192927D01*
X87254702Y-136182202D01*
X87265427Y-136172481D01*
X87277053Y-136163858D01*
X87289469Y-136156417D01*
X87302554Y-136150228D01*
X87316183Y-136145351D01*
X87330224Y-136141834D01*
X87344542Y-136139710D01*
X87359000Y-136139000D01*
X87654000Y-136139000D01*
X87668458Y-136139710D01*
X87668458Y-136139710D01*
G37*
D22*
X87506500Y-136459000D03*
D13*
G36*
X88638458Y-136139710D02*
X88652776Y-136141834D01*
X88666817Y-136145351D01*
X88680446Y-136150228D01*
X88693531Y-136156417D01*
X88705947Y-136163858D01*
X88717573Y-136172481D01*
X88728298Y-136182202D01*
X88738019Y-136192927D01*
X88746642Y-136204553D01*
X88754083Y-136216969D01*
X88760272Y-136230054D01*
X88765149Y-136243683D01*
X88768666Y-136257724D01*
X88770790Y-136272042D01*
X88771500Y-136286500D01*
X88771500Y-136631500D01*
X88770790Y-136645958D01*
X88768666Y-136660276D01*
X88765149Y-136674317D01*
X88760272Y-136687946D01*
X88754083Y-136701031D01*
X88746642Y-136713447D01*
X88738019Y-136725073D01*
X88728298Y-136735798D01*
X88717573Y-136745519D01*
X88705947Y-136754142D01*
X88693531Y-136761583D01*
X88680446Y-136767772D01*
X88666817Y-136772649D01*
X88652776Y-136776166D01*
X88638458Y-136778290D01*
X88624000Y-136779000D01*
X88329000Y-136779000D01*
X88314542Y-136778290D01*
X88300224Y-136776166D01*
X88286183Y-136772649D01*
X88272554Y-136767772D01*
X88259469Y-136761583D01*
X88247053Y-136754142D01*
X88235427Y-136745519D01*
X88224702Y-136735798D01*
X88214981Y-136725073D01*
X88206358Y-136713447D01*
X88198917Y-136701031D01*
X88192728Y-136687946D01*
X88187851Y-136674317D01*
X88184334Y-136660276D01*
X88182210Y-136645958D01*
X88181500Y-136631500D01*
X88181500Y-136286500D01*
X88182210Y-136272042D01*
X88184334Y-136257724D01*
X88187851Y-136243683D01*
X88192728Y-136230054D01*
X88198917Y-136216969D01*
X88206358Y-136204553D01*
X88214981Y-136192927D01*
X88224702Y-136182202D01*
X88235427Y-136172481D01*
X88247053Y-136163858D01*
X88259469Y-136156417D01*
X88272554Y-136150228D01*
X88286183Y-136145351D01*
X88300224Y-136141834D01*
X88314542Y-136139710D01*
X88329000Y-136139000D01*
X88624000Y-136139000D01*
X88638458Y-136139710D01*
X88638458Y-136139710D01*
G37*
D22*
X88476500Y-136459000D03*
G04 #@! TD*
D13*
G04 #@! TO.C,C19*
G36*
X87668458Y-132710710D02*
X87682776Y-132712834D01*
X87696817Y-132716351D01*
X87710446Y-132721228D01*
X87723531Y-132727417D01*
X87735947Y-132734858D01*
X87747573Y-132743481D01*
X87758298Y-132753202D01*
X87768019Y-132763927D01*
X87776642Y-132775553D01*
X87784083Y-132787969D01*
X87790272Y-132801054D01*
X87795149Y-132814683D01*
X87798666Y-132828724D01*
X87800790Y-132843042D01*
X87801500Y-132857500D01*
X87801500Y-133202500D01*
X87800790Y-133216958D01*
X87798666Y-133231276D01*
X87795149Y-133245317D01*
X87790272Y-133258946D01*
X87784083Y-133272031D01*
X87776642Y-133284447D01*
X87768019Y-133296073D01*
X87758298Y-133306798D01*
X87747573Y-133316519D01*
X87735947Y-133325142D01*
X87723531Y-133332583D01*
X87710446Y-133338772D01*
X87696817Y-133343649D01*
X87682776Y-133347166D01*
X87668458Y-133349290D01*
X87654000Y-133350000D01*
X87359000Y-133350000D01*
X87344542Y-133349290D01*
X87330224Y-133347166D01*
X87316183Y-133343649D01*
X87302554Y-133338772D01*
X87289469Y-133332583D01*
X87277053Y-133325142D01*
X87265427Y-133316519D01*
X87254702Y-133306798D01*
X87244981Y-133296073D01*
X87236358Y-133284447D01*
X87228917Y-133272031D01*
X87222728Y-133258946D01*
X87217851Y-133245317D01*
X87214334Y-133231276D01*
X87212210Y-133216958D01*
X87211500Y-133202500D01*
X87211500Y-132857500D01*
X87212210Y-132843042D01*
X87214334Y-132828724D01*
X87217851Y-132814683D01*
X87222728Y-132801054D01*
X87228917Y-132787969D01*
X87236358Y-132775553D01*
X87244981Y-132763927D01*
X87254702Y-132753202D01*
X87265427Y-132743481D01*
X87277053Y-132734858D01*
X87289469Y-132727417D01*
X87302554Y-132721228D01*
X87316183Y-132716351D01*
X87330224Y-132712834D01*
X87344542Y-132710710D01*
X87359000Y-132710000D01*
X87654000Y-132710000D01*
X87668458Y-132710710D01*
X87668458Y-132710710D01*
G37*
D22*
X87506500Y-133030000D03*
D13*
G36*
X88638458Y-132710710D02*
X88652776Y-132712834D01*
X88666817Y-132716351D01*
X88680446Y-132721228D01*
X88693531Y-132727417D01*
X88705947Y-132734858D01*
X88717573Y-132743481D01*
X88728298Y-132753202D01*
X88738019Y-132763927D01*
X88746642Y-132775553D01*
X88754083Y-132787969D01*
X88760272Y-132801054D01*
X88765149Y-132814683D01*
X88768666Y-132828724D01*
X88770790Y-132843042D01*
X88771500Y-132857500D01*
X88771500Y-133202500D01*
X88770790Y-133216958D01*
X88768666Y-133231276D01*
X88765149Y-133245317D01*
X88760272Y-133258946D01*
X88754083Y-133272031D01*
X88746642Y-133284447D01*
X88738019Y-133296073D01*
X88728298Y-133306798D01*
X88717573Y-133316519D01*
X88705947Y-133325142D01*
X88693531Y-133332583D01*
X88680446Y-133338772D01*
X88666817Y-133343649D01*
X88652776Y-133347166D01*
X88638458Y-133349290D01*
X88624000Y-133350000D01*
X88329000Y-133350000D01*
X88314542Y-133349290D01*
X88300224Y-133347166D01*
X88286183Y-133343649D01*
X88272554Y-133338772D01*
X88259469Y-133332583D01*
X88247053Y-133325142D01*
X88235427Y-133316519D01*
X88224702Y-133306798D01*
X88214981Y-133296073D01*
X88206358Y-133284447D01*
X88198917Y-133272031D01*
X88192728Y-133258946D01*
X88187851Y-133245317D01*
X88184334Y-133231276D01*
X88182210Y-133216958D01*
X88181500Y-133202500D01*
X88181500Y-132857500D01*
X88182210Y-132843042D01*
X88184334Y-132828724D01*
X88187851Y-132814683D01*
X88192728Y-132801054D01*
X88198917Y-132787969D01*
X88206358Y-132775553D01*
X88214981Y-132763927D01*
X88224702Y-132753202D01*
X88235427Y-132743481D01*
X88247053Y-132734858D01*
X88259469Y-132727417D01*
X88272554Y-132721228D01*
X88286183Y-132716351D01*
X88300224Y-132712834D01*
X88314542Y-132710710D01*
X88329000Y-132710000D01*
X88624000Y-132710000D01*
X88638458Y-132710710D01*
X88638458Y-132710710D01*
G37*
D22*
X88476500Y-133030000D03*
G04 #@! TD*
D13*
G04 #@! TO.C,C20*
G36*
X88638458Y-134996710D02*
X88652776Y-134998834D01*
X88666817Y-135002351D01*
X88680446Y-135007228D01*
X88693531Y-135013417D01*
X88705947Y-135020858D01*
X88717573Y-135029481D01*
X88728298Y-135039202D01*
X88738019Y-135049927D01*
X88746642Y-135061553D01*
X88754083Y-135073969D01*
X88760272Y-135087054D01*
X88765149Y-135100683D01*
X88768666Y-135114724D01*
X88770790Y-135129042D01*
X88771500Y-135143500D01*
X88771500Y-135488500D01*
X88770790Y-135502958D01*
X88768666Y-135517276D01*
X88765149Y-135531317D01*
X88760272Y-135544946D01*
X88754083Y-135558031D01*
X88746642Y-135570447D01*
X88738019Y-135582073D01*
X88728298Y-135592798D01*
X88717573Y-135602519D01*
X88705947Y-135611142D01*
X88693531Y-135618583D01*
X88680446Y-135624772D01*
X88666817Y-135629649D01*
X88652776Y-135633166D01*
X88638458Y-135635290D01*
X88624000Y-135636000D01*
X88329000Y-135636000D01*
X88314542Y-135635290D01*
X88300224Y-135633166D01*
X88286183Y-135629649D01*
X88272554Y-135624772D01*
X88259469Y-135618583D01*
X88247053Y-135611142D01*
X88235427Y-135602519D01*
X88224702Y-135592798D01*
X88214981Y-135582073D01*
X88206358Y-135570447D01*
X88198917Y-135558031D01*
X88192728Y-135544946D01*
X88187851Y-135531317D01*
X88184334Y-135517276D01*
X88182210Y-135502958D01*
X88181500Y-135488500D01*
X88181500Y-135143500D01*
X88182210Y-135129042D01*
X88184334Y-135114724D01*
X88187851Y-135100683D01*
X88192728Y-135087054D01*
X88198917Y-135073969D01*
X88206358Y-135061553D01*
X88214981Y-135049927D01*
X88224702Y-135039202D01*
X88235427Y-135029481D01*
X88247053Y-135020858D01*
X88259469Y-135013417D01*
X88272554Y-135007228D01*
X88286183Y-135002351D01*
X88300224Y-134998834D01*
X88314542Y-134996710D01*
X88329000Y-134996000D01*
X88624000Y-134996000D01*
X88638458Y-134996710D01*
X88638458Y-134996710D01*
G37*
D22*
X88476500Y-135316000D03*
D13*
G36*
X87668458Y-134996710D02*
X87682776Y-134998834D01*
X87696817Y-135002351D01*
X87710446Y-135007228D01*
X87723531Y-135013417D01*
X87735947Y-135020858D01*
X87747573Y-135029481D01*
X87758298Y-135039202D01*
X87768019Y-135049927D01*
X87776642Y-135061553D01*
X87784083Y-135073969D01*
X87790272Y-135087054D01*
X87795149Y-135100683D01*
X87798666Y-135114724D01*
X87800790Y-135129042D01*
X87801500Y-135143500D01*
X87801500Y-135488500D01*
X87800790Y-135502958D01*
X87798666Y-135517276D01*
X87795149Y-135531317D01*
X87790272Y-135544946D01*
X87784083Y-135558031D01*
X87776642Y-135570447D01*
X87768019Y-135582073D01*
X87758298Y-135592798D01*
X87747573Y-135602519D01*
X87735947Y-135611142D01*
X87723531Y-135618583D01*
X87710446Y-135624772D01*
X87696817Y-135629649D01*
X87682776Y-135633166D01*
X87668458Y-135635290D01*
X87654000Y-135636000D01*
X87359000Y-135636000D01*
X87344542Y-135635290D01*
X87330224Y-135633166D01*
X87316183Y-135629649D01*
X87302554Y-135624772D01*
X87289469Y-135618583D01*
X87277053Y-135611142D01*
X87265427Y-135602519D01*
X87254702Y-135592798D01*
X87244981Y-135582073D01*
X87236358Y-135570447D01*
X87228917Y-135558031D01*
X87222728Y-135544946D01*
X87217851Y-135531317D01*
X87214334Y-135517276D01*
X87212210Y-135502958D01*
X87211500Y-135488500D01*
X87211500Y-135143500D01*
X87212210Y-135129042D01*
X87214334Y-135114724D01*
X87217851Y-135100683D01*
X87222728Y-135087054D01*
X87228917Y-135073969D01*
X87236358Y-135061553D01*
X87244981Y-135049927D01*
X87254702Y-135039202D01*
X87265427Y-135029481D01*
X87277053Y-135020858D01*
X87289469Y-135013417D01*
X87302554Y-135007228D01*
X87316183Y-135002351D01*
X87330224Y-134998834D01*
X87344542Y-134996710D01*
X87359000Y-134996000D01*
X87654000Y-134996000D01*
X87668458Y-134996710D01*
X87668458Y-134996710D01*
G37*
D22*
X87506500Y-135316000D03*
G04 #@! TD*
D13*
G04 #@! TO.C,C21*
G36*
X88638458Y-133853710D02*
X88652776Y-133855834D01*
X88666817Y-133859351D01*
X88680446Y-133864228D01*
X88693531Y-133870417D01*
X88705947Y-133877858D01*
X88717573Y-133886481D01*
X88728298Y-133896202D01*
X88738019Y-133906927D01*
X88746642Y-133918553D01*
X88754083Y-133930969D01*
X88760272Y-133944054D01*
X88765149Y-133957683D01*
X88768666Y-133971724D01*
X88770790Y-133986042D01*
X88771500Y-134000500D01*
X88771500Y-134345500D01*
X88770790Y-134359958D01*
X88768666Y-134374276D01*
X88765149Y-134388317D01*
X88760272Y-134401946D01*
X88754083Y-134415031D01*
X88746642Y-134427447D01*
X88738019Y-134439073D01*
X88728298Y-134449798D01*
X88717573Y-134459519D01*
X88705947Y-134468142D01*
X88693531Y-134475583D01*
X88680446Y-134481772D01*
X88666817Y-134486649D01*
X88652776Y-134490166D01*
X88638458Y-134492290D01*
X88624000Y-134493000D01*
X88329000Y-134493000D01*
X88314542Y-134492290D01*
X88300224Y-134490166D01*
X88286183Y-134486649D01*
X88272554Y-134481772D01*
X88259469Y-134475583D01*
X88247053Y-134468142D01*
X88235427Y-134459519D01*
X88224702Y-134449798D01*
X88214981Y-134439073D01*
X88206358Y-134427447D01*
X88198917Y-134415031D01*
X88192728Y-134401946D01*
X88187851Y-134388317D01*
X88184334Y-134374276D01*
X88182210Y-134359958D01*
X88181500Y-134345500D01*
X88181500Y-134000500D01*
X88182210Y-133986042D01*
X88184334Y-133971724D01*
X88187851Y-133957683D01*
X88192728Y-133944054D01*
X88198917Y-133930969D01*
X88206358Y-133918553D01*
X88214981Y-133906927D01*
X88224702Y-133896202D01*
X88235427Y-133886481D01*
X88247053Y-133877858D01*
X88259469Y-133870417D01*
X88272554Y-133864228D01*
X88286183Y-133859351D01*
X88300224Y-133855834D01*
X88314542Y-133853710D01*
X88329000Y-133853000D01*
X88624000Y-133853000D01*
X88638458Y-133853710D01*
X88638458Y-133853710D01*
G37*
D22*
X88476500Y-134173000D03*
D13*
G36*
X87668458Y-133853710D02*
X87682776Y-133855834D01*
X87696817Y-133859351D01*
X87710446Y-133864228D01*
X87723531Y-133870417D01*
X87735947Y-133877858D01*
X87747573Y-133886481D01*
X87758298Y-133896202D01*
X87768019Y-133906927D01*
X87776642Y-133918553D01*
X87784083Y-133930969D01*
X87790272Y-133944054D01*
X87795149Y-133957683D01*
X87798666Y-133971724D01*
X87800790Y-133986042D01*
X87801500Y-134000500D01*
X87801500Y-134345500D01*
X87800790Y-134359958D01*
X87798666Y-134374276D01*
X87795149Y-134388317D01*
X87790272Y-134401946D01*
X87784083Y-134415031D01*
X87776642Y-134427447D01*
X87768019Y-134439073D01*
X87758298Y-134449798D01*
X87747573Y-134459519D01*
X87735947Y-134468142D01*
X87723531Y-134475583D01*
X87710446Y-134481772D01*
X87696817Y-134486649D01*
X87682776Y-134490166D01*
X87668458Y-134492290D01*
X87654000Y-134493000D01*
X87359000Y-134493000D01*
X87344542Y-134492290D01*
X87330224Y-134490166D01*
X87316183Y-134486649D01*
X87302554Y-134481772D01*
X87289469Y-134475583D01*
X87277053Y-134468142D01*
X87265427Y-134459519D01*
X87254702Y-134449798D01*
X87244981Y-134439073D01*
X87236358Y-134427447D01*
X87228917Y-134415031D01*
X87222728Y-134401946D01*
X87217851Y-134388317D01*
X87214334Y-134374276D01*
X87212210Y-134359958D01*
X87211500Y-134345500D01*
X87211500Y-134000500D01*
X87212210Y-133986042D01*
X87214334Y-133971724D01*
X87217851Y-133957683D01*
X87222728Y-133944054D01*
X87228917Y-133930969D01*
X87236358Y-133918553D01*
X87244981Y-133906927D01*
X87254702Y-133896202D01*
X87265427Y-133886481D01*
X87277053Y-133877858D01*
X87289469Y-133870417D01*
X87302554Y-133864228D01*
X87316183Y-133859351D01*
X87330224Y-133855834D01*
X87344542Y-133853710D01*
X87359000Y-133853000D01*
X87654000Y-133853000D01*
X87668458Y-133853710D01*
X87668458Y-133853710D01*
G37*
D22*
X87506500Y-134173000D03*
G04 #@! TD*
D13*
G04 #@! TO.C,D1*
G36*
X141501691Y-75076053D02*
X141522926Y-75079203D01*
X141543750Y-75084419D01*
X141563962Y-75091651D01*
X141583368Y-75100830D01*
X141601781Y-75111866D01*
X141619024Y-75124654D01*
X141634930Y-75139070D01*
X141649346Y-75154976D01*
X141662134Y-75172219D01*
X141673170Y-75190632D01*
X141682349Y-75210038D01*
X141689581Y-75230250D01*
X141694797Y-75251074D01*
X141697947Y-75272309D01*
X141699000Y-75293750D01*
X141699000Y-75731250D01*
X141697947Y-75752691D01*
X141694797Y-75773926D01*
X141689581Y-75794750D01*
X141682349Y-75814962D01*
X141673170Y-75834368D01*
X141662134Y-75852781D01*
X141649346Y-75870024D01*
X141634930Y-75885930D01*
X141619024Y-75900346D01*
X141601781Y-75913134D01*
X141583368Y-75924170D01*
X141563962Y-75933349D01*
X141543750Y-75940581D01*
X141522926Y-75945797D01*
X141501691Y-75948947D01*
X141480250Y-75950000D01*
X140967750Y-75950000D01*
X140946309Y-75948947D01*
X140925074Y-75945797D01*
X140904250Y-75940581D01*
X140884038Y-75933349D01*
X140864632Y-75924170D01*
X140846219Y-75913134D01*
X140828976Y-75900346D01*
X140813070Y-75885930D01*
X140798654Y-75870024D01*
X140785866Y-75852781D01*
X140774830Y-75834368D01*
X140765651Y-75814962D01*
X140758419Y-75794750D01*
X140753203Y-75773926D01*
X140750053Y-75752691D01*
X140749000Y-75731250D01*
X140749000Y-75293750D01*
X140750053Y-75272309D01*
X140753203Y-75251074D01*
X140758419Y-75230250D01*
X140765651Y-75210038D01*
X140774830Y-75190632D01*
X140785866Y-75172219D01*
X140798654Y-75154976D01*
X140813070Y-75139070D01*
X140828976Y-75124654D01*
X140846219Y-75111866D01*
X140864632Y-75100830D01*
X140884038Y-75091651D01*
X140904250Y-75084419D01*
X140925074Y-75079203D01*
X140946309Y-75076053D01*
X140967750Y-75075000D01*
X141480250Y-75075000D01*
X141501691Y-75076053D01*
X141501691Y-75076053D01*
G37*
D23*
X141224000Y-75512500D03*
D13*
G36*
X141501691Y-76651053D02*
X141522926Y-76654203D01*
X141543750Y-76659419D01*
X141563962Y-76666651D01*
X141583368Y-76675830D01*
X141601781Y-76686866D01*
X141619024Y-76699654D01*
X141634930Y-76714070D01*
X141649346Y-76729976D01*
X141662134Y-76747219D01*
X141673170Y-76765632D01*
X141682349Y-76785038D01*
X141689581Y-76805250D01*
X141694797Y-76826074D01*
X141697947Y-76847309D01*
X141699000Y-76868750D01*
X141699000Y-77306250D01*
X141697947Y-77327691D01*
X141694797Y-77348926D01*
X141689581Y-77369750D01*
X141682349Y-77389962D01*
X141673170Y-77409368D01*
X141662134Y-77427781D01*
X141649346Y-77445024D01*
X141634930Y-77460930D01*
X141619024Y-77475346D01*
X141601781Y-77488134D01*
X141583368Y-77499170D01*
X141563962Y-77508349D01*
X141543750Y-77515581D01*
X141522926Y-77520797D01*
X141501691Y-77523947D01*
X141480250Y-77525000D01*
X140967750Y-77525000D01*
X140946309Y-77523947D01*
X140925074Y-77520797D01*
X140904250Y-77515581D01*
X140884038Y-77508349D01*
X140864632Y-77499170D01*
X140846219Y-77488134D01*
X140828976Y-77475346D01*
X140813070Y-77460930D01*
X140798654Y-77445024D01*
X140785866Y-77427781D01*
X140774830Y-77409368D01*
X140765651Y-77389962D01*
X140758419Y-77369750D01*
X140753203Y-77348926D01*
X140750053Y-77327691D01*
X140749000Y-77306250D01*
X140749000Y-76868750D01*
X140750053Y-76847309D01*
X140753203Y-76826074D01*
X140758419Y-76805250D01*
X140765651Y-76785038D01*
X140774830Y-76765632D01*
X140785866Y-76747219D01*
X140798654Y-76729976D01*
X140813070Y-76714070D01*
X140828976Y-76699654D01*
X140846219Y-76686866D01*
X140864632Y-76675830D01*
X140884038Y-76666651D01*
X140904250Y-76659419D01*
X140925074Y-76654203D01*
X140946309Y-76651053D01*
X140967750Y-76650000D01*
X141480250Y-76650000D01*
X141501691Y-76651053D01*
X141501691Y-76651053D01*
G37*
D23*
X141224000Y-77087500D03*
G04 #@! TD*
D13*
G04 #@! TO.C,D2*
G36*
X139801691Y-75076053D02*
X139822926Y-75079203D01*
X139843750Y-75084419D01*
X139863962Y-75091651D01*
X139883368Y-75100830D01*
X139901781Y-75111866D01*
X139919024Y-75124654D01*
X139934930Y-75139070D01*
X139949346Y-75154976D01*
X139962134Y-75172219D01*
X139973170Y-75190632D01*
X139982349Y-75210038D01*
X139989581Y-75230250D01*
X139994797Y-75251074D01*
X139997947Y-75272309D01*
X139999000Y-75293750D01*
X139999000Y-75731250D01*
X139997947Y-75752691D01*
X139994797Y-75773926D01*
X139989581Y-75794750D01*
X139982349Y-75814962D01*
X139973170Y-75834368D01*
X139962134Y-75852781D01*
X139949346Y-75870024D01*
X139934930Y-75885930D01*
X139919024Y-75900346D01*
X139901781Y-75913134D01*
X139883368Y-75924170D01*
X139863962Y-75933349D01*
X139843750Y-75940581D01*
X139822926Y-75945797D01*
X139801691Y-75948947D01*
X139780250Y-75950000D01*
X139267750Y-75950000D01*
X139246309Y-75948947D01*
X139225074Y-75945797D01*
X139204250Y-75940581D01*
X139184038Y-75933349D01*
X139164632Y-75924170D01*
X139146219Y-75913134D01*
X139128976Y-75900346D01*
X139113070Y-75885930D01*
X139098654Y-75870024D01*
X139085866Y-75852781D01*
X139074830Y-75834368D01*
X139065651Y-75814962D01*
X139058419Y-75794750D01*
X139053203Y-75773926D01*
X139050053Y-75752691D01*
X139049000Y-75731250D01*
X139049000Y-75293750D01*
X139050053Y-75272309D01*
X139053203Y-75251074D01*
X139058419Y-75230250D01*
X139065651Y-75210038D01*
X139074830Y-75190632D01*
X139085866Y-75172219D01*
X139098654Y-75154976D01*
X139113070Y-75139070D01*
X139128976Y-75124654D01*
X139146219Y-75111866D01*
X139164632Y-75100830D01*
X139184038Y-75091651D01*
X139204250Y-75084419D01*
X139225074Y-75079203D01*
X139246309Y-75076053D01*
X139267750Y-75075000D01*
X139780250Y-75075000D01*
X139801691Y-75076053D01*
X139801691Y-75076053D01*
G37*
D23*
X139524000Y-75512500D03*
D13*
G36*
X139801691Y-76651053D02*
X139822926Y-76654203D01*
X139843750Y-76659419D01*
X139863962Y-76666651D01*
X139883368Y-76675830D01*
X139901781Y-76686866D01*
X139919024Y-76699654D01*
X139934930Y-76714070D01*
X139949346Y-76729976D01*
X139962134Y-76747219D01*
X139973170Y-76765632D01*
X139982349Y-76785038D01*
X139989581Y-76805250D01*
X139994797Y-76826074D01*
X139997947Y-76847309D01*
X139999000Y-76868750D01*
X139999000Y-77306250D01*
X139997947Y-77327691D01*
X139994797Y-77348926D01*
X139989581Y-77369750D01*
X139982349Y-77389962D01*
X139973170Y-77409368D01*
X139962134Y-77427781D01*
X139949346Y-77445024D01*
X139934930Y-77460930D01*
X139919024Y-77475346D01*
X139901781Y-77488134D01*
X139883368Y-77499170D01*
X139863962Y-77508349D01*
X139843750Y-77515581D01*
X139822926Y-77520797D01*
X139801691Y-77523947D01*
X139780250Y-77525000D01*
X139267750Y-77525000D01*
X139246309Y-77523947D01*
X139225074Y-77520797D01*
X139204250Y-77515581D01*
X139184038Y-77508349D01*
X139164632Y-77499170D01*
X139146219Y-77488134D01*
X139128976Y-77475346D01*
X139113070Y-77460930D01*
X139098654Y-77445024D01*
X139085866Y-77427781D01*
X139074830Y-77409368D01*
X139065651Y-77389962D01*
X139058419Y-77369750D01*
X139053203Y-77348926D01*
X139050053Y-77327691D01*
X139049000Y-77306250D01*
X139049000Y-76868750D01*
X139050053Y-76847309D01*
X139053203Y-76826074D01*
X139058419Y-76805250D01*
X139065651Y-76785038D01*
X139074830Y-76765632D01*
X139085866Y-76747219D01*
X139098654Y-76729976D01*
X139113070Y-76714070D01*
X139128976Y-76699654D01*
X139146219Y-76686866D01*
X139164632Y-76675830D01*
X139184038Y-76666651D01*
X139204250Y-76659419D01*
X139225074Y-76654203D01*
X139246309Y-76651053D01*
X139267750Y-76650000D01*
X139780250Y-76650000D01*
X139801691Y-76651053D01*
X139801691Y-76651053D01*
G37*
D23*
X139524000Y-77087500D03*
G04 #@! TD*
D13*
G04 #@! TO.C,D5*
G36*
X102772916Y-85806557D02*
X102794151Y-85809707D01*
X102814975Y-85814923D01*
X102835187Y-85822155D01*
X102854593Y-85831334D01*
X102873006Y-85842370D01*
X102890249Y-85855158D01*
X102906155Y-85869574D01*
X102920571Y-85885480D01*
X102933359Y-85902723D01*
X102944395Y-85921136D01*
X102953574Y-85940542D01*
X102960806Y-85960754D01*
X102966022Y-85981578D01*
X102969172Y-86002813D01*
X102970225Y-86024254D01*
X102970225Y-86461754D01*
X102969172Y-86483195D01*
X102966022Y-86504430D01*
X102960806Y-86525254D01*
X102953574Y-86545466D01*
X102944395Y-86564872D01*
X102933359Y-86583285D01*
X102920571Y-86600528D01*
X102906155Y-86616434D01*
X102890249Y-86630850D01*
X102873006Y-86643638D01*
X102854593Y-86654674D01*
X102835187Y-86663853D01*
X102814975Y-86671085D01*
X102794151Y-86676301D01*
X102772916Y-86679451D01*
X102751475Y-86680504D01*
X102238975Y-86680504D01*
X102217534Y-86679451D01*
X102196299Y-86676301D01*
X102175475Y-86671085D01*
X102155263Y-86663853D01*
X102135857Y-86654674D01*
X102117444Y-86643638D01*
X102100201Y-86630850D01*
X102084295Y-86616434D01*
X102069879Y-86600528D01*
X102057091Y-86583285D01*
X102046055Y-86564872D01*
X102036876Y-86545466D01*
X102029644Y-86525254D01*
X102024428Y-86504430D01*
X102021278Y-86483195D01*
X102020225Y-86461754D01*
X102020225Y-86024254D01*
X102021278Y-86002813D01*
X102024428Y-85981578D01*
X102029644Y-85960754D01*
X102036876Y-85940542D01*
X102046055Y-85921136D01*
X102057091Y-85902723D01*
X102069879Y-85885480D01*
X102084295Y-85869574D01*
X102100201Y-85855158D01*
X102117444Y-85842370D01*
X102135857Y-85831334D01*
X102155263Y-85822155D01*
X102175475Y-85814923D01*
X102196299Y-85809707D01*
X102217534Y-85806557D01*
X102238975Y-85805504D01*
X102751475Y-85805504D01*
X102772916Y-85806557D01*
X102772916Y-85806557D01*
G37*
D23*
X102495225Y-86243004D03*
D13*
G36*
X102772916Y-87381557D02*
X102794151Y-87384707D01*
X102814975Y-87389923D01*
X102835187Y-87397155D01*
X102854593Y-87406334D01*
X102873006Y-87417370D01*
X102890249Y-87430158D01*
X102906155Y-87444574D01*
X102920571Y-87460480D01*
X102933359Y-87477723D01*
X102944395Y-87496136D01*
X102953574Y-87515542D01*
X102960806Y-87535754D01*
X102966022Y-87556578D01*
X102969172Y-87577813D01*
X102970225Y-87599254D01*
X102970225Y-88036754D01*
X102969172Y-88058195D01*
X102966022Y-88079430D01*
X102960806Y-88100254D01*
X102953574Y-88120466D01*
X102944395Y-88139872D01*
X102933359Y-88158285D01*
X102920571Y-88175528D01*
X102906155Y-88191434D01*
X102890249Y-88205850D01*
X102873006Y-88218638D01*
X102854593Y-88229674D01*
X102835187Y-88238853D01*
X102814975Y-88246085D01*
X102794151Y-88251301D01*
X102772916Y-88254451D01*
X102751475Y-88255504D01*
X102238975Y-88255504D01*
X102217534Y-88254451D01*
X102196299Y-88251301D01*
X102175475Y-88246085D01*
X102155263Y-88238853D01*
X102135857Y-88229674D01*
X102117444Y-88218638D01*
X102100201Y-88205850D01*
X102084295Y-88191434D01*
X102069879Y-88175528D01*
X102057091Y-88158285D01*
X102046055Y-88139872D01*
X102036876Y-88120466D01*
X102029644Y-88100254D01*
X102024428Y-88079430D01*
X102021278Y-88058195D01*
X102020225Y-88036754D01*
X102020225Y-87599254D01*
X102021278Y-87577813D01*
X102024428Y-87556578D01*
X102029644Y-87535754D01*
X102036876Y-87515542D01*
X102046055Y-87496136D01*
X102057091Y-87477723D01*
X102069879Y-87460480D01*
X102084295Y-87444574D01*
X102100201Y-87430158D01*
X102117444Y-87417370D01*
X102135857Y-87406334D01*
X102155263Y-87397155D01*
X102175475Y-87389923D01*
X102196299Y-87384707D01*
X102217534Y-87381557D01*
X102238975Y-87380504D01*
X102751475Y-87380504D01*
X102772916Y-87381557D01*
X102772916Y-87381557D01*
G37*
D23*
X102495225Y-87818004D03*
G04 #@! TD*
D13*
G04 #@! TO.C,R8*
G36*
X141410958Y-73990710D02*
X141425276Y-73992834D01*
X141439317Y-73996351D01*
X141452946Y-74001228D01*
X141466031Y-74007417D01*
X141478447Y-74014858D01*
X141490073Y-74023481D01*
X141500798Y-74033202D01*
X141510519Y-74043927D01*
X141519142Y-74055553D01*
X141526583Y-74067969D01*
X141532772Y-74081054D01*
X141537649Y-74094683D01*
X141541166Y-74108724D01*
X141543290Y-74123042D01*
X141544000Y-74137500D01*
X141544000Y-74432500D01*
X141543290Y-74446958D01*
X141541166Y-74461276D01*
X141537649Y-74475317D01*
X141532772Y-74488946D01*
X141526583Y-74502031D01*
X141519142Y-74514447D01*
X141510519Y-74526073D01*
X141500798Y-74536798D01*
X141490073Y-74546519D01*
X141478447Y-74555142D01*
X141466031Y-74562583D01*
X141452946Y-74568772D01*
X141439317Y-74573649D01*
X141425276Y-74577166D01*
X141410958Y-74579290D01*
X141396500Y-74580000D01*
X141051500Y-74580000D01*
X141037042Y-74579290D01*
X141022724Y-74577166D01*
X141008683Y-74573649D01*
X140995054Y-74568772D01*
X140981969Y-74562583D01*
X140969553Y-74555142D01*
X140957927Y-74546519D01*
X140947202Y-74536798D01*
X140937481Y-74526073D01*
X140928858Y-74514447D01*
X140921417Y-74502031D01*
X140915228Y-74488946D01*
X140910351Y-74475317D01*
X140906834Y-74461276D01*
X140904710Y-74446958D01*
X140904000Y-74432500D01*
X140904000Y-74137500D01*
X140904710Y-74123042D01*
X140906834Y-74108724D01*
X140910351Y-74094683D01*
X140915228Y-74081054D01*
X140921417Y-74067969D01*
X140928858Y-74055553D01*
X140937481Y-74043927D01*
X140947202Y-74033202D01*
X140957927Y-74023481D01*
X140969553Y-74014858D01*
X140981969Y-74007417D01*
X140995054Y-74001228D01*
X141008683Y-73996351D01*
X141022724Y-73992834D01*
X141037042Y-73990710D01*
X141051500Y-73990000D01*
X141396500Y-73990000D01*
X141410958Y-73990710D01*
X141410958Y-73990710D01*
G37*
D22*
X141224000Y-74285000D03*
D13*
G36*
X141410958Y-73020710D02*
X141425276Y-73022834D01*
X141439317Y-73026351D01*
X141452946Y-73031228D01*
X141466031Y-73037417D01*
X141478447Y-73044858D01*
X141490073Y-73053481D01*
X141500798Y-73063202D01*
X141510519Y-73073927D01*
X141519142Y-73085553D01*
X141526583Y-73097969D01*
X141532772Y-73111054D01*
X141537649Y-73124683D01*
X141541166Y-73138724D01*
X141543290Y-73153042D01*
X141544000Y-73167500D01*
X141544000Y-73462500D01*
X141543290Y-73476958D01*
X141541166Y-73491276D01*
X141537649Y-73505317D01*
X141532772Y-73518946D01*
X141526583Y-73532031D01*
X141519142Y-73544447D01*
X141510519Y-73556073D01*
X141500798Y-73566798D01*
X141490073Y-73576519D01*
X141478447Y-73585142D01*
X141466031Y-73592583D01*
X141452946Y-73598772D01*
X141439317Y-73603649D01*
X141425276Y-73607166D01*
X141410958Y-73609290D01*
X141396500Y-73610000D01*
X141051500Y-73610000D01*
X141037042Y-73609290D01*
X141022724Y-73607166D01*
X141008683Y-73603649D01*
X140995054Y-73598772D01*
X140981969Y-73592583D01*
X140969553Y-73585142D01*
X140957927Y-73576519D01*
X140947202Y-73566798D01*
X140937481Y-73556073D01*
X140928858Y-73544447D01*
X140921417Y-73532031D01*
X140915228Y-73518946D01*
X140910351Y-73505317D01*
X140906834Y-73491276D01*
X140904710Y-73476958D01*
X140904000Y-73462500D01*
X140904000Y-73167500D01*
X140904710Y-73153042D01*
X140906834Y-73138724D01*
X140910351Y-73124683D01*
X140915228Y-73111054D01*
X140921417Y-73097969D01*
X140928858Y-73085553D01*
X140937481Y-73073927D01*
X140947202Y-73063202D01*
X140957927Y-73053481D01*
X140969553Y-73044858D01*
X140981969Y-73037417D01*
X140995054Y-73031228D01*
X141008683Y-73026351D01*
X141022724Y-73022834D01*
X141037042Y-73020710D01*
X141051500Y-73020000D01*
X141396500Y-73020000D01*
X141410958Y-73020710D01*
X141410958Y-73020710D01*
G37*
D22*
X141224000Y-73315000D03*
G04 #@! TD*
D13*
G04 #@! TO.C,R9*
G36*
X139710958Y-73990710D02*
X139725276Y-73992834D01*
X139739317Y-73996351D01*
X139752946Y-74001228D01*
X139766031Y-74007417D01*
X139778447Y-74014858D01*
X139790073Y-74023481D01*
X139800798Y-74033202D01*
X139810519Y-74043927D01*
X139819142Y-74055553D01*
X139826583Y-74067969D01*
X139832772Y-74081054D01*
X139837649Y-74094683D01*
X139841166Y-74108724D01*
X139843290Y-74123042D01*
X139844000Y-74137500D01*
X139844000Y-74432500D01*
X139843290Y-74446958D01*
X139841166Y-74461276D01*
X139837649Y-74475317D01*
X139832772Y-74488946D01*
X139826583Y-74502031D01*
X139819142Y-74514447D01*
X139810519Y-74526073D01*
X139800798Y-74536798D01*
X139790073Y-74546519D01*
X139778447Y-74555142D01*
X139766031Y-74562583D01*
X139752946Y-74568772D01*
X139739317Y-74573649D01*
X139725276Y-74577166D01*
X139710958Y-74579290D01*
X139696500Y-74580000D01*
X139351500Y-74580000D01*
X139337042Y-74579290D01*
X139322724Y-74577166D01*
X139308683Y-74573649D01*
X139295054Y-74568772D01*
X139281969Y-74562583D01*
X139269553Y-74555142D01*
X139257927Y-74546519D01*
X139247202Y-74536798D01*
X139237481Y-74526073D01*
X139228858Y-74514447D01*
X139221417Y-74502031D01*
X139215228Y-74488946D01*
X139210351Y-74475317D01*
X139206834Y-74461276D01*
X139204710Y-74446958D01*
X139204000Y-74432500D01*
X139204000Y-74137500D01*
X139204710Y-74123042D01*
X139206834Y-74108724D01*
X139210351Y-74094683D01*
X139215228Y-74081054D01*
X139221417Y-74067969D01*
X139228858Y-74055553D01*
X139237481Y-74043927D01*
X139247202Y-74033202D01*
X139257927Y-74023481D01*
X139269553Y-74014858D01*
X139281969Y-74007417D01*
X139295054Y-74001228D01*
X139308683Y-73996351D01*
X139322724Y-73992834D01*
X139337042Y-73990710D01*
X139351500Y-73990000D01*
X139696500Y-73990000D01*
X139710958Y-73990710D01*
X139710958Y-73990710D01*
G37*
D22*
X139524000Y-74285000D03*
D13*
G36*
X139710958Y-73020710D02*
X139725276Y-73022834D01*
X139739317Y-73026351D01*
X139752946Y-73031228D01*
X139766031Y-73037417D01*
X139778447Y-73044858D01*
X139790073Y-73053481D01*
X139800798Y-73063202D01*
X139810519Y-73073927D01*
X139819142Y-73085553D01*
X139826583Y-73097969D01*
X139832772Y-73111054D01*
X139837649Y-73124683D01*
X139841166Y-73138724D01*
X139843290Y-73153042D01*
X139844000Y-73167500D01*
X139844000Y-73462500D01*
X139843290Y-73476958D01*
X139841166Y-73491276D01*
X139837649Y-73505317D01*
X139832772Y-73518946D01*
X139826583Y-73532031D01*
X139819142Y-73544447D01*
X139810519Y-73556073D01*
X139800798Y-73566798D01*
X139790073Y-73576519D01*
X139778447Y-73585142D01*
X139766031Y-73592583D01*
X139752946Y-73598772D01*
X139739317Y-73603649D01*
X139725276Y-73607166D01*
X139710958Y-73609290D01*
X139696500Y-73610000D01*
X139351500Y-73610000D01*
X139337042Y-73609290D01*
X139322724Y-73607166D01*
X139308683Y-73603649D01*
X139295054Y-73598772D01*
X139281969Y-73592583D01*
X139269553Y-73585142D01*
X139257927Y-73576519D01*
X139247202Y-73566798D01*
X139237481Y-73556073D01*
X139228858Y-73544447D01*
X139221417Y-73532031D01*
X139215228Y-73518946D01*
X139210351Y-73505317D01*
X139206834Y-73491276D01*
X139204710Y-73476958D01*
X139204000Y-73462500D01*
X139204000Y-73167500D01*
X139204710Y-73153042D01*
X139206834Y-73138724D01*
X139210351Y-73124683D01*
X139215228Y-73111054D01*
X139221417Y-73097969D01*
X139228858Y-73085553D01*
X139237481Y-73073927D01*
X139247202Y-73063202D01*
X139257927Y-73053481D01*
X139269553Y-73044858D01*
X139281969Y-73037417D01*
X139295054Y-73031228D01*
X139308683Y-73026351D01*
X139322724Y-73022834D01*
X139337042Y-73020710D01*
X139351500Y-73020000D01*
X139696500Y-73020000D01*
X139710958Y-73020710D01*
X139710958Y-73020710D01*
G37*
D22*
X139524000Y-73315000D03*
G04 #@! TD*
D13*
G04 #@! TO.C,R20*
G36*
X104097083Y-85852514D02*
X104111401Y-85854638D01*
X104125442Y-85858155D01*
X104139071Y-85863032D01*
X104152156Y-85869221D01*
X104164572Y-85876662D01*
X104176198Y-85885285D01*
X104186923Y-85895006D01*
X104196644Y-85905731D01*
X104205267Y-85917357D01*
X104212708Y-85929773D01*
X104218897Y-85942858D01*
X104223774Y-85956487D01*
X104227291Y-85970528D01*
X104229415Y-85984846D01*
X104230125Y-85999304D01*
X104230125Y-86294304D01*
X104229415Y-86308762D01*
X104227291Y-86323080D01*
X104223774Y-86337121D01*
X104218897Y-86350750D01*
X104212708Y-86363835D01*
X104205267Y-86376251D01*
X104196644Y-86387877D01*
X104186923Y-86398602D01*
X104176198Y-86408323D01*
X104164572Y-86416946D01*
X104152156Y-86424387D01*
X104139071Y-86430576D01*
X104125442Y-86435453D01*
X104111401Y-86438970D01*
X104097083Y-86441094D01*
X104082625Y-86441804D01*
X103737625Y-86441804D01*
X103723167Y-86441094D01*
X103708849Y-86438970D01*
X103694808Y-86435453D01*
X103681179Y-86430576D01*
X103668094Y-86424387D01*
X103655678Y-86416946D01*
X103644052Y-86408323D01*
X103633327Y-86398602D01*
X103623606Y-86387877D01*
X103614983Y-86376251D01*
X103607542Y-86363835D01*
X103601353Y-86350750D01*
X103596476Y-86337121D01*
X103592959Y-86323080D01*
X103590835Y-86308762D01*
X103590125Y-86294304D01*
X103590125Y-85999304D01*
X103590835Y-85984846D01*
X103592959Y-85970528D01*
X103596476Y-85956487D01*
X103601353Y-85942858D01*
X103607542Y-85929773D01*
X103614983Y-85917357D01*
X103623606Y-85905731D01*
X103633327Y-85895006D01*
X103644052Y-85885285D01*
X103655678Y-85876662D01*
X103668094Y-85869221D01*
X103681179Y-85863032D01*
X103694808Y-85858155D01*
X103708849Y-85854638D01*
X103723167Y-85852514D01*
X103737625Y-85851804D01*
X104082625Y-85851804D01*
X104097083Y-85852514D01*
X104097083Y-85852514D01*
G37*
D22*
X103910125Y-86146804D03*
D13*
G36*
X104097083Y-86822514D02*
X104111401Y-86824638D01*
X104125442Y-86828155D01*
X104139071Y-86833032D01*
X104152156Y-86839221D01*
X104164572Y-86846662D01*
X104176198Y-86855285D01*
X104186923Y-86865006D01*
X104196644Y-86875731D01*
X104205267Y-86887357D01*
X104212708Y-86899773D01*
X104218897Y-86912858D01*
X104223774Y-86926487D01*
X104227291Y-86940528D01*
X104229415Y-86954846D01*
X104230125Y-86969304D01*
X104230125Y-87264304D01*
X104229415Y-87278762D01*
X104227291Y-87293080D01*
X104223774Y-87307121D01*
X104218897Y-87320750D01*
X104212708Y-87333835D01*
X104205267Y-87346251D01*
X104196644Y-87357877D01*
X104186923Y-87368602D01*
X104176198Y-87378323D01*
X104164572Y-87386946D01*
X104152156Y-87394387D01*
X104139071Y-87400576D01*
X104125442Y-87405453D01*
X104111401Y-87408970D01*
X104097083Y-87411094D01*
X104082625Y-87411804D01*
X103737625Y-87411804D01*
X103723167Y-87411094D01*
X103708849Y-87408970D01*
X103694808Y-87405453D01*
X103681179Y-87400576D01*
X103668094Y-87394387D01*
X103655678Y-87386946D01*
X103644052Y-87378323D01*
X103633327Y-87368602D01*
X103623606Y-87357877D01*
X103614983Y-87346251D01*
X103607542Y-87333835D01*
X103601353Y-87320750D01*
X103596476Y-87307121D01*
X103592959Y-87293080D01*
X103590835Y-87278762D01*
X103590125Y-87264304D01*
X103590125Y-86969304D01*
X103590835Y-86954846D01*
X103592959Y-86940528D01*
X103596476Y-86926487D01*
X103601353Y-86912858D01*
X103607542Y-86899773D01*
X103614983Y-86887357D01*
X103623606Y-86875731D01*
X103633327Y-86865006D01*
X103644052Y-86855285D01*
X103655678Y-86846662D01*
X103668094Y-86839221D01*
X103681179Y-86833032D01*
X103694808Y-86828155D01*
X103708849Y-86824638D01*
X103723167Y-86822514D01*
X103737625Y-86821804D01*
X104082625Y-86821804D01*
X104097083Y-86822514D01*
X104097083Y-86822514D01*
G37*
D22*
X103910125Y-87116804D03*
G04 #@! TD*
D13*
G04 #@! TO.C,R21*
G36*
X199146958Y-126680710D02*
X199161276Y-126682834D01*
X199175317Y-126686351D01*
X199188946Y-126691228D01*
X199202031Y-126697417D01*
X199214447Y-126704858D01*
X199226073Y-126713481D01*
X199236798Y-126723202D01*
X199246519Y-126733927D01*
X199255142Y-126745553D01*
X199262583Y-126757969D01*
X199268772Y-126771054D01*
X199273649Y-126784683D01*
X199277166Y-126798724D01*
X199279290Y-126813042D01*
X199280000Y-126827500D01*
X199280000Y-127172500D01*
X199279290Y-127186958D01*
X199277166Y-127201276D01*
X199273649Y-127215317D01*
X199268772Y-127228946D01*
X199262583Y-127242031D01*
X199255142Y-127254447D01*
X199246519Y-127266073D01*
X199236798Y-127276798D01*
X199226073Y-127286519D01*
X199214447Y-127295142D01*
X199202031Y-127302583D01*
X199188946Y-127308772D01*
X199175317Y-127313649D01*
X199161276Y-127317166D01*
X199146958Y-127319290D01*
X199132500Y-127320000D01*
X198837500Y-127320000D01*
X198823042Y-127319290D01*
X198808724Y-127317166D01*
X198794683Y-127313649D01*
X198781054Y-127308772D01*
X198767969Y-127302583D01*
X198755553Y-127295142D01*
X198743927Y-127286519D01*
X198733202Y-127276798D01*
X198723481Y-127266073D01*
X198714858Y-127254447D01*
X198707417Y-127242031D01*
X198701228Y-127228946D01*
X198696351Y-127215317D01*
X198692834Y-127201276D01*
X198690710Y-127186958D01*
X198690000Y-127172500D01*
X198690000Y-126827500D01*
X198690710Y-126813042D01*
X198692834Y-126798724D01*
X198696351Y-126784683D01*
X198701228Y-126771054D01*
X198707417Y-126757969D01*
X198714858Y-126745553D01*
X198723481Y-126733927D01*
X198733202Y-126723202D01*
X198743927Y-126713481D01*
X198755553Y-126704858D01*
X198767969Y-126697417D01*
X198781054Y-126691228D01*
X198794683Y-126686351D01*
X198808724Y-126682834D01*
X198823042Y-126680710D01*
X198837500Y-126680000D01*
X199132500Y-126680000D01*
X199146958Y-126680710D01*
X199146958Y-126680710D01*
G37*
D22*
X198985000Y-127000000D03*
D13*
G36*
X198176958Y-126680710D02*
X198191276Y-126682834D01*
X198205317Y-126686351D01*
X198218946Y-126691228D01*
X198232031Y-126697417D01*
X198244447Y-126704858D01*
X198256073Y-126713481D01*
X198266798Y-126723202D01*
X198276519Y-126733927D01*
X198285142Y-126745553D01*
X198292583Y-126757969D01*
X198298772Y-126771054D01*
X198303649Y-126784683D01*
X198307166Y-126798724D01*
X198309290Y-126813042D01*
X198310000Y-126827500D01*
X198310000Y-127172500D01*
X198309290Y-127186958D01*
X198307166Y-127201276D01*
X198303649Y-127215317D01*
X198298772Y-127228946D01*
X198292583Y-127242031D01*
X198285142Y-127254447D01*
X198276519Y-127266073D01*
X198266798Y-127276798D01*
X198256073Y-127286519D01*
X198244447Y-127295142D01*
X198232031Y-127302583D01*
X198218946Y-127308772D01*
X198205317Y-127313649D01*
X198191276Y-127317166D01*
X198176958Y-127319290D01*
X198162500Y-127320000D01*
X197867500Y-127320000D01*
X197853042Y-127319290D01*
X197838724Y-127317166D01*
X197824683Y-127313649D01*
X197811054Y-127308772D01*
X197797969Y-127302583D01*
X197785553Y-127295142D01*
X197773927Y-127286519D01*
X197763202Y-127276798D01*
X197753481Y-127266073D01*
X197744858Y-127254447D01*
X197737417Y-127242031D01*
X197731228Y-127228946D01*
X197726351Y-127215317D01*
X197722834Y-127201276D01*
X197720710Y-127186958D01*
X197720000Y-127172500D01*
X197720000Y-126827500D01*
X197720710Y-126813042D01*
X197722834Y-126798724D01*
X197726351Y-126784683D01*
X197731228Y-126771054D01*
X197737417Y-126757969D01*
X197744858Y-126745553D01*
X197753481Y-126733927D01*
X197763202Y-126723202D01*
X197773927Y-126713481D01*
X197785553Y-126704858D01*
X197797969Y-126697417D01*
X197811054Y-126691228D01*
X197824683Y-126686351D01*
X197838724Y-126682834D01*
X197853042Y-126680710D01*
X197867500Y-126680000D01*
X198162500Y-126680000D01*
X198176958Y-126680710D01*
X198176958Y-126680710D01*
G37*
D22*
X198015000Y-127000000D03*
G04 #@! TD*
D13*
G04 #@! TO.C,R22*
G36*
X199146958Y-127930710D02*
X199161276Y-127932834D01*
X199175317Y-127936351D01*
X199188946Y-127941228D01*
X199202031Y-127947417D01*
X199214447Y-127954858D01*
X199226073Y-127963481D01*
X199236798Y-127973202D01*
X199246519Y-127983927D01*
X199255142Y-127995553D01*
X199262583Y-128007969D01*
X199268772Y-128021054D01*
X199273649Y-128034683D01*
X199277166Y-128048724D01*
X199279290Y-128063042D01*
X199280000Y-128077500D01*
X199280000Y-128422500D01*
X199279290Y-128436958D01*
X199277166Y-128451276D01*
X199273649Y-128465317D01*
X199268772Y-128478946D01*
X199262583Y-128492031D01*
X199255142Y-128504447D01*
X199246519Y-128516073D01*
X199236798Y-128526798D01*
X199226073Y-128536519D01*
X199214447Y-128545142D01*
X199202031Y-128552583D01*
X199188946Y-128558772D01*
X199175317Y-128563649D01*
X199161276Y-128567166D01*
X199146958Y-128569290D01*
X199132500Y-128570000D01*
X198837500Y-128570000D01*
X198823042Y-128569290D01*
X198808724Y-128567166D01*
X198794683Y-128563649D01*
X198781054Y-128558772D01*
X198767969Y-128552583D01*
X198755553Y-128545142D01*
X198743927Y-128536519D01*
X198733202Y-128526798D01*
X198723481Y-128516073D01*
X198714858Y-128504447D01*
X198707417Y-128492031D01*
X198701228Y-128478946D01*
X198696351Y-128465317D01*
X198692834Y-128451276D01*
X198690710Y-128436958D01*
X198690000Y-128422500D01*
X198690000Y-128077500D01*
X198690710Y-128063042D01*
X198692834Y-128048724D01*
X198696351Y-128034683D01*
X198701228Y-128021054D01*
X198707417Y-128007969D01*
X198714858Y-127995553D01*
X198723481Y-127983927D01*
X198733202Y-127973202D01*
X198743927Y-127963481D01*
X198755553Y-127954858D01*
X198767969Y-127947417D01*
X198781054Y-127941228D01*
X198794683Y-127936351D01*
X198808724Y-127932834D01*
X198823042Y-127930710D01*
X198837500Y-127930000D01*
X199132500Y-127930000D01*
X199146958Y-127930710D01*
X199146958Y-127930710D01*
G37*
D22*
X198985000Y-128250000D03*
D13*
G36*
X198176958Y-127930710D02*
X198191276Y-127932834D01*
X198205317Y-127936351D01*
X198218946Y-127941228D01*
X198232031Y-127947417D01*
X198244447Y-127954858D01*
X198256073Y-127963481D01*
X198266798Y-127973202D01*
X198276519Y-127983927D01*
X198285142Y-127995553D01*
X198292583Y-128007969D01*
X198298772Y-128021054D01*
X198303649Y-128034683D01*
X198307166Y-128048724D01*
X198309290Y-128063042D01*
X198310000Y-128077500D01*
X198310000Y-128422500D01*
X198309290Y-128436958D01*
X198307166Y-128451276D01*
X198303649Y-128465317D01*
X198298772Y-128478946D01*
X198292583Y-128492031D01*
X198285142Y-128504447D01*
X198276519Y-128516073D01*
X198266798Y-128526798D01*
X198256073Y-128536519D01*
X198244447Y-128545142D01*
X198232031Y-128552583D01*
X198218946Y-128558772D01*
X198205317Y-128563649D01*
X198191276Y-128567166D01*
X198176958Y-128569290D01*
X198162500Y-128570000D01*
X197867500Y-128570000D01*
X197853042Y-128569290D01*
X197838724Y-128567166D01*
X197824683Y-128563649D01*
X197811054Y-128558772D01*
X197797969Y-128552583D01*
X197785553Y-128545142D01*
X197773927Y-128536519D01*
X197763202Y-128526798D01*
X197753481Y-128516073D01*
X197744858Y-128504447D01*
X197737417Y-128492031D01*
X197731228Y-128478946D01*
X197726351Y-128465317D01*
X197722834Y-128451276D01*
X197720710Y-128436958D01*
X197720000Y-128422500D01*
X197720000Y-128077500D01*
X197720710Y-128063042D01*
X197722834Y-128048724D01*
X197726351Y-128034683D01*
X197731228Y-128021054D01*
X197737417Y-128007969D01*
X197744858Y-127995553D01*
X197753481Y-127983927D01*
X197763202Y-127973202D01*
X197773927Y-127963481D01*
X197785553Y-127954858D01*
X197797969Y-127947417D01*
X197811054Y-127941228D01*
X197824683Y-127936351D01*
X197838724Y-127932834D01*
X197853042Y-127930710D01*
X197867500Y-127930000D01*
X198162500Y-127930000D01*
X198176958Y-127930710D01*
X198176958Y-127930710D01*
G37*
D22*
X198015000Y-128250000D03*
G04 #@! TD*
D13*
G04 #@! TO.C,R23*
G36*
X197870958Y-82180710D02*
X197885276Y-82182834D01*
X197899317Y-82186351D01*
X197912946Y-82191228D01*
X197926031Y-82197417D01*
X197938447Y-82204858D01*
X197950073Y-82213481D01*
X197960798Y-82223202D01*
X197970519Y-82233927D01*
X197979142Y-82245553D01*
X197986583Y-82257969D01*
X197992772Y-82271054D01*
X197997649Y-82284683D01*
X198001166Y-82298724D01*
X198003290Y-82313042D01*
X198004000Y-82327500D01*
X198004000Y-82672500D01*
X198003290Y-82686958D01*
X198001166Y-82701276D01*
X197997649Y-82715317D01*
X197992772Y-82728946D01*
X197986583Y-82742031D01*
X197979142Y-82754447D01*
X197970519Y-82766073D01*
X197960798Y-82776798D01*
X197950073Y-82786519D01*
X197938447Y-82795142D01*
X197926031Y-82802583D01*
X197912946Y-82808772D01*
X197899317Y-82813649D01*
X197885276Y-82817166D01*
X197870958Y-82819290D01*
X197856500Y-82820000D01*
X197561500Y-82820000D01*
X197547042Y-82819290D01*
X197532724Y-82817166D01*
X197518683Y-82813649D01*
X197505054Y-82808772D01*
X197491969Y-82802583D01*
X197479553Y-82795142D01*
X197467927Y-82786519D01*
X197457202Y-82776798D01*
X197447481Y-82766073D01*
X197438858Y-82754447D01*
X197431417Y-82742031D01*
X197425228Y-82728946D01*
X197420351Y-82715317D01*
X197416834Y-82701276D01*
X197414710Y-82686958D01*
X197414000Y-82672500D01*
X197414000Y-82327500D01*
X197414710Y-82313042D01*
X197416834Y-82298724D01*
X197420351Y-82284683D01*
X197425228Y-82271054D01*
X197431417Y-82257969D01*
X197438858Y-82245553D01*
X197447481Y-82233927D01*
X197457202Y-82223202D01*
X197467927Y-82213481D01*
X197479553Y-82204858D01*
X197491969Y-82197417D01*
X197505054Y-82191228D01*
X197518683Y-82186351D01*
X197532724Y-82182834D01*
X197547042Y-82180710D01*
X197561500Y-82180000D01*
X197856500Y-82180000D01*
X197870958Y-82180710D01*
X197870958Y-82180710D01*
G37*
D22*
X197709000Y-82500000D03*
D13*
G36*
X196900958Y-82180710D02*
X196915276Y-82182834D01*
X196929317Y-82186351D01*
X196942946Y-82191228D01*
X196956031Y-82197417D01*
X196968447Y-82204858D01*
X196980073Y-82213481D01*
X196990798Y-82223202D01*
X197000519Y-82233927D01*
X197009142Y-82245553D01*
X197016583Y-82257969D01*
X197022772Y-82271054D01*
X197027649Y-82284683D01*
X197031166Y-82298724D01*
X197033290Y-82313042D01*
X197034000Y-82327500D01*
X197034000Y-82672500D01*
X197033290Y-82686958D01*
X197031166Y-82701276D01*
X197027649Y-82715317D01*
X197022772Y-82728946D01*
X197016583Y-82742031D01*
X197009142Y-82754447D01*
X197000519Y-82766073D01*
X196990798Y-82776798D01*
X196980073Y-82786519D01*
X196968447Y-82795142D01*
X196956031Y-82802583D01*
X196942946Y-82808772D01*
X196929317Y-82813649D01*
X196915276Y-82817166D01*
X196900958Y-82819290D01*
X196886500Y-82820000D01*
X196591500Y-82820000D01*
X196577042Y-82819290D01*
X196562724Y-82817166D01*
X196548683Y-82813649D01*
X196535054Y-82808772D01*
X196521969Y-82802583D01*
X196509553Y-82795142D01*
X196497927Y-82786519D01*
X196487202Y-82776798D01*
X196477481Y-82766073D01*
X196468858Y-82754447D01*
X196461417Y-82742031D01*
X196455228Y-82728946D01*
X196450351Y-82715317D01*
X196446834Y-82701276D01*
X196444710Y-82686958D01*
X196444000Y-82672500D01*
X196444000Y-82327500D01*
X196444710Y-82313042D01*
X196446834Y-82298724D01*
X196450351Y-82284683D01*
X196455228Y-82271054D01*
X196461417Y-82257969D01*
X196468858Y-82245553D01*
X196477481Y-82233927D01*
X196487202Y-82223202D01*
X196497927Y-82213481D01*
X196509553Y-82204858D01*
X196521969Y-82197417D01*
X196535054Y-82191228D01*
X196548683Y-82186351D01*
X196562724Y-82182834D01*
X196577042Y-82180710D01*
X196591500Y-82180000D01*
X196886500Y-82180000D01*
X196900958Y-82180710D01*
X196900958Y-82180710D01*
G37*
D22*
X196739000Y-82500000D03*
G04 #@! TD*
D13*
G04 #@! TO.C,R24*
G36*
X197896958Y-106930710D02*
X197911276Y-106932834D01*
X197925317Y-106936351D01*
X197938946Y-106941228D01*
X197952031Y-106947417D01*
X197964447Y-106954858D01*
X197976073Y-106963481D01*
X197986798Y-106973202D01*
X197996519Y-106983927D01*
X198005142Y-106995553D01*
X198012583Y-107007969D01*
X198018772Y-107021054D01*
X198023649Y-107034683D01*
X198027166Y-107048724D01*
X198029290Y-107063042D01*
X198030000Y-107077500D01*
X198030000Y-107422500D01*
X198029290Y-107436958D01*
X198027166Y-107451276D01*
X198023649Y-107465317D01*
X198018772Y-107478946D01*
X198012583Y-107492031D01*
X198005142Y-107504447D01*
X197996519Y-107516073D01*
X197986798Y-107526798D01*
X197976073Y-107536519D01*
X197964447Y-107545142D01*
X197952031Y-107552583D01*
X197938946Y-107558772D01*
X197925317Y-107563649D01*
X197911276Y-107567166D01*
X197896958Y-107569290D01*
X197882500Y-107570000D01*
X197587500Y-107570000D01*
X197573042Y-107569290D01*
X197558724Y-107567166D01*
X197544683Y-107563649D01*
X197531054Y-107558772D01*
X197517969Y-107552583D01*
X197505553Y-107545142D01*
X197493927Y-107536519D01*
X197483202Y-107526798D01*
X197473481Y-107516073D01*
X197464858Y-107504447D01*
X197457417Y-107492031D01*
X197451228Y-107478946D01*
X197446351Y-107465317D01*
X197442834Y-107451276D01*
X197440710Y-107436958D01*
X197440000Y-107422500D01*
X197440000Y-107077500D01*
X197440710Y-107063042D01*
X197442834Y-107048724D01*
X197446351Y-107034683D01*
X197451228Y-107021054D01*
X197457417Y-107007969D01*
X197464858Y-106995553D01*
X197473481Y-106983927D01*
X197483202Y-106973202D01*
X197493927Y-106963481D01*
X197505553Y-106954858D01*
X197517969Y-106947417D01*
X197531054Y-106941228D01*
X197544683Y-106936351D01*
X197558724Y-106932834D01*
X197573042Y-106930710D01*
X197587500Y-106930000D01*
X197882500Y-106930000D01*
X197896958Y-106930710D01*
X197896958Y-106930710D01*
G37*
D22*
X197735000Y-107250000D03*
D13*
G36*
X196926958Y-106930710D02*
X196941276Y-106932834D01*
X196955317Y-106936351D01*
X196968946Y-106941228D01*
X196982031Y-106947417D01*
X196994447Y-106954858D01*
X197006073Y-106963481D01*
X197016798Y-106973202D01*
X197026519Y-106983927D01*
X197035142Y-106995553D01*
X197042583Y-107007969D01*
X197048772Y-107021054D01*
X197053649Y-107034683D01*
X197057166Y-107048724D01*
X197059290Y-107063042D01*
X197060000Y-107077500D01*
X197060000Y-107422500D01*
X197059290Y-107436958D01*
X197057166Y-107451276D01*
X197053649Y-107465317D01*
X197048772Y-107478946D01*
X197042583Y-107492031D01*
X197035142Y-107504447D01*
X197026519Y-107516073D01*
X197016798Y-107526798D01*
X197006073Y-107536519D01*
X196994447Y-107545142D01*
X196982031Y-107552583D01*
X196968946Y-107558772D01*
X196955317Y-107563649D01*
X196941276Y-107567166D01*
X196926958Y-107569290D01*
X196912500Y-107570000D01*
X196617500Y-107570000D01*
X196603042Y-107569290D01*
X196588724Y-107567166D01*
X196574683Y-107563649D01*
X196561054Y-107558772D01*
X196547969Y-107552583D01*
X196535553Y-107545142D01*
X196523927Y-107536519D01*
X196513202Y-107526798D01*
X196503481Y-107516073D01*
X196494858Y-107504447D01*
X196487417Y-107492031D01*
X196481228Y-107478946D01*
X196476351Y-107465317D01*
X196472834Y-107451276D01*
X196470710Y-107436958D01*
X196470000Y-107422500D01*
X196470000Y-107077500D01*
X196470710Y-107063042D01*
X196472834Y-107048724D01*
X196476351Y-107034683D01*
X196481228Y-107021054D01*
X196487417Y-107007969D01*
X196494858Y-106995553D01*
X196503481Y-106983927D01*
X196513202Y-106973202D01*
X196523927Y-106963481D01*
X196535553Y-106954858D01*
X196547969Y-106947417D01*
X196561054Y-106941228D01*
X196574683Y-106936351D01*
X196588724Y-106932834D01*
X196603042Y-106930710D01*
X196617500Y-106930000D01*
X196912500Y-106930000D01*
X196926958Y-106930710D01*
X196926958Y-106930710D01*
G37*
D22*
X196765000Y-107250000D03*
G04 #@! TD*
D13*
G04 #@! TO.C,R25*
G36*
X197896958Y-108180710D02*
X197911276Y-108182834D01*
X197925317Y-108186351D01*
X197938946Y-108191228D01*
X197952031Y-108197417D01*
X197964447Y-108204858D01*
X197976073Y-108213481D01*
X197986798Y-108223202D01*
X197996519Y-108233927D01*
X198005142Y-108245553D01*
X198012583Y-108257969D01*
X198018772Y-108271054D01*
X198023649Y-108284683D01*
X198027166Y-108298724D01*
X198029290Y-108313042D01*
X198030000Y-108327500D01*
X198030000Y-108672500D01*
X198029290Y-108686958D01*
X198027166Y-108701276D01*
X198023649Y-108715317D01*
X198018772Y-108728946D01*
X198012583Y-108742031D01*
X198005142Y-108754447D01*
X197996519Y-108766073D01*
X197986798Y-108776798D01*
X197976073Y-108786519D01*
X197964447Y-108795142D01*
X197952031Y-108802583D01*
X197938946Y-108808772D01*
X197925317Y-108813649D01*
X197911276Y-108817166D01*
X197896958Y-108819290D01*
X197882500Y-108820000D01*
X197587500Y-108820000D01*
X197573042Y-108819290D01*
X197558724Y-108817166D01*
X197544683Y-108813649D01*
X197531054Y-108808772D01*
X197517969Y-108802583D01*
X197505553Y-108795142D01*
X197493927Y-108786519D01*
X197483202Y-108776798D01*
X197473481Y-108766073D01*
X197464858Y-108754447D01*
X197457417Y-108742031D01*
X197451228Y-108728946D01*
X197446351Y-108715317D01*
X197442834Y-108701276D01*
X197440710Y-108686958D01*
X197440000Y-108672500D01*
X197440000Y-108327500D01*
X197440710Y-108313042D01*
X197442834Y-108298724D01*
X197446351Y-108284683D01*
X197451228Y-108271054D01*
X197457417Y-108257969D01*
X197464858Y-108245553D01*
X197473481Y-108233927D01*
X197483202Y-108223202D01*
X197493927Y-108213481D01*
X197505553Y-108204858D01*
X197517969Y-108197417D01*
X197531054Y-108191228D01*
X197544683Y-108186351D01*
X197558724Y-108182834D01*
X197573042Y-108180710D01*
X197587500Y-108180000D01*
X197882500Y-108180000D01*
X197896958Y-108180710D01*
X197896958Y-108180710D01*
G37*
D22*
X197735000Y-108500000D03*
D13*
G36*
X196926958Y-108180710D02*
X196941276Y-108182834D01*
X196955317Y-108186351D01*
X196968946Y-108191228D01*
X196982031Y-108197417D01*
X196994447Y-108204858D01*
X197006073Y-108213481D01*
X197016798Y-108223202D01*
X197026519Y-108233927D01*
X197035142Y-108245553D01*
X197042583Y-108257969D01*
X197048772Y-108271054D01*
X197053649Y-108284683D01*
X197057166Y-108298724D01*
X197059290Y-108313042D01*
X197060000Y-108327500D01*
X197060000Y-108672500D01*
X197059290Y-108686958D01*
X197057166Y-108701276D01*
X197053649Y-108715317D01*
X197048772Y-108728946D01*
X197042583Y-108742031D01*
X197035142Y-108754447D01*
X197026519Y-108766073D01*
X197016798Y-108776798D01*
X197006073Y-108786519D01*
X196994447Y-108795142D01*
X196982031Y-108802583D01*
X196968946Y-108808772D01*
X196955317Y-108813649D01*
X196941276Y-108817166D01*
X196926958Y-108819290D01*
X196912500Y-108820000D01*
X196617500Y-108820000D01*
X196603042Y-108819290D01*
X196588724Y-108817166D01*
X196574683Y-108813649D01*
X196561054Y-108808772D01*
X196547969Y-108802583D01*
X196535553Y-108795142D01*
X196523927Y-108786519D01*
X196513202Y-108776798D01*
X196503481Y-108766073D01*
X196494858Y-108754447D01*
X196487417Y-108742031D01*
X196481228Y-108728946D01*
X196476351Y-108715317D01*
X196472834Y-108701276D01*
X196470710Y-108686958D01*
X196470000Y-108672500D01*
X196470000Y-108327500D01*
X196470710Y-108313042D01*
X196472834Y-108298724D01*
X196476351Y-108284683D01*
X196481228Y-108271054D01*
X196487417Y-108257969D01*
X196494858Y-108245553D01*
X196503481Y-108233927D01*
X196513202Y-108223202D01*
X196523927Y-108213481D01*
X196535553Y-108204858D01*
X196547969Y-108197417D01*
X196561054Y-108191228D01*
X196574683Y-108186351D01*
X196588724Y-108182834D01*
X196603042Y-108180710D01*
X196617500Y-108180000D01*
X196912500Y-108180000D01*
X196926958Y-108180710D01*
X196926958Y-108180710D01*
G37*
D22*
X196765000Y-108500000D03*
G04 #@! TD*
D13*
G04 #@! TO.C,R26*
G36*
X90797458Y-134996710D02*
X90811776Y-134998834D01*
X90825817Y-135002351D01*
X90839446Y-135007228D01*
X90852531Y-135013417D01*
X90864947Y-135020858D01*
X90876573Y-135029481D01*
X90887298Y-135039202D01*
X90897019Y-135049927D01*
X90905642Y-135061553D01*
X90913083Y-135073969D01*
X90919272Y-135087054D01*
X90924149Y-135100683D01*
X90927666Y-135114724D01*
X90929790Y-135129042D01*
X90930500Y-135143500D01*
X90930500Y-135488500D01*
X90929790Y-135502958D01*
X90927666Y-135517276D01*
X90924149Y-135531317D01*
X90919272Y-135544946D01*
X90913083Y-135558031D01*
X90905642Y-135570447D01*
X90897019Y-135582073D01*
X90887298Y-135592798D01*
X90876573Y-135602519D01*
X90864947Y-135611142D01*
X90852531Y-135618583D01*
X90839446Y-135624772D01*
X90825817Y-135629649D01*
X90811776Y-135633166D01*
X90797458Y-135635290D01*
X90783000Y-135636000D01*
X90488000Y-135636000D01*
X90473542Y-135635290D01*
X90459224Y-135633166D01*
X90445183Y-135629649D01*
X90431554Y-135624772D01*
X90418469Y-135618583D01*
X90406053Y-135611142D01*
X90394427Y-135602519D01*
X90383702Y-135592798D01*
X90373981Y-135582073D01*
X90365358Y-135570447D01*
X90357917Y-135558031D01*
X90351728Y-135544946D01*
X90346851Y-135531317D01*
X90343334Y-135517276D01*
X90341210Y-135502958D01*
X90340500Y-135488500D01*
X90340500Y-135143500D01*
X90341210Y-135129042D01*
X90343334Y-135114724D01*
X90346851Y-135100683D01*
X90351728Y-135087054D01*
X90357917Y-135073969D01*
X90365358Y-135061553D01*
X90373981Y-135049927D01*
X90383702Y-135039202D01*
X90394427Y-135029481D01*
X90406053Y-135020858D01*
X90418469Y-135013417D01*
X90431554Y-135007228D01*
X90445183Y-135002351D01*
X90459224Y-134998834D01*
X90473542Y-134996710D01*
X90488000Y-134996000D01*
X90783000Y-134996000D01*
X90797458Y-134996710D01*
X90797458Y-134996710D01*
G37*
D22*
X90635500Y-135316000D03*
D13*
G36*
X89827458Y-134996710D02*
X89841776Y-134998834D01*
X89855817Y-135002351D01*
X89869446Y-135007228D01*
X89882531Y-135013417D01*
X89894947Y-135020858D01*
X89906573Y-135029481D01*
X89917298Y-135039202D01*
X89927019Y-135049927D01*
X89935642Y-135061553D01*
X89943083Y-135073969D01*
X89949272Y-135087054D01*
X89954149Y-135100683D01*
X89957666Y-135114724D01*
X89959790Y-135129042D01*
X89960500Y-135143500D01*
X89960500Y-135488500D01*
X89959790Y-135502958D01*
X89957666Y-135517276D01*
X89954149Y-135531317D01*
X89949272Y-135544946D01*
X89943083Y-135558031D01*
X89935642Y-135570447D01*
X89927019Y-135582073D01*
X89917298Y-135592798D01*
X89906573Y-135602519D01*
X89894947Y-135611142D01*
X89882531Y-135618583D01*
X89869446Y-135624772D01*
X89855817Y-135629649D01*
X89841776Y-135633166D01*
X89827458Y-135635290D01*
X89813000Y-135636000D01*
X89518000Y-135636000D01*
X89503542Y-135635290D01*
X89489224Y-135633166D01*
X89475183Y-135629649D01*
X89461554Y-135624772D01*
X89448469Y-135618583D01*
X89436053Y-135611142D01*
X89424427Y-135602519D01*
X89413702Y-135592798D01*
X89403981Y-135582073D01*
X89395358Y-135570447D01*
X89387917Y-135558031D01*
X89381728Y-135544946D01*
X89376851Y-135531317D01*
X89373334Y-135517276D01*
X89371210Y-135502958D01*
X89370500Y-135488500D01*
X89370500Y-135143500D01*
X89371210Y-135129042D01*
X89373334Y-135114724D01*
X89376851Y-135100683D01*
X89381728Y-135087054D01*
X89387917Y-135073969D01*
X89395358Y-135061553D01*
X89403981Y-135049927D01*
X89413702Y-135039202D01*
X89424427Y-135029481D01*
X89436053Y-135020858D01*
X89448469Y-135013417D01*
X89461554Y-135007228D01*
X89475183Y-135002351D01*
X89489224Y-134998834D01*
X89503542Y-134996710D01*
X89518000Y-134996000D01*
X89813000Y-134996000D01*
X89827458Y-134996710D01*
X89827458Y-134996710D01*
G37*
D22*
X89665500Y-135316000D03*
G04 #@! TD*
D13*
G04 #@! TO.C,R27*
G36*
X90797458Y-133853710D02*
X90811776Y-133855834D01*
X90825817Y-133859351D01*
X90839446Y-133864228D01*
X90852531Y-133870417D01*
X90864947Y-133877858D01*
X90876573Y-133886481D01*
X90887298Y-133896202D01*
X90897019Y-133906927D01*
X90905642Y-133918553D01*
X90913083Y-133930969D01*
X90919272Y-133944054D01*
X90924149Y-133957683D01*
X90927666Y-133971724D01*
X90929790Y-133986042D01*
X90930500Y-134000500D01*
X90930500Y-134345500D01*
X90929790Y-134359958D01*
X90927666Y-134374276D01*
X90924149Y-134388317D01*
X90919272Y-134401946D01*
X90913083Y-134415031D01*
X90905642Y-134427447D01*
X90897019Y-134439073D01*
X90887298Y-134449798D01*
X90876573Y-134459519D01*
X90864947Y-134468142D01*
X90852531Y-134475583D01*
X90839446Y-134481772D01*
X90825817Y-134486649D01*
X90811776Y-134490166D01*
X90797458Y-134492290D01*
X90783000Y-134493000D01*
X90488000Y-134493000D01*
X90473542Y-134492290D01*
X90459224Y-134490166D01*
X90445183Y-134486649D01*
X90431554Y-134481772D01*
X90418469Y-134475583D01*
X90406053Y-134468142D01*
X90394427Y-134459519D01*
X90383702Y-134449798D01*
X90373981Y-134439073D01*
X90365358Y-134427447D01*
X90357917Y-134415031D01*
X90351728Y-134401946D01*
X90346851Y-134388317D01*
X90343334Y-134374276D01*
X90341210Y-134359958D01*
X90340500Y-134345500D01*
X90340500Y-134000500D01*
X90341210Y-133986042D01*
X90343334Y-133971724D01*
X90346851Y-133957683D01*
X90351728Y-133944054D01*
X90357917Y-133930969D01*
X90365358Y-133918553D01*
X90373981Y-133906927D01*
X90383702Y-133896202D01*
X90394427Y-133886481D01*
X90406053Y-133877858D01*
X90418469Y-133870417D01*
X90431554Y-133864228D01*
X90445183Y-133859351D01*
X90459224Y-133855834D01*
X90473542Y-133853710D01*
X90488000Y-133853000D01*
X90783000Y-133853000D01*
X90797458Y-133853710D01*
X90797458Y-133853710D01*
G37*
D22*
X90635500Y-134173000D03*
D13*
G36*
X89827458Y-133853710D02*
X89841776Y-133855834D01*
X89855817Y-133859351D01*
X89869446Y-133864228D01*
X89882531Y-133870417D01*
X89894947Y-133877858D01*
X89906573Y-133886481D01*
X89917298Y-133896202D01*
X89927019Y-133906927D01*
X89935642Y-133918553D01*
X89943083Y-133930969D01*
X89949272Y-133944054D01*
X89954149Y-133957683D01*
X89957666Y-133971724D01*
X89959790Y-133986042D01*
X89960500Y-134000500D01*
X89960500Y-134345500D01*
X89959790Y-134359958D01*
X89957666Y-134374276D01*
X89954149Y-134388317D01*
X89949272Y-134401946D01*
X89943083Y-134415031D01*
X89935642Y-134427447D01*
X89927019Y-134439073D01*
X89917298Y-134449798D01*
X89906573Y-134459519D01*
X89894947Y-134468142D01*
X89882531Y-134475583D01*
X89869446Y-134481772D01*
X89855817Y-134486649D01*
X89841776Y-134490166D01*
X89827458Y-134492290D01*
X89813000Y-134493000D01*
X89518000Y-134493000D01*
X89503542Y-134492290D01*
X89489224Y-134490166D01*
X89475183Y-134486649D01*
X89461554Y-134481772D01*
X89448469Y-134475583D01*
X89436053Y-134468142D01*
X89424427Y-134459519D01*
X89413702Y-134449798D01*
X89403981Y-134439073D01*
X89395358Y-134427447D01*
X89387917Y-134415031D01*
X89381728Y-134401946D01*
X89376851Y-134388317D01*
X89373334Y-134374276D01*
X89371210Y-134359958D01*
X89370500Y-134345500D01*
X89370500Y-134000500D01*
X89371210Y-133986042D01*
X89373334Y-133971724D01*
X89376851Y-133957683D01*
X89381728Y-133944054D01*
X89387917Y-133930969D01*
X89395358Y-133918553D01*
X89403981Y-133906927D01*
X89413702Y-133896202D01*
X89424427Y-133886481D01*
X89436053Y-133877858D01*
X89448469Y-133870417D01*
X89461554Y-133864228D01*
X89475183Y-133859351D01*
X89489224Y-133855834D01*
X89503542Y-133853710D01*
X89518000Y-133853000D01*
X89813000Y-133853000D01*
X89827458Y-133853710D01*
X89827458Y-133853710D01*
G37*
D22*
X89665500Y-134173000D03*
G04 #@! TD*
D13*
G04 #@! TO.C,R28*
G36*
X89827458Y-136139710D02*
X89841776Y-136141834D01*
X89855817Y-136145351D01*
X89869446Y-136150228D01*
X89882531Y-136156417D01*
X89894947Y-136163858D01*
X89906573Y-136172481D01*
X89917298Y-136182202D01*
X89927019Y-136192927D01*
X89935642Y-136204553D01*
X89943083Y-136216969D01*
X89949272Y-136230054D01*
X89954149Y-136243683D01*
X89957666Y-136257724D01*
X89959790Y-136272042D01*
X89960500Y-136286500D01*
X89960500Y-136631500D01*
X89959790Y-136645958D01*
X89957666Y-136660276D01*
X89954149Y-136674317D01*
X89949272Y-136687946D01*
X89943083Y-136701031D01*
X89935642Y-136713447D01*
X89927019Y-136725073D01*
X89917298Y-136735798D01*
X89906573Y-136745519D01*
X89894947Y-136754142D01*
X89882531Y-136761583D01*
X89869446Y-136767772D01*
X89855817Y-136772649D01*
X89841776Y-136776166D01*
X89827458Y-136778290D01*
X89813000Y-136779000D01*
X89518000Y-136779000D01*
X89503542Y-136778290D01*
X89489224Y-136776166D01*
X89475183Y-136772649D01*
X89461554Y-136767772D01*
X89448469Y-136761583D01*
X89436053Y-136754142D01*
X89424427Y-136745519D01*
X89413702Y-136735798D01*
X89403981Y-136725073D01*
X89395358Y-136713447D01*
X89387917Y-136701031D01*
X89381728Y-136687946D01*
X89376851Y-136674317D01*
X89373334Y-136660276D01*
X89371210Y-136645958D01*
X89370500Y-136631500D01*
X89370500Y-136286500D01*
X89371210Y-136272042D01*
X89373334Y-136257724D01*
X89376851Y-136243683D01*
X89381728Y-136230054D01*
X89387917Y-136216969D01*
X89395358Y-136204553D01*
X89403981Y-136192927D01*
X89413702Y-136182202D01*
X89424427Y-136172481D01*
X89436053Y-136163858D01*
X89448469Y-136156417D01*
X89461554Y-136150228D01*
X89475183Y-136145351D01*
X89489224Y-136141834D01*
X89503542Y-136139710D01*
X89518000Y-136139000D01*
X89813000Y-136139000D01*
X89827458Y-136139710D01*
X89827458Y-136139710D01*
G37*
D22*
X89665500Y-136459000D03*
D13*
G36*
X90797458Y-136139710D02*
X90811776Y-136141834D01*
X90825817Y-136145351D01*
X90839446Y-136150228D01*
X90852531Y-136156417D01*
X90864947Y-136163858D01*
X90876573Y-136172481D01*
X90887298Y-136182202D01*
X90897019Y-136192927D01*
X90905642Y-136204553D01*
X90913083Y-136216969D01*
X90919272Y-136230054D01*
X90924149Y-136243683D01*
X90927666Y-136257724D01*
X90929790Y-136272042D01*
X90930500Y-136286500D01*
X90930500Y-136631500D01*
X90929790Y-136645958D01*
X90927666Y-136660276D01*
X90924149Y-136674317D01*
X90919272Y-136687946D01*
X90913083Y-136701031D01*
X90905642Y-136713447D01*
X90897019Y-136725073D01*
X90887298Y-136735798D01*
X90876573Y-136745519D01*
X90864947Y-136754142D01*
X90852531Y-136761583D01*
X90839446Y-136767772D01*
X90825817Y-136772649D01*
X90811776Y-136776166D01*
X90797458Y-136778290D01*
X90783000Y-136779000D01*
X90488000Y-136779000D01*
X90473542Y-136778290D01*
X90459224Y-136776166D01*
X90445183Y-136772649D01*
X90431554Y-136767772D01*
X90418469Y-136761583D01*
X90406053Y-136754142D01*
X90394427Y-136745519D01*
X90383702Y-136735798D01*
X90373981Y-136725073D01*
X90365358Y-136713447D01*
X90357917Y-136701031D01*
X90351728Y-136687946D01*
X90346851Y-136674317D01*
X90343334Y-136660276D01*
X90341210Y-136645958D01*
X90340500Y-136631500D01*
X90340500Y-136286500D01*
X90341210Y-136272042D01*
X90343334Y-136257724D01*
X90346851Y-136243683D01*
X90351728Y-136230054D01*
X90357917Y-136216969D01*
X90365358Y-136204553D01*
X90373981Y-136192927D01*
X90383702Y-136182202D01*
X90394427Y-136172481D01*
X90406053Y-136163858D01*
X90418469Y-136156417D01*
X90431554Y-136150228D01*
X90445183Y-136145351D01*
X90459224Y-136141834D01*
X90473542Y-136139710D01*
X90488000Y-136139000D01*
X90783000Y-136139000D01*
X90797458Y-136139710D01*
X90797458Y-136139710D01*
G37*
D22*
X90635500Y-136459000D03*
G04 #@! TD*
D13*
G04 #@! TO.C,R29*
G36*
X89827458Y-132710710D02*
X89841776Y-132712834D01*
X89855817Y-132716351D01*
X89869446Y-132721228D01*
X89882531Y-132727417D01*
X89894947Y-132734858D01*
X89906573Y-132743481D01*
X89917298Y-132753202D01*
X89927019Y-132763927D01*
X89935642Y-132775553D01*
X89943083Y-132787969D01*
X89949272Y-132801054D01*
X89954149Y-132814683D01*
X89957666Y-132828724D01*
X89959790Y-132843042D01*
X89960500Y-132857500D01*
X89960500Y-133202500D01*
X89959790Y-133216958D01*
X89957666Y-133231276D01*
X89954149Y-133245317D01*
X89949272Y-133258946D01*
X89943083Y-133272031D01*
X89935642Y-133284447D01*
X89927019Y-133296073D01*
X89917298Y-133306798D01*
X89906573Y-133316519D01*
X89894947Y-133325142D01*
X89882531Y-133332583D01*
X89869446Y-133338772D01*
X89855817Y-133343649D01*
X89841776Y-133347166D01*
X89827458Y-133349290D01*
X89813000Y-133350000D01*
X89518000Y-133350000D01*
X89503542Y-133349290D01*
X89489224Y-133347166D01*
X89475183Y-133343649D01*
X89461554Y-133338772D01*
X89448469Y-133332583D01*
X89436053Y-133325142D01*
X89424427Y-133316519D01*
X89413702Y-133306798D01*
X89403981Y-133296073D01*
X89395358Y-133284447D01*
X89387917Y-133272031D01*
X89381728Y-133258946D01*
X89376851Y-133245317D01*
X89373334Y-133231276D01*
X89371210Y-133216958D01*
X89370500Y-133202500D01*
X89370500Y-132857500D01*
X89371210Y-132843042D01*
X89373334Y-132828724D01*
X89376851Y-132814683D01*
X89381728Y-132801054D01*
X89387917Y-132787969D01*
X89395358Y-132775553D01*
X89403981Y-132763927D01*
X89413702Y-132753202D01*
X89424427Y-132743481D01*
X89436053Y-132734858D01*
X89448469Y-132727417D01*
X89461554Y-132721228D01*
X89475183Y-132716351D01*
X89489224Y-132712834D01*
X89503542Y-132710710D01*
X89518000Y-132710000D01*
X89813000Y-132710000D01*
X89827458Y-132710710D01*
X89827458Y-132710710D01*
G37*
D22*
X89665500Y-133030000D03*
D13*
G36*
X90797458Y-132710710D02*
X90811776Y-132712834D01*
X90825817Y-132716351D01*
X90839446Y-132721228D01*
X90852531Y-132727417D01*
X90864947Y-132734858D01*
X90876573Y-132743481D01*
X90887298Y-132753202D01*
X90897019Y-132763927D01*
X90905642Y-132775553D01*
X90913083Y-132787969D01*
X90919272Y-132801054D01*
X90924149Y-132814683D01*
X90927666Y-132828724D01*
X90929790Y-132843042D01*
X90930500Y-132857500D01*
X90930500Y-133202500D01*
X90929790Y-133216958D01*
X90927666Y-133231276D01*
X90924149Y-133245317D01*
X90919272Y-133258946D01*
X90913083Y-133272031D01*
X90905642Y-133284447D01*
X90897019Y-133296073D01*
X90887298Y-133306798D01*
X90876573Y-133316519D01*
X90864947Y-133325142D01*
X90852531Y-133332583D01*
X90839446Y-133338772D01*
X90825817Y-133343649D01*
X90811776Y-133347166D01*
X90797458Y-133349290D01*
X90783000Y-133350000D01*
X90488000Y-133350000D01*
X90473542Y-133349290D01*
X90459224Y-133347166D01*
X90445183Y-133343649D01*
X90431554Y-133338772D01*
X90418469Y-133332583D01*
X90406053Y-133325142D01*
X90394427Y-133316519D01*
X90383702Y-133306798D01*
X90373981Y-133296073D01*
X90365358Y-133284447D01*
X90357917Y-133272031D01*
X90351728Y-133258946D01*
X90346851Y-133245317D01*
X90343334Y-133231276D01*
X90341210Y-133216958D01*
X90340500Y-133202500D01*
X90340500Y-132857500D01*
X90341210Y-132843042D01*
X90343334Y-132828724D01*
X90346851Y-132814683D01*
X90351728Y-132801054D01*
X90357917Y-132787969D01*
X90365358Y-132775553D01*
X90373981Y-132763927D01*
X90383702Y-132753202D01*
X90394427Y-132743481D01*
X90406053Y-132734858D01*
X90418469Y-132727417D01*
X90431554Y-132721228D01*
X90445183Y-132716351D01*
X90459224Y-132712834D01*
X90473542Y-132710710D01*
X90488000Y-132710000D01*
X90783000Y-132710000D01*
X90797458Y-132710710D01*
X90797458Y-132710710D01*
G37*
D22*
X90635500Y-133030000D03*
G04 #@! TD*
D13*
G04 #@! TO.C,R30*
G36*
X148612458Y-78329310D02*
X148626776Y-78331434D01*
X148640817Y-78334951D01*
X148654446Y-78339828D01*
X148667531Y-78346017D01*
X148679947Y-78353458D01*
X148691573Y-78362081D01*
X148702298Y-78371802D01*
X148712019Y-78382527D01*
X148720642Y-78394153D01*
X148728083Y-78406569D01*
X148734272Y-78419654D01*
X148739149Y-78433283D01*
X148742666Y-78447324D01*
X148744790Y-78461642D01*
X148745500Y-78476100D01*
X148745500Y-78821100D01*
X148744790Y-78835558D01*
X148742666Y-78849876D01*
X148739149Y-78863917D01*
X148734272Y-78877546D01*
X148728083Y-78890631D01*
X148720642Y-78903047D01*
X148712019Y-78914673D01*
X148702298Y-78925398D01*
X148691573Y-78935119D01*
X148679947Y-78943742D01*
X148667531Y-78951183D01*
X148654446Y-78957372D01*
X148640817Y-78962249D01*
X148626776Y-78965766D01*
X148612458Y-78967890D01*
X148598000Y-78968600D01*
X148303000Y-78968600D01*
X148288542Y-78967890D01*
X148274224Y-78965766D01*
X148260183Y-78962249D01*
X148246554Y-78957372D01*
X148233469Y-78951183D01*
X148221053Y-78943742D01*
X148209427Y-78935119D01*
X148198702Y-78925398D01*
X148188981Y-78914673D01*
X148180358Y-78903047D01*
X148172917Y-78890631D01*
X148166728Y-78877546D01*
X148161851Y-78863917D01*
X148158334Y-78849876D01*
X148156210Y-78835558D01*
X148155500Y-78821100D01*
X148155500Y-78476100D01*
X148156210Y-78461642D01*
X148158334Y-78447324D01*
X148161851Y-78433283D01*
X148166728Y-78419654D01*
X148172917Y-78406569D01*
X148180358Y-78394153D01*
X148188981Y-78382527D01*
X148198702Y-78371802D01*
X148209427Y-78362081D01*
X148221053Y-78353458D01*
X148233469Y-78346017D01*
X148246554Y-78339828D01*
X148260183Y-78334951D01*
X148274224Y-78331434D01*
X148288542Y-78329310D01*
X148303000Y-78328600D01*
X148598000Y-78328600D01*
X148612458Y-78329310D01*
X148612458Y-78329310D01*
G37*
D22*
X148450500Y-78648600D03*
D13*
G36*
X149582458Y-78329310D02*
X149596776Y-78331434D01*
X149610817Y-78334951D01*
X149624446Y-78339828D01*
X149637531Y-78346017D01*
X149649947Y-78353458D01*
X149661573Y-78362081D01*
X149672298Y-78371802D01*
X149682019Y-78382527D01*
X149690642Y-78394153D01*
X149698083Y-78406569D01*
X149704272Y-78419654D01*
X149709149Y-78433283D01*
X149712666Y-78447324D01*
X149714790Y-78461642D01*
X149715500Y-78476100D01*
X149715500Y-78821100D01*
X149714790Y-78835558D01*
X149712666Y-78849876D01*
X149709149Y-78863917D01*
X149704272Y-78877546D01*
X149698083Y-78890631D01*
X149690642Y-78903047D01*
X149682019Y-78914673D01*
X149672298Y-78925398D01*
X149661573Y-78935119D01*
X149649947Y-78943742D01*
X149637531Y-78951183D01*
X149624446Y-78957372D01*
X149610817Y-78962249D01*
X149596776Y-78965766D01*
X149582458Y-78967890D01*
X149568000Y-78968600D01*
X149273000Y-78968600D01*
X149258542Y-78967890D01*
X149244224Y-78965766D01*
X149230183Y-78962249D01*
X149216554Y-78957372D01*
X149203469Y-78951183D01*
X149191053Y-78943742D01*
X149179427Y-78935119D01*
X149168702Y-78925398D01*
X149158981Y-78914673D01*
X149150358Y-78903047D01*
X149142917Y-78890631D01*
X149136728Y-78877546D01*
X149131851Y-78863917D01*
X149128334Y-78849876D01*
X149126210Y-78835558D01*
X149125500Y-78821100D01*
X149125500Y-78476100D01*
X149126210Y-78461642D01*
X149128334Y-78447324D01*
X149131851Y-78433283D01*
X149136728Y-78419654D01*
X149142917Y-78406569D01*
X149150358Y-78394153D01*
X149158981Y-78382527D01*
X149168702Y-78371802D01*
X149179427Y-78362081D01*
X149191053Y-78353458D01*
X149203469Y-78346017D01*
X149216554Y-78339828D01*
X149230183Y-78334951D01*
X149244224Y-78331434D01*
X149258542Y-78329310D01*
X149273000Y-78328600D01*
X149568000Y-78328600D01*
X149582458Y-78329310D01*
X149582458Y-78329310D01*
G37*
D22*
X149420500Y-78648600D03*
G04 #@! TD*
D13*
G04 #@! TO.C,R31*
G36*
X148612458Y-77084710D02*
X148626776Y-77086834D01*
X148640817Y-77090351D01*
X148654446Y-77095228D01*
X148667531Y-77101417D01*
X148679947Y-77108858D01*
X148691573Y-77117481D01*
X148702298Y-77127202D01*
X148712019Y-77137927D01*
X148720642Y-77149553D01*
X148728083Y-77161969D01*
X148734272Y-77175054D01*
X148739149Y-77188683D01*
X148742666Y-77202724D01*
X148744790Y-77217042D01*
X148745500Y-77231500D01*
X148745500Y-77576500D01*
X148744790Y-77590958D01*
X148742666Y-77605276D01*
X148739149Y-77619317D01*
X148734272Y-77632946D01*
X148728083Y-77646031D01*
X148720642Y-77658447D01*
X148712019Y-77670073D01*
X148702298Y-77680798D01*
X148691573Y-77690519D01*
X148679947Y-77699142D01*
X148667531Y-77706583D01*
X148654446Y-77712772D01*
X148640817Y-77717649D01*
X148626776Y-77721166D01*
X148612458Y-77723290D01*
X148598000Y-77724000D01*
X148303000Y-77724000D01*
X148288542Y-77723290D01*
X148274224Y-77721166D01*
X148260183Y-77717649D01*
X148246554Y-77712772D01*
X148233469Y-77706583D01*
X148221053Y-77699142D01*
X148209427Y-77690519D01*
X148198702Y-77680798D01*
X148188981Y-77670073D01*
X148180358Y-77658447D01*
X148172917Y-77646031D01*
X148166728Y-77632946D01*
X148161851Y-77619317D01*
X148158334Y-77605276D01*
X148156210Y-77590958D01*
X148155500Y-77576500D01*
X148155500Y-77231500D01*
X148156210Y-77217042D01*
X148158334Y-77202724D01*
X148161851Y-77188683D01*
X148166728Y-77175054D01*
X148172917Y-77161969D01*
X148180358Y-77149553D01*
X148188981Y-77137927D01*
X148198702Y-77127202D01*
X148209427Y-77117481D01*
X148221053Y-77108858D01*
X148233469Y-77101417D01*
X148246554Y-77095228D01*
X148260183Y-77090351D01*
X148274224Y-77086834D01*
X148288542Y-77084710D01*
X148303000Y-77084000D01*
X148598000Y-77084000D01*
X148612458Y-77084710D01*
X148612458Y-77084710D01*
G37*
D22*
X148450500Y-77404000D03*
D13*
G36*
X149582458Y-77084710D02*
X149596776Y-77086834D01*
X149610817Y-77090351D01*
X149624446Y-77095228D01*
X149637531Y-77101417D01*
X149649947Y-77108858D01*
X149661573Y-77117481D01*
X149672298Y-77127202D01*
X149682019Y-77137927D01*
X149690642Y-77149553D01*
X149698083Y-77161969D01*
X149704272Y-77175054D01*
X149709149Y-77188683D01*
X149712666Y-77202724D01*
X149714790Y-77217042D01*
X149715500Y-77231500D01*
X149715500Y-77576500D01*
X149714790Y-77590958D01*
X149712666Y-77605276D01*
X149709149Y-77619317D01*
X149704272Y-77632946D01*
X149698083Y-77646031D01*
X149690642Y-77658447D01*
X149682019Y-77670073D01*
X149672298Y-77680798D01*
X149661573Y-77690519D01*
X149649947Y-77699142D01*
X149637531Y-77706583D01*
X149624446Y-77712772D01*
X149610817Y-77717649D01*
X149596776Y-77721166D01*
X149582458Y-77723290D01*
X149568000Y-77724000D01*
X149273000Y-77724000D01*
X149258542Y-77723290D01*
X149244224Y-77721166D01*
X149230183Y-77717649D01*
X149216554Y-77712772D01*
X149203469Y-77706583D01*
X149191053Y-77699142D01*
X149179427Y-77690519D01*
X149168702Y-77680798D01*
X149158981Y-77670073D01*
X149150358Y-77658447D01*
X149142917Y-77646031D01*
X149136728Y-77632946D01*
X149131851Y-77619317D01*
X149128334Y-77605276D01*
X149126210Y-77590958D01*
X149125500Y-77576500D01*
X149125500Y-77231500D01*
X149126210Y-77217042D01*
X149128334Y-77202724D01*
X149131851Y-77188683D01*
X149136728Y-77175054D01*
X149142917Y-77161969D01*
X149150358Y-77149553D01*
X149158981Y-77137927D01*
X149168702Y-77127202D01*
X149179427Y-77117481D01*
X149191053Y-77108858D01*
X149203469Y-77101417D01*
X149216554Y-77095228D01*
X149230183Y-77090351D01*
X149244224Y-77086834D01*
X149258542Y-77084710D01*
X149273000Y-77084000D01*
X149568000Y-77084000D01*
X149582458Y-77084710D01*
X149582458Y-77084710D01*
G37*
D22*
X149420500Y-77404000D03*
G04 #@! TD*
D13*
G04 #@! TO.C,R32*
G36*
X146100958Y-81780710D02*
X146115276Y-81782834D01*
X146129317Y-81786351D01*
X146142946Y-81791228D01*
X146156031Y-81797417D01*
X146168447Y-81804858D01*
X146180073Y-81813481D01*
X146190798Y-81823202D01*
X146200519Y-81833927D01*
X146209142Y-81845553D01*
X146216583Y-81857969D01*
X146222772Y-81871054D01*
X146227649Y-81884683D01*
X146231166Y-81898724D01*
X146233290Y-81913042D01*
X146234000Y-81927500D01*
X146234000Y-82272500D01*
X146233290Y-82286958D01*
X146231166Y-82301276D01*
X146227649Y-82315317D01*
X146222772Y-82328946D01*
X146216583Y-82342031D01*
X146209142Y-82354447D01*
X146200519Y-82366073D01*
X146190798Y-82376798D01*
X146180073Y-82386519D01*
X146168447Y-82395142D01*
X146156031Y-82402583D01*
X146142946Y-82408772D01*
X146129317Y-82413649D01*
X146115276Y-82417166D01*
X146100958Y-82419290D01*
X146086500Y-82420000D01*
X145791500Y-82420000D01*
X145777042Y-82419290D01*
X145762724Y-82417166D01*
X145748683Y-82413649D01*
X145735054Y-82408772D01*
X145721969Y-82402583D01*
X145709553Y-82395142D01*
X145697927Y-82386519D01*
X145687202Y-82376798D01*
X145677481Y-82366073D01*
X145668858Y-82354447D01*
X145661417Y-82342031D01*
X145655228Y-82328946D01*
X145650351Y-82315317D01*
X145646834Y-82301276D01*
X145644710Y-82286958D01*
X145644000Y-82272500D01*
X145644000Y-81927500D01*
X145644710Y-81913042D01*
X145646834Y-81898724D01*
X145650351Y-81884683D01*
X145655228Y-81871054D01*
X145661417Y-81857969D01*
X145668858Y-81845553D01*
X145677481Y-81833927D01*
X145687202Y-81823202D01*
X145697927Y-81813481D01*
X145709553Y-81804858D01*
X145721969Y-81797417D01*
X145735054Y-81791228D01*
X145748683Y-81786351D01*
X145762724Y-81782834D01*
X145777042Y-81780710D01*
X145791500Y-81780000D01*
X146086500Y-81780000D01*
X146100958Y-81780710D01*
X146100958Y-81780710D01*
G37*
D22*
X145939000Y-82100000D03*
D13*
G36*
X147070958Y-81780710D02*
X147085276Y-81782834D01*
X147099317Y-81786351D01*
X147112946Y-81791228D01*
X147126031Y-81797417D01*
X147138447Y-81804858D01*
X147150073Y-81813481D01*
X147160798Y-81823202D01*
X147170519Y-81833927D01*
X147179142Y-81845553D01*
X147186583Y-81857969D01*
X147192772Y-81871054D01*
X147197649Y-81884683D01*
X147201166Y-81898724D01*
X147203290Y-81913042D01*
X147204000Y-81927500D01*
X147204000Y-82272500D01*
X147203290Y-82286958D01*
X147201166Y-82301276D01*
X147197649Y-82315317D01*
X147192772Y-82328946D01*
X147186583Y-82342031D01*
X147179142Y-82354447D01*
X147170519Y-82366073D01*
X147160798Y-82376798D01*
X147150073Y-82386519D01*
X147138447Y-82395142D01*
X147126031Y-82402583D01*
X147112946Y-82408772D01*
X147099317Y-82413649D01*
X147085276Y-82417166D01*
X147070958Y-82419290D01*
X147056500Y-82420000D01*
X146761500Y-82420000D01*
X146747042Y-82419290D01*
X146732724Y-82417166D01*
X146718683Y-82413649D01*
X146705054Y-82408772D01*
X146691969Y-82402583D01*
X146679553Y-82395142D01*
X146667927Y-82386519D01*
X146657202Y-82376798D01*
X146647481Y-82366073D01*
X146638858Y-82354447D01*
X146631417Y-82342031D01*
X146625228Y-82328946D01*
X146620351Y-82315317D01*
X146616834Y-82301276D01*
X146614710Y-82286958D01*
X146614000Y-82272500D01*
X146614000Y-81927500D01*
X146614710Y-81913042D01*
X146616834Y-81898724D01*
X146620351Y-81884683D01*
X146625228Y-81871054D01*
X146631417Y-81857969D01*
X146638858Y-81845553D01*
X146647481Y-81833927D01*
X146657202Y-81823202D01*
X146667927Y-81813481D01*
X146679553Y-81804858D01*
X146691969Y-81797417D01*
X146705054Y-81791228D01*
X146718683Y-81786351D01*
X146732724Y-81782834D01*
X146747042Y-81780710D01*
X146761500Y-81780000D01*
X147056500Y-81780000D01*
X147070958Y-81780710D01*
X147070958Y-81780710D01*
G37*
D22*
X146909000Y-82100000D03*
G04 #@! TD*
D12*
G04 #@! TO.C,J7*
X129192500Y-71940500D03*
X129842500Y-71940500D03*
X130492500Y-71940500D03*
X131142500Y-71940500D03*
X131792500Y-71940500D03*
G04 #@! TD*
M02*
